node1,label1,type1,node2,label2,type2,confidence
textD:\Study\INF517\code\kwdSearchHet\data\text\input\hollande-01.txt|offset2889|length15|PERSON,Emmanuel Macron,entityOccurrence,textD:\Study\INF517\code\kwdSearchHet\data\text\input\hollande-01.txt|offset2990|length9|PERSON,Macron,entityOccurrence,0.566666666666667
textD:\Study\INF517\code\kwdSearchHet\data\text\input\hollande-01.txt|offset1015|length15|PERSON,Emmanuel Macron,entityOccurrence,textD:\Study\INF517\code\kwdSearchHet\data\text\input\hollande-01.txt|offset1179|length9|PERSON,Macron,entityOccurrence,0.566666666666667
textD:\Study\INF517\code\kwdSearchHet\data\text\input\hollande-01.txt|offset1179|length9|PERSON,Macron,entityOccurrence,textD:\Study\INF517\code\kwdSearchHet\data\text\input\hollande-01.txt|offset2889|length15|PERSON,Emmanuel Macron,entityOccurrence,0.566666666666667
textD:\Study\INF517\code\kwdSearchHet\data\text\input\hollande-01.txt|offset1179|length9|PERSON,Macron,entityOccurrence,textD:\Study\INF517\code\kwdSearchHet\data\text\input\hollande-01.txt|offset1562|length15|PERSON,Emmanuel Macron,entityOccurrence,0.566666666666667
textD:\Study\INF517\code\kwdSearchHet\data\text\input\hollande-01.txt|offset1854|length21|PERSON,Nicolas Dupont-Aignan,entityOccurrence,"graph2|""Nicolas""",Nicolas,rdfLiteral,0.777777777777778
textD:\Study\INF517\code\kwdSearchHet\data\text\input\hollande-01.txt|offset2483|length15|PERSON,Nicolas Sarkozy,entityOccurrence,"graph2|""Nicolas""",Nicolas,rdfLiteral,0.822222222222222
textD:\Study\INF517\code\kwdSearchHet\data\text\input\hollande-01.txt|offset1986|length17|PERSON,Jacques Cheminade,entityOccurrence,"graph2|""Jacques""",Jacques,rdfLiteral,0.803921568627451
"graph2|""Yves Nicolin""",Yves Nicolin,rdfLiteral,"graph2|""Yves""",Yves,rdfLiteral,0.777777777777778
