node1,label1,type1,node2,label2,type2,confidence
textD:\Study\INF517\code\kwdSearchHet\data\text\input\hollande-01.txt|offset784|length18|PERSON,Jean-Luc Mélenchon,entityOccurrence,textD:\Study\INF517\code\kwdSearchHet\data\text\input\hollande-01.txt|offset2752|length18|PERSON,Jean-Luc Mélenchon,entityOccurrence,1
textD:\Study\INF517\code\kwdSearchHet\data\text\input\hollande-01.txt|offset1776|length18|PERSON,Jean-Luc Mélenchon,entityOccurrence,textD:\Study\INF517\code\kwdSearchHet\data\text\input\hollande-01.txt|offset2752|length18|PERSON,Jean-Luc Mélenchon,entityOccurrence,1
textD:\Study\INF517\code\kwdSearchHet\data\text\input\hollande-01.txt|offset825|length13|PERSON,Cécile Duflot,entityOccurrence,textD:\Study\INF517\code\kwdSearchHet\data\text\input\hollande-01.txt|offset1890|length13|PERSON,Cécile Duflot,entityOccurrence,1
textD:\Study\INF517\code\kwdSearchHet\data\text\input\hollande-01.txt|offset691|length16|PERSON,Nathalie Arthaud,entityOccurrence,textD:\Study\INF517\code\kwdSearchHet\data\text\input\hollande-01.txt|offset1962|length16|PERSON,Nathalie Arthaud,entityOccurrence,1
textD:\Study\INF517\code\kwdSearchHet\data\text\input\hollande-01.txt|offset1562|length15|PERSON,Emmanuel Macron,entityOccurrence,textD:\Study\INF517\code\kwdSearchHet\data\text\input\hollande-01.txt|offset2889|length15|PERSON,Emmanuel Macron,entityOccurrence,1
textD:\Study\INF517\code\kwdSearchHet\data\text\input\hollande-01.txt|offset1015|length15|PERSON,Emmanuel Macron,entityOccurrence,textD:\Study\INF517\code\kwdSearchHet\data\text\input\hollande-01.txt|offset2889|length15|PERSON,Emmanuel Macron,entityOccurrence,1
textD:\Study\INF517\code\kwdSearchHet\data\text\input\hollande-01.txt|offset127|length15|PERSON,Emmanuel Macron,entityOccurrence,textD:\Study\INF517\code\kwdSearchHet\data\text\input\hollande-01.txt|offset2889|length15|PERSON,Emmanuel Macron,entityOccurrence,1
textD:\Study\INF517\code\kwdSearchHet\data\text\input\hollande-01.txt|offset1179|length9|PERSON,Macron,entityOccurrence,textD:\Study\INF517\code\kwdSearchHet\data\text\input\hollande-01.txt|offset2990|length9|PERSON,Macron,entityOccurrence,1
textD:\Study\INF517\code\kwdSearchHet\data\text\input\hollande-01.txt|offset874|length21|PERSON,Nicolas Dupont-Aignan,entityOccurrence,textD:\Study\INF517\code\kwdSearchHet\data\text\input\hollande-01.txt|offset1854|length21|PERSON,Nicolas Dupont-Aignan,entityOccurrence,1
textD:\Study\INF517\code\kwdSearchHet\data\text\input\hollande-01.txt|offset730|length15|PERSON,Philippe Poutou,entityOccurrence,textD:\Study\INF517\code\kwdSearchHet\data\text\input\hollande-01.txt|offset1920|length15|PERSON,Philippe Poutou,entityOccurrence,1
textD:\Study\INF517\code\kwdSearchHet\data\text\input\hollande-01.txt|offset1094|length15|PERSON,Nicolas Sarkozy,entityOccurrence,textD:\Study\INF517\code\kwdSearchHet\data\text\input\hollande-01.txt|offset2483|length15|PERSON,Nicolas Sarkozy,entityOccurrence,1
textD:\Study\INF517\code\kwdSearchHet\data\text\input\hollande-01.txt|offset458|length15|PERSON,Nicolas Sarkozy,entityOccurrence,textD:\Study\INF517\code\kwdSearchHet\data\text\input\hollande-01.txt|offset2483|length15|PERSON,Nicolas Sarkozy,entityOccurrence,1
textD:\Study\INF517\code\kwdSearchHet\data\text\input\hollande-01.txt|offset2088|length15|PERSON,Nicolas Sarkozy,entityOccurrence,textD:\Study\INF517\code\kwdSearchHet\data\text\input\hollande-01.txt|offset2483|length15|PERSON,Nicolas Sarkozy,entityOccurrence,1
textD:\Study\INF517\code\kwdSearchHet\data\text\input\hollande-01.txt|offset1189|length11|PERSON,Alain Juppé,entityOccurrence,textD:\Study\INF517\code\kwdSearchHet\data\text\input\hollande-01.txt|offset2073|length11|PERSON,Alain Juppé,entityOccurrence,1
textD:\Study\INF517\code\kwdSearchHet\data\text\input\hollande-01.txt|offset443|length11|PERSON,Alain Juppé,entityOccurrence,textD:\Study\INF517\code\kwdSearchHet\data\text\input\hollande-01.txt|offset2073|length11|PERSON,Alain Juppé,entityOccurrence,1
textD:\Study\INF517\code\kwdSearchHet\data\text\input\hollande-01.txt|offset1441|length17|PERSON,Arnaud Montebourg,entityOccurrence,textD:\Study\INF517\code\kwdSearchHet\data\text\input\hollande-01.txt|offset2935|length17|PERSON,Arnaud Montebourg,entityOccurrence,1
textD:\Study\INF517\code\kwdSearchHet\data\text\input\hollande-01.txt|offset921|length17|PERSON,Jacques Cheminade,entityOccurrence,textD:\Study\INF517\code\kwdSearchHet\data\text\input\hollande-01.txt|offset1986|length17|PERSON,Jacques Cheminade,entityOccurrence,1
textD:\Study\INF517\code\kwdSearchHet\data\text\input\hollande-01.txt|offset1202|length17|PERSON,Françoiss Hollande,entityOccurrence,textD:\Study\INF517\code\kwdSearchHet\data\text\input\hollande-01.txt|offset2863|length17|PERSON,Françoiss Hollande,entityOccurrence,1
textD:\Study\INF517\code\kwdSearchHet\data\text\input\hollande-01.txt|offset144|length17|PERSON,Françoiss Hollande,entityOccurrence,textD:\Study\INF517\code\kwdSearchHet\data\text\input\hollande-01.txt|offset2863|length17|PERSON,Françoiss Hollande,entityOccurrence,1
textD:\Study\INF517\code\kwdSearchHet\data\text\input\hollande-01.txt|offset215|length17|PERSON,Françoiss Hollande,entityOccurrence,textD:\Study\INF517\code\kwdSearchHet\data\text\input\hollande-01.txt|offset2863|length17|PERSON,Françoiss Hollande,entityOccurrence,1
textD:\Study\INF517\code\kwdSearchHet\data\text\input\hollande-01.txt|offset2322|length17|PERSON,Françoiss Hollande,entityOccurrence,textD:\Study\INF517\code\kwdSearchHet\data\text\input\hollande-01.txt|offset2863|length17|PERSON,Françoiss Hollande,entityOccurrence,1
textD:\Study\INF517\code\kwdSearchHet\data\text\input\hollande-01.txt|offset1712|length11|PERSON,Hollande,entityOccurrence,textD:\Study\INF517\code\kwdSearchHet\data\text\input\hollande-01.txt|offset2963|length11|PERSON,Hollande,entityOccurrence,1