company, employee
"EF Ltd.", "Bob Davis"
"Gerdau", "Emmanuel Carre"
"Apple Inc.", "René Duval"
"Comcast", "Brian Krzanich"
"EY", "Daniel Leclercq"
"MetLife", "Franck Etienne"
"Eastman Kodak", "Jean-Pierre Benard"
"Campbell Soup Company", "Didier Mathieu"
"BNY Mellon", "Robert Deschamps"
"Kaplan, Inc.", "Delphine Renaud"
"Citigroup", "Vincent Le Gall"
"Infosys", "George Moulin"
"Bajaj Allianz General Insurance", "Jacques Francois"
"Deutsche Post", "Alexandre Blanchard"
"Foxconn Electronics Inc", "Laura Leger"
"JP Morgan Chase", "Anne Benard"
"InterCall", "Laura Petit"
"Facebook", "Vincent Le Gall"
"Deutsche Post", "Antoine Robert"
"Morgan Stanley", "Alexandre Blanchard"
"AT&T", "Hugo Simon"
"Coca-Cola", "Sylvie Dumont"
"Fiat S.p.A.", "Véronique Marechal"
"Deutsche Bank", "Marion Bouchet"
"MGA Entertainment", "Yannis Michel"
"Dell", "Fabienne Dumont"
"Campbell Soup Company", "Anne Sanchez"
"Las Vegas Sands", "Sophie Reynaud"
"Airbus", "George Moulin"
"Gerdau", "Mathieu Henry"
"Henderson Land Development", "Éric Blanc"
"Land Securities", "Frédéric Renaud"
"General Motors", "Mélanie David"
"General Dynamics", "Céline Vincent"
"Credit Suisse", "Jean Langlois"
"Las Vegas Sands", "Anne-Marie Garcia"
"Apple Inc.", "Pierre Nanterme"
"Credit Suisse", "Marie Roy"
"Campbell Soup Company", "Hugo Lucas"
"Amazon.com", "Muriel Poulain"
"Morgan Stanley", "Ludovic Chevalier"
"Ericsson", "James E. Thompson"
"Caterpillar Inc.", "Isaac Larian"
"McKinsey", "Sarah Pierre"
"Blackstone Group", "Philippe Vincent"
"BHP Billiton", "Francis Vincent"
"Aditya Birla Group", "Catherine Bailly"
"Agenus", "Émilie Chauvin"
"Eastman Kodak", "Kenneth Chenault"
"MSC", "Grégory Colin"
"BAE Systems", "Jacques Francois"
"Anthem Inc.", "Marion Duval"
"BNY Mellon", "Patrice Fournier"
"GlaxoSmithKline", "Pierre Nanterme"
"American Express", "Patrick Remy"
"Blackstone Group", "Monique Dupuis"
"Campbell Soup Company", "Émilie Chauvin"
"Eastman Kodak", "Patrick Remy"
"MSC", "Jérôme Francois"
"Boeing", "Didier Fleury"
"MicroStrategy", "Véronique Grondin"
"Infosys", "Dieter Zetsche"
"Aditya Birla Group", "Sophie Paris"
"Deutsche Bank", "Pascale Roger"
"Dell", "Jean-Pierre Benard"
"Jefferies Group", "Élisabeth Carlier"
"HSBC", "Anthony Bouvier"
"Apple Inc.", "Myriam Pelletier"
"AT&T", "Sandra Aubert"
"CBS Corporation", "Bruno Charpentier"
"L Brands", "Harald Krüger"
"Intel", "Mélanie Roger"
"Eastman Kodak", "Patricia Leger"
"Hewlett Packard Enterprise", "André Herve"
"BNY Mellon", "Monique Clement"
"Gerdau", "Mélanie Carlier"
"Bajaj Allianz General Insurance", "Laura Leger"
"AT&T", "Aurélie Morel"
"Bajaj Allianz General Insurance", "Jérôme Francois"
"Fiat S.p.A.", "Karine Hubert"
"Blackstone Group", "Clara Antoine"
"GVK Group", "Monique Antoine"
"Banco Bilbao Vizcaya Argentaria", "Sylvie Bailly"
"Capital One Financial", "Vanessa Boyer"
"Anthem Inc.", "Yves Payet"
"General Motors", "François Schneider"
"Campbell Soup Company", "Estelle Clement"
"Capgemini", "Élisabeth Carlier"
"FUBU", "Joelle Aubry"
"Aditya Birla Group", "Mireille Jacquet"
"McKinsey", "Emma Sanchez"
"GVK Group", "Jeff Bezos"
"MicroStrategy", "Élisabeth Francois"
"BP", "Pascale Chauvin"
"Canonical Ltd.", "Jean-Pierre Guerin"
"FUBU", "Christophe Carpentier"
"Barclays", "Jérôme Francois"
"FedEx", "Sonia Leblanc"
"Dow Chemical Company", "George Da Silva"
"HSBC", "Frédéric Muller"
"GlaxoSmithKline", "Laurent Grondin"
"BMW", "Marillyn Hewson"
"GlaxoSmithKline", "Loïc Schmitt"
"AMD", "Jean-Marc Lebrun"
"Dell", "Emma Martinez"
"Daimler AG", "James Quincey"
"Morgan Stanley", "Cyril Hamon"
"Airbus", "François Martin"
"Ericsson", "Inès David"
"BMW", "Théodore Richard"
"eBay", "Michel Antoine"
"Morgan Stanley", "Jeff Clarke"
"MicroStrategy", "Sylvie Bailly"
"BMW", "Geneviève Sanchez"
"BHP Billiton", "Marion Julien"
"GMA Network", "Enzo Perez"
"Facebook", "Pascale Roger"
"J.Crew", "Frédéric Da Silva"
"Kaplan, Inc.", "Hélène Payet"
"Boston Consulting Group", "Hugo Lebrun"
"Adobe Systems", "Emmanuel Guichard"
"General Dynamics", "Jean-Paul Rodriguez"
"HCL Technologies", "Anthony Renaud"
"MSC", "Pascale Jacquet"
"AMD", "John Cryan"
"Capgemini", "Anthony Bouvier"
"Land Securities", "Bruno Dufour"
"Kaplan, Inc.", "Nathan Marty"
"Microsoft", "Julie Caron"
"EY", "Laetitia Faure"
"Las Vegas Sands", "Bernadette Royer"
"General Electric", "Christian Da Silva"
"Best Buy", "Sarah Morel"
"HCL Technologies", "Anne Simon"
"McDonald's", "Alexis Charles"
"eBay", "Sandrine Michel"
"Kaplan, Inc.", "Nicolas Aubry"
"Ford Motor Company", "Anthony Renaud"
"Barclays", "Sundar Pichai"
"Microsoft", "Frédéric Renaud"
"Microsoft", "Nadine Deschamps"
"eBay", "Emmanuel Brun"
"Marks and Spencer", "Mathieu Henry"
"Boeing", "Laurence Meunier"
"Marks and Spencer", "Jean-Pierre Benard"
"ACE Limited", "G. V. Prasad"
"Boeing", "Damien Le Goff"
"Ericsson", "Marillyn Hewson"
"Ericsson", "Jean-Claude Payet"
"Boeing", "Laurence Meunier"
"Koch Industries Inc.", "Shantanu Narayen"
"Goldman Sachs", "Patricia Leger"
"Comcast", "Alexandre Meyer"
"GMA Network", "Patrick Daniel"
"American Express", "Magali Pichon"
"IBM", "Scott Etzler"
"Microsoft", "Aurélien Mathieu"
"Boeing", "Tapan Singhel"
"Infosys", "Amandine Jacob"
"Comcast", "Mireille Noel"
"MGA Entertainment", "Charles G. Koch"
"Morgan Stanley", "Andrew Mackenzie"
"Infosys", "Clara Perrot"
"HP Hood LLC", "Bob Dudley"
"Dr. Reddy's", "Claudine Denis"
"Ford Motor Company", "Marion Bouchet"
"BAE Systems", "René Carpentier"
"Cisco Systems", "Emma Sanchez"
"Eastman Kodak", "Yves Perret"
"MGA Entertainment", "George Moulin"
"Dell", "Jean-Claude Marchal"
"HP Hood LLC", "Sonia Leblanc"
"Apple Inc.", "Sophie Gautier"
"Berkshire Hathaway", "Frank Appel"
"InterCall", "Enzo Charles"
"Henderson Land Development", "Françoise Vasseur"
"American Express", "Annie Besson"
"FUBU", "Robert Lambert"
"Credit Suisse", "Fabrice Lejeune"
"Mesa Air Group", "Aurélien Denis"
"BAE Systems", "Harald Krüger"
"IBM", "Marion Vasseur"
"MicroStrategy", "Damien Lefevre"
"Aditya Birla Group", "Mélanie Roger"
"Marks and Spencer", "Sarah David"
"Capgemini", "Jérémy Roy"
"InterCall", "Richard Fairbank"
"Caterpillar Inc.", "Laetitia Boucher"
"BAE Systems", "George Moulin"
"Coca-Cola", "François Hamon"
"Infosys", "Laura Petit"
"MGA Entertainment", "Jean-Luc Dupuis"
"GMA Network", "Jean-Luc Lamy"
"Dell", "Daymond John"
"GVK Group", "Annie Lefevre"
"Best Buy", "Charles Woodburn"
"ACE Limited", "Martine Boyer"
"Daimler AG", "René Carpentier"
"Deutsche Bank", "Serge Le Gall"
"Infosys", "Sarah Menard"
"Exxon Mobil", "Élisabeth Schmitt"
"Capital One Financial", "Felipe Gozon"
"AT&T", "Hugo Lebrun"
"American Airlines Group", "Geneviève Sanchez"
"General Dynamics", "Hugo Noel"
"GlaxoSmithKline", "Chuck Robbins"
"Deutsche Bank", "Julien Blanchard"
"HCL Technologies", "Mélanie Gilbert"
"Blackstone Group", "Monique Prevost"
"Electronic Arts", "Kévin Lecomte"
"IBM", "Mattieu Adam"
"Deutsche Bank", "Nicolas Aubry"
"CBS Corporation", "Josiane Sanchez"
"GVK Group", "Yves Rolland"
"Boston Consulting Group", "Sarah Pierre"
"Credit Suisse", "Philippe Meunier"
"Cisco Systems", "Hugo Noel"
"Koch Industries Inc.", "Élisabeth Schmitt"
"Anthem Inc.", "Rafaela Aponte"
"Comcast", "Marion Julien"
"Adobe Systems", "Stéphanie Marchand"
"Infosys", "Robert Noel"
"Coca-Cola", "Charles Woodburn"
"Bharti Enterprises", "Michèle Leveque"
"BNY Mellon", "Emmanuel Jacob"
"GVK Group", "Fabrice Roy"
"Fiat S.p.A.", "Jean-François Legrand"
"Exxon Mobil", "Steve Easterbrook"
"Google", "Thierry Besson"
"Bajaj Allianz General Insurance", "Olivier Bourgeois"
"HP Hood LLC", "Richard B. Handler"
"Crown Worldwide Group", "Sylvie Olivier"
"Coca-Cola", "Élodie Michel"
"InterCall", "Chloé Da Silva"
"Land Securities", "Benjamin Marchal"
"Adobe Systems", "Bernadette Royer"
"Accenture", "Andrew Mackenzie"
"American Airlines Group", "Sophie Paris"
"Credit Suisse", "Guy Dumas"
"JP Morgan Chase", "Clément Bailly"
"Amazon.com", "Robert Deschamps"
"L Brands", "Mathilde Prevost"
"Bank of America", "Myriam Pelletier"
"HSBC", "Michèle Martin"
"Airbus", "Sergio Marchionne"
"Cisco Systems", "David Da Silva"
"BP", "Pascale Roger"
"Credit Suisse", "Christophe Carpentier"
"General Dynamics", "Bruno Leroux"
"Marks and Spencer", "Chantal Legrand"
"EY", "Jean-Marc Lebrun"
"Bharti Enterprises", "Laurence Perez"
"Amazon.com", "Geneviève Sanchez"
"Marks and Spencer", "George Carpentier"
"Airbus", "Pascal Poirier"
"Canonical Ltd.", "Paul Hermelin"
"Comcast", "James Dimon"
"BHP Billiton", "Paul Simon"
"FedEx", "Hugo Noel"
"Microsoft", "Tapan Singhel"
"Goldman Sachs", "Magali Cordier"
"Bajaj Allianz General Insurance", "Carole Laporte"
"Capgemini", "Robert Lambert"
"Citigroup", "Anne Sanchez"
"Electronic Arts", "Anne-Marie Roussel"
"Foxconn Electronics Inc", "Muriel Poulain"
"Bharti Enterprises", "James Hackett"
"Deutsche Post", "André Bertin"
"Capgemini", "Hugo Morin"
"BP", "Olivier Laurent"
"Barclays", "Delphine Jean"
"GVK Group", "Jean-Michel Blanc"
"GMA Network", "Jean Laurent"
"BHP Billiton", "Rich Lesser"
"McKinsey", "Jean Langlois"
"Marks and Spencer", "Grégory Fabre"
"Capgemini", "Bruno Grondin"
"Banco Bilbao Vizcaya Argentaria", "Aurélie Morel"
"Las Vegas Sands", "Damien Collin"
"MGA Entertainment", "Claude Andre"
"Goldman Sachs", "Anaïs Herve"
"Marks and Spencer", "Aurélie Gauthier"
"McKinsey", "Sunil Bharti Mittal"
"BNY Mellon", "Frédéric Bourgeois"
"Ericsson", "John L. Flannery"
"Eastman Kodak", "Michel Antoine"
"Airbus", "Stéphanie Joly"
"Airbus", "Maryse Hubert"
"Goldman Sachs", "Chantal Delaunay"
"AT&T", "Hélène Payet"
"Apple Inc.", "Cédric Bouchet"
"Accenture", "Bruno Leroux"
"Accenture", "James Dimon"
"MGA Entertainment", "Jean-Paul Rodriguez"
"Fiat S.p.A.", "Sandra Gaillard"
"Ericsson", "Michaël Olivier"
"Kaplan, Inc.", "Nicolas Lemaire"
"Caterpillar Inc.", "Sandra Gaillard"
"MicroStrategy", "Salil Parekh"
"HP Hood LLC", "Josiane Sanchez"
"MetLife", "Jean-Paul Rodriguez"
"Agenus", "Joelle Vasseur"
"Gerdau", "Mark Weinberger"
"L Brands", "Sundar Pichai"
"Capgemini", "Pascale Chauvin"
"Marks and Spencer", "Évelyne Dupont"
"HSBC", "Anthony Bouvier"
"Coca-Cola", "Karine Hubert"
"HSBC", "Randall L. Stephenson"
"Deutsche Bank", "Guy Morel"
"Dow Chemical Company", "Sonia Gillet"
"General Motors", "Vanessa Laurent"
"Bank of America", "Christophe Carpentier"
"FUBU", "Andrew Mackenzie"
"IBM", "Marion Duval"
"Dell", "Anthony Pasquier"
"Cognizant", "Pauline Chevallier"
"Bank of America", "Maxime Durand"
"Coca-Cola", "Jérôme Francois"
"Deutsche Bank", "René Lemaire"
"eBay", "Patrick Daniel"
"Electronic Arts", "Grégory Paris"
"Cognizant", "Élisabeth Perret"
"Canonical Ltd.", "François Schneider"
"Facebook", "René Richard"
"Caterpillar Inc.", "Océane Riviere"
"Bharti Enterprises", "Carole Fontaine"
"Bank of America", "Karine Hubert"
"Microsoft", "Myriam Pelletier"
"General Motors", "Danielle Bernard"
"Dell", "Annie Fleury"
"Facebook", "Michèle Martin"
"Fidelity Investments", "Delphine Jean"
"Amazon.com", "Robert Lambert"
"Capital One Financial", "Michaël Colin"
"L Brands", "Alexis Aubert"
"ACE Limited", "Gunupati Venkata Krishna Reddy"
"HSBC", "Mattieu Adam"
"Capital One Financial", "Bruno Charpentier"
"Boston Consulting Group", "Pierre Nanterme"
"Intel", "Émilie Mathieu"
"Kaplan, Inc.", "Julie Chauvin"
"Infosys", "Philippe Lacroix"
"Accenture", "Anne-Marie Roussel"
"ACE Limited", "Carlos Torres Vila"
"Comcast", "Michel Antoine"
"eBay", "Jacques Meyer"
"MetLife", "Anne Sanchez"
"Deutsche Post", "Gilles Fabre"
"Honeywell", "Marillyn Hewson"
"BAE Systems", "Patricia Baron"
"Morgan Stanley", "Charles Scharf"
"Accenture", "Françoise Vincent"
"CBS Corporation", "Danielle Bernard"
"MetLife", "Arnaud Mallet"
"Airbus", "Léa Mercier"
"Credit Suisse", "Pascale Jacquet"
"Blackstone Group", "Adrien Richard"
"Kaplan, Inc.", "Théodore Richard"
"Infosys", "Olivier Laurent"
"Ericsson", "Stéphanie Joly"
"MSC", "Benjamin Besson"
"Facebook", "Mark Zuckerberg"
"Jefferies Group", "Richard Fairbank"
"General Motors", "Hélène Bouchet"
"Exxon Mobil", "Sheldon Adelson"
"Daimler AG", "Laura Carpentier"
"McDonald's", "René Richard"
"Dell", "Phebe Novakovic"
"Credit Suisse", "Virginie Le Goff"
"General Dynamics", "Julien Monnier"
"IBM", "Delphine Renaud"
"CBS Corporation", "Loïc Lemaitre"
"Fidelity Investments", "Brian Krzanich"
"AT&T", "Sylvain Carre"
"Caterpillar Inc.", "Claudine Denis"
"McDonald's", "Marc Lamy"
"IBM", "Élisabeth Francois"
"Exxon Mobil", "Mickaël Vidal"
"IBM", "Angélique Martinez"
"Morgan Stanley", "Amandine Jacob"
"Las Vegas Sands", "Cédric Bouchet"
"Honeywell", "Francis Vincent"
"BHP Billiton", "Christiane Adam"
"Coca-Cola", "Guy Schmitt"
"Las Vegas Sands", "Mathilde Guillot"
"Caterpillar Inc.", "Raphaël Marchal"
"BAE Systems", "Michaël Olivier"
"Gerdau", "René Fabre"
"American Airlines Group", "Jean-Luc Pelletier"
"Agenus", "Kenneth Chenault"
"Bank of America", "Tapan Singhel"
"Ericsson", "Jean-Marc Lebrun"
"FUBU", "Aurélien Denis"
"Credit Suisse", "Rich Lesser"
"Anthem Inc.", "Franck Vasseur"
"Jefferies Group", "Rémi Roussel"
"MGA Entertainment", "Muriel Carpentier"
"Amazon.com", "Nadine Leveque"
"Ericsson", "Joelle Vasseur"
"Amazon.com", "Bob Dudley"
"Banco Bilbao Vizcaya Argentaria", "Mélanie David"
"Mesa Air Group", "Aurélie Morel"
"Ericsson", "Vanessa Laurent"
"GMA Network", "Élisabeth Francois"
"MGA Entertainment", "Frederick W. Smith"
"GMA Network", "Pascale Chauvin"
"HCL Technologies", "Didier Mathieu"
"Jefferies Group", "Christian Gautier"
"HP Hood LLC", "André Herve"
"Apple Inc.", "Claude Andre"
"Foxconn Electronics Inc", "Francis Gillet"
"CBS Corporation", "Robert Deschamps"
"Boston Consulting Group", "Kévin Jacquet"
"Las Vegas Sands", "Serge Roux"
"J.Crew", "Doug Parker"
"Goldman Sachs", "Börje Ekholm"
"Accenture", "C Vijayakumar"
"Berkshire Hathaway", "Adrien Monnier"
"MicroStrategy", "Véronique Langlois"
"Bank of America", "Pauline Mallet"
"Daimler AG", "Michèle Leveque"
"MetLife", "Jeff Bezos"
"Barclays", "Stéphanie Marchand"
"Honeywell", "Loïc Lemaitre"
"Apple Inc.", "Mary T. Barra"
"Boeing", "Anne Simon"
"Fiat S.p.A.", "Christophe Carpentier"
"Las Vegas Sands", "René Lemaire"
"Foxconn Electronics Inc", "Annie Besson"
"Goldman Sachs", "Jean-Luc Pelletier"
"Anthem Inc.", "Robert Noel"
"FedEx", "Enzo Charles"
"Electronic Arts", "Théodore Girard"
"FUBU", "Arnaud Gerard"
"EY", "Léa Bourgeois"
"American Airlines Group", "Enzo Perez"
"Barclays", "Yves Perret"
"Gerdau", "Aurélie Hamon"
"Barclays", "Guy Dumas"
"Barclays", "Lee Shau Kee"
"Adobe Systems", "Emmanuel Brun"
"Jefferies Group", "George Moulin"
"BAE Systems", "François Schneider"
"Goldman Sachs", "Felipe Gozon"
"Henderson Land Development", "Anne-Marie Roussel"
"Deutsche Post", "Amandine Boyer"
"Electronic Arts", "Pascal Poirier"
"MGA Entertainment", "Nadia Tessier"
"Gerdau", "Patrice Fournier"
"Campbell Soup Company", "Nicolas Lemaire"
"Adobe Systems", "Thierry Besson"
"Dow Chemical Company", "George Moulin"
"Gerdau", "Daniel Charles"
"Capgemini", "Lisa Su"
"American Airlines Group", "Chloé Besson"
"BAE Systems", "Jérôme Francois"
"Facebook", "Jean-Pierre Benard"
"GMA Network", "Yannis Michel"
"GlaxoSmithKline", "Harald Krüger"
"BAE Systems", "Pauline Mallet"
"Henderson Land Development", "James E. Thompson"
"Agenus", "Vincent Le Gall"
"BHP Billiton", "Agnès Garcia"
"CBS Corporation", "René Duval"
"FUBU", "Frédéric Muller"
"MSC", "Amandine Jacob"
"JP Morgan Chase", "Jacques Meyer"
"MGA Entertainment", "Pascal Poirier"
"Las Vegas Sands", "François Hamon"
"Agenus", "Cyril Hamon"
"Goldman Sachs", "Sylvie Dumont"
"Airbus", "Mathilde Breton"
"Las Vegas Sands", "Robert Deschamps"
"FUBU", "Bruno Poirier"
"Aditya Birla Group", "Hugo Menard"
"Intel", "Monique Antoine"
"Infosys", "Julie Chauvin"
"Credit Suisse", "Hugo Daniel"
"Crown Worldwide Group", "Grégory Paris"
"Henderson Land Development", "Jérémy Roy"
"Gerdau", "Hélène Mathieu"
"eBay", "Jean-Pierre Guerin"
"Dr. Reddy's", "Robert Perez"
"Coca-Cola", "Véronique Grondin"
"Boston Consulting Group", "Chloé Da Silva"
"Canonical Ltd.", "Sonia Dupont"
"HP Hood LLC", "Monique Dupuis"
"Fidelity Investments", "Christian Meyer"
"HSBC", "Karine Gay"
"Intel", "Benjamin Andre"
"Crown Worldwide Group", "Patrick Leveque"
"Barclays", "Yannis Michel"
"GVK Group", "Baptiste Boyer"
"Google", "Julie Chauvin"
"Fiat S.p.A.", "Michèle Leveque"
"Boeing", "Sylvie Dumont"
"HSBC", "Daniel Lopez"
"IBM", "Sonia Gillet"
"Marks and Spencer", "Agnès Lejeune"
