#
# Compile-time properties
#
# Module: kwd-search-het
# Version: 0.0.2-SNAPSHOT
# Branch: experiments
# ChangeSet: d957760
# Build: 20180729-1224
#
# System
#
# StartTime: 2018-07-30
# OS: Linux
# OSArch: amd64
# OSVersion: 3.10.0-693.2.2.el7.x86_64
# StartUpMem: 3006MB
# StartUpMaxMem: 28631MB
# NumCPUs: 40
#
# Config
#
# PYTHONPath=/python
# RDBMSHost=localhost
# RDBMSUser=kwsearch
# RDBMSTableName=
# RDBMSPort=5432
# RDBMSType=POSTGRESQL
# cache_location=cache
# RDBMSDBName=cl_default
# RDBMSPassword=
# default_locale=fr
# RDFDBName=testkwdrdf
# solrConfigSets=/path/to/SOFT/solr-6.6.1/solr/server/solr/configsets/data_driven_schema_configs/conf
# 
#
# Command line params
#
# --thread-for-p2b=false
# --p2b-param=[50]
# --extractor=fr.inria.cedar.kwdSearchHet.extraction.EntityExtractor@4571cebe
# --help=false
# --databases=[]
# --lang=fr
# --config=
# --similarity=0.8
# --query=
# --scoring=
# --verbose=false
# --interactive-mode=false
# --p2b-method=DFS
# --input=[fr/RDF/model-03_17-disjoint/model-03_17-50.nt, fr/RDF/model-03_17-disjoint/model-03_17-100.nt, fr/RDF/model-03_17-disjoint/model-03_17-200.nt, fr/RDF/model-03_17-disjoint/model-03_17-400.nt, fr/RDF/model-03_17-disjoint/model-03_17-800.nt, fr/RDF/model-03_17-disjoint/model-03_17-1600.nt, fr/RDF/model-03_17-disjoint/model-03_17-3200.nt, fr/RDF/model-03_17-disjoint/model-03_17-6400.nt]
# --no-reset-at-start=false
# --p2b-heuristic=TIMEOUT
# --reset-between-datasets=false
# --output=java.io.PrintStream@154864f8
# 
INPUT	INIT	SUMMARIZATION	TRIPLE_PARSING	INPUT_SIZE	EXTRACTION	INDEXING	FIND_CANDIDATES	SAMEAS	NUM_NODES	NUM_EDGES	NUM_BORDERS	BUILDMAP	PATH2BORDERS	NUM_P2B	TotalTime
/data/connectionlens/fr/RDF/model-03_17-disjoint/model-03_17-50.nt	1	821	5	50	876	5	8	90	61	60	0	74	170	724	2050
/data/connectionlens/fr/RDF/model-03_17-disjoint/model-03_17-100.nt	0	585	5	100	550	6	15	149	169	186	18	115	704	4026	2129
/data/connectionlens/fr/RDF/model-03_17-disjoint/model-03_17-200.nt	0	589	5	200	1203	15	31	302	388	439	46	193	2725	18632	5063
/data/connectionlens/fr/RDF/model-03_17-disjoint/model-03_17-400.nt	0	628	6	400	2441	24	62	349	811	951	90	376	6111	48873	9997
/data/connectionlens/fr/RDF/model-03_17-disjoint/model-03_17-800.nt	0	619	6	800	4957	43	168	752	1579	1938	180	745	16916	124039	24206
/data/connectionlens/fr/RDF/model-03_17-disjoint/model-03_17-1600.nt	0	720	9	1600	7606	77	471	2591	3010	3896	330	1591	52949	316317	66014
/data/connectionlens/fr/RDF/model-03_17-disjoint/model-03_17-3200.nt	0	792	12	3200	15417	157	1523	2783	5747	7780	634	3132	84389	623542	108205
/data/connectionlens/fr/RDF/model-03_17-disjoint/model-03_17-6400.nt	0	958	22	6400	25669	253	4486	5854	10921	15486	1262	6103	114790	1024801	158135
Total time: 377392 ms.
