company, employee
"General Dynamics", "lanny Gilbert"
"Deutsche Bank", "lyyti Simon"
"Coca-Cola", "gualtiero Menard"
"BHP Billiton", "neriah Guillot"
"BMW", "irénée Poirier"
"Hewlett Packard Enterprise", "katsu Germain"
"Henderson Land Development", "filibert Charpentier"
"FUBU", "cyan Roche"
"Blackstone Group", "cynthia Lejeune"
"Exxon Mobil", "brogan Leblanc"
"ACE Limited", "gloria Schneider"
"MicroStrategy", "zeta Le Goff"
"Jefferies Group", "daryl Caron"
"MSC", "caecilia Reynaud"
"Foxconn Electronics Inc", "bébinn Tessier"
"Best Buy", "jeunesse Adam"
"Capgemini", "riccarda Vincent"
"Google", "karly Deschamps"
"Canonical Ltd.", "jamey Leveque"
"Fiat S.p.A.", "terrie Denis"
"Foxconn Electronics Inc", "reagan Poirier"
"MetLife", "martita Bertin"
"IBM", "gundula David"
"eBay", "ramsey Petit"
"Banco Bilbao Vizcaya Argentaria", "bridget Marechal"
"L Brands", "lexi Gay"
"Ericsson", "valter Lebrun"
"MicroStrategy", "abd-al-malik Leveque"
"American Express", "ninian Renaud"
"GlaxoSmithKline", "giampaolo Reynaud"
"ACE Limited", "jehiel Bouchet"
"Google", "aviram Gautier"
"Dow Chemical Company", "romolo Noel"
"Capital One Financial", "georgeta Francois"
"GlaxoSmithKline", "radomira Perez"
"General Motors", "brant Bonnet"
"Daimler AG", "jarmila Menard"
"Best Buy", "nicodème Lefevre"
"EY", "ioannes Bouvier"
"Daimler AG", "hyginus Bouchet"
"Capgemini", "clara Leger"
"McKinsey", "joaquin Le Gall"
"Anthem Inc.", "eustace Le Goff"
"FedEx", "rajya Breton"
"Aditya Birla Group", "hosanna Vasseur"
"Jefferies Group", "breana Langlois"
"Arcelor Mittal", "landon Roger"
"InterCall", "ruggero Blanchard"
"Dr. Reddy's", "hupprecht Mathieu"
"Agenus", "emánuel Mathieu"
"Credit Suisse", "amrita"
"Electronic Arts", "sjurd"
"Mesa Air Group", "trinidad"
"AT&T", "gülbahar"
"Honeywell", "mykolas"
"Bharti Enterprises", "bárbara"
"J.Crew", "braelyn"
"Lockheed Martin", "vitali"
"Apple Inc.", "colten"
"Exxon Mobil", "debra"
"GVK Group", "angelica"
"EY", "bertha"
"BAE Systems", "yusra"
"EY", "quintella"
"Eastman Kodak", "wawrzyniec"
"BHP Billiton", "leah"
"eBay", "zev"
"American Airlines Group", "pernel"
"EY", "hedda"
"Crown Worldwide Group", "pearl"
"Honeywell", "gawahir"
"Exxon Mobil", "feodor"
"Barclays", "viviana"
"Credit Suisse", "séafra"
"BP", "lynnette"
"Airbus", "sa'ida"
"General Motors", "heber (1)"
"Electronic Arts", "medb"
"BNY Mellon", "nikomachos"
"Arcelor Mittal", "tybalt"
"BMW", "thaddeus"
"Credit Suisse", "zachariah"
"MSC", "katinka"
"General Dynamics", "bevis"
"Marks and Spencer", "jeannette"
"Eastman Kodak", "sjurd"
"Exxon Mobil", "chara"
"Land Securities", "nessa (1)"
"eBay", "sarra"
"Gerdau", "tadeu"
"General Dynamics", "johnathon"
"Facebook", "emilee"
"Banco Bilbao Vizcaya Argentaria", "ghaliya"
"Fiat S.p.A.", "akoni"
"Crown Worldwide Group", "harinder"
"CBS Corporation", "chayim"
"Best Buy", "zhen"
"Land Securities", "fionola"
"Hewlett Packard Enterprise", "klára"
"GVK Group", "dunya"
"MetLife", "joão"
"Campbell Soup Company", "maija"
"JP Morgan Chase", "ava (2)"
"Morgan Stanley", "caleigh"
"Blackstone Group", "darleen"
"American Airlines Group", "york"
"Eastman Kodak", "fillin"
"BHP Billiton", "anubis"
"Foxconn Electronics Inc", "rózsi"
"Blackstone Group", "tanzi"
"Boeing", "polyxena"
"Comcast", "shelly"
"MetLife", "vojtech"
"Kaplan, Inc.", "becky"
"Airbus", "alton"
"Berkshire Hathaway", "cirino"
"Best Buy", "taryn"
"J.Crew", "eluned"
"Amazon.com", "siarl"
"Best Buy", "rune"
"BNY Mellon", "chita"
"BAE Systems", "leachlainn"
"American Express", "braxton"
"Coca-Cola", "kiri"
"Deutsche Bank", "charlot"
"Ford Motor Company", "andré"
"Blackstone Group", "shui"
"Gerdau", "alexis (1)"
"Anthem Inc.", "erastus"
"FedEx", "elisud"
"Hewlett Packard Enterprise", "cindy"
"Boeing", "naji"
"EY", "farley"
"Electronic Arts", "aurangzeb"
"Eastman Kodak", "viveka"
"Banco Bilbao Vizcaya Argentaria", "alia"
"HSBC", "raffaello"
"GlaxoSmithKline", "mahmud"
"Infosys", "stephania"
"Eastman Kodak", "callum"
"AT&T", "gül"
"BHP Billiton", "barra"
"Campbell Soup Company", "firdos"
"General Dynamics", "bastian"
"Facebook", "tierra"
"Airbus", "into"
"Aditya Birla Group", "kalle"
"Capital One Financial", "mariana"
"Best Buy", "elain"
"Ericsson", "marian (3) Nicolas"
"McDonald's", "halldór Pelletier"
"GMA Network", "idonea Weber"
"FUBU", "hedvig Bertin"
"Blackstone Group", "christabel Lefevre"
"BAE Systems", "shawn Renard"
"Google", "hernán Muller"
"General Motors", "pisti Louis"
"Land Securities", "ariston Gay"
"Capital One Financial", "garbhán Martin"
"FedEx", "alessandra Arnaud"
"GlaxoSmithKline", "consuela Besson"
"EY", "dollie Besson"
"Intel", "sylvia Thomas"
"Cognizant", "ai (1) Marechal"
"Lockheed Martin", "bevis Meunier"
"Bank of America", "piper Bernard"
"Coca-Cola", "quintin Charles"
"Google", "wouter Germain"
"Electronic Arts", "melina Roche"
"Airbus", "mariana Le"
"Aditya Birla Group", "ladislaus Dumont"
"Citigroup", "dick Chevalier"
"MicroStrategy", "tye Delaunay"
"GlaxoSmithKline", "jonah Rodriguez"
"Adobe Systems", "corentin Maillard"
"HP Hood LLC", "usko Lambert"
"Gerdau", "ilbert Andre"
"Capital One Financial", "zosimus Roy"
"Campbell Soup Company", "jörgen Marchal"
"AMD", "gruffudd Carpentier"
"McDonald's", "kohar Lefevre"
"Ford Motor Company", "yseult Laporte"
"GMA Network", "danya Duval"
"Apple Inc.", "barclay Grondin"
"HP Hood LLC", "marlen Lopez"
"HP Hood LLC", "drusilla Hubert"
"Henderson Land Development", "milogost Mallet"
"Dow Chemical Company", "cailin Carlier"
"Agenus", "baha Jacquet"
"GlaxoSmithKline", "renate Morin"
"McDonald's", "kofi Reynaud"
"Hewlett Packard Enterprise", "chalchiuhticue Bouchet"
"Best Buy", "rollo Daniel"
"BP", "justus Jacquet"
"Canonical Ltd.", "ottoline Langlois"
"Land Securities", "palmiro Nicolas"
"Facebook", "zach Giraud"
"Credit Suisse", "roque Gilbert"
"Caterpillar Inc.", "zion Simon"
"Adobe Systems", "ewen"
"Capgemini", "carson"
"Infosys", "rees"
"GlaxoSmithKline", "weldon"
"Comcast", "jaye"
"American Express", "stijn"
"MicroStrategy", "sassa"
"Capgemini", "lana"
"HSBC", "delora"
"Credit Suisse", "meiriona"
"BHP Billiton", "estefanía"
"Electronic Arts", "harald"
"Credit Suisse", "osamu"
"American Airlines Group", "yukiko"
"Caterpillar Inc.", "gertie"
"Jefferies Group", "manoel"
"Cognizant", "victorino"
"Lockheed Martin", "pinchas"
"Crown Worldwide Group", "björn"
"MGA Entertainment", "boleslawa"
"Apple Inc.", "caris"
"Google", "jelka"
"Crown Worldwide Group", "yvain"
"Aditya Birla Group", "adrianna"
"HP Hood LLC", "sa'id"
"Google", "sharma"
"Coca-Cola", "áine"
"JP Morgan Chase", "hermann"
"Ford Motor Company", "cletus"
"Ford Motor Company", "dariea"
"Arcelor Mittal", "tòmas"
"Fiat S.p.A.", "massimiliano"
"Foxconn Electronics Inc", "orion"
"Amazon.com", "bijay"
"ACE Limited", "lizette"
"Bank of America", "mårten"
"Ericsson", "eryn"
"Blackstone Group", "lareyna"
"BAE Systems", "vittore"
"MSC", "orel"
"Canonical Ltd.", "évariste"
"eBay", "olivette"
"Microsoft", "dwight"
"Ericsson", "temple"
"InterCall", "thyrza"
"MetLife", "kelley"
"Google", "eufemia"
"MSC", "tobias"
"Deutsche Bank", "othniel"
"Morgan Stanley", "astarte"
"Mesa Air Group", "joetta"
"IBM", "bosmat"
"Goldman Sachs", "kwabena"
"L Brands", "alys"
"Google", "dina"
"Henderson Land Development", "lynette"
"General Motors", "josef"
"Eastman Kodak", "xenia"
"Barclays", "kort"
"FUBU", "linford"
"AMD", "oleg"
"Intel", "tatum"
"Boston Consulting Group", "sheri"
"InterCall", "sunny"
"Eastman Kodak", "jean-marie"
"Honeywell", "aubrey"
"Cisco Systems", "orville"
"BHP Billiton", "graça"
"EY", "windsor"
"McKinsey", "nandag"
"FUBU", "boutros"
"Adobe Systems", "siôr"
"JP Morgan Chase", "lenora"
"Ford Motor Company", "danny"
"General Electric", "alcippe"
"Apple Inc.", "faye"
"InterCall", "hermes"
"Aditya Birla Group", "dorotéia"
"GlaxoSmithKline", "brónach"
"Honeywell", "chandrakant"
"Deutsche Bank", "helios"
"MGA Entertainment", "fatin"
"Lockheed Martin", "dunyasha"
"Best Buy", "gazsi"
"Daimler AG", "dwight"
"Daimler AG", "dolph"
"Ford Motor Company", "natalya"
"Dr. Reddy's", "ervins"
"Banco Bilbao Vizcaya Argentaria", "issachar"
"Electronic Arts", "cherokee"
"Exxon Mobil", "mairwen"
"Barclays", "dympna"
"AMD", "panagiota"
"Ericsson", "deo"
"Credit Suisse", "daniele"
"AMD", "lora"
"Mesa Air Group", "bernardo"
"McDonald's", "berker"
"Kaplan, Inc.", "keelin"
"HP Hood LLC", "vilmos Laporte"
"General Motors", "mirjami Marty"
"Jefferies Group", "pála Girard"
"Las Vegas Sands", "evgeni Lopez"
"Kaplan, Inc.", "sorin Besson"
"FUBU", "aleksandro Pasquier"
"J.Crew", "tipene Moulin"
"GVK Group", "catherina Guyot"
"Fiat S.p.A.", "matej Renard"
"Barclays", "vid Marechal"
"AT&T", "jowan Francois"
"Berkshire Hathaway", "annie Klein"
"Electronic Arts", "amar Benoit"
"BAE Systems", "roc Louis"
"Deutsche Bank", "leachlainn Collin"
"HP Hood LLC", "ishbel Guillaume"
"BP", "eveline Weber"
"Accenture", "jack Adam"
"Dr. Reddy's", "vere Muller"
"Aditya Birla Group", "valerian Charpentier"
"AT&T", "fernanda Leroy"
"General Motors", "jochim Roux"
"Marks and Spencer", "justy Dupont"
"Google", "prince Pasquier"
"Dow Chemical Company", "wiebke Duval"
"Microsoft", "felipe Marechal"
"General Motors", "juuso Roux"
"Deutsche Post", "sylviane Gauthier"
"Agenus", "sierra Brunet"
"GMA Network", "desya Pierre"
"EY", "lockie Roy"
"CBS Corporation", "sinclair Dupuy"
"Dow Chemical Company", "devin Lemoine"
"HSBC", "kamil (2) Humbert"
"Facebook", "fajra Remy"
"Arcelor Mittal", "ane Mallet"
"McKinsey", "odetta Le"
"Arcelor Mittal", "lora Martinez"
"Best Buy", "haydee Philippe"
"Deutsche Bank", "denisa Da Silva"
"IBM", "fiorella Rodriguez"
"Deutsche Bank", "kimberlee Gerard"
"Exxon Mobil", "oscar Chevalier"
"BAE Systems", "marya Guillot"
"Facebook", "roderick Michaud"
"BAE Systems", "kristal Bouvier"
"HCL Technologies", "fravardin Leger"
"JP Morgan Chase", "bjoern Dubois"
"Las Vegas Sands", "consolata Roux"
"American Airlines Group", "raclaw Moulin"
"Cognizant", "moses"
"Las Vegas Sands", "viviana"
"InterCall", "ulick"
"Bharti Enterprises", "lawahiz"
"Goldman Sachs", "alethea"
"Airbus", "grete"
"Berkshire Hathaway", "ernestine"
"Ericsson", "rosine"
"Campbell Soup Company", "preben"
"Citigroup", "laurene"
"Blackstone Group", "elvis"
"Bajaj Allianz General Insurance", "andela"
"GlaxoSmithKline", "robert"
"L Brands", "aapo"
"Cognizant", "sotiris"
"IBM", "toria"
"Gerdau", "khalil"
"Las Vegas Sands", "izabella"
"Adobe Systems", "osama"
"Electronic Arts", "hani"
"EY", "erich"
"BAE Systems", "arisha"
"Campbell Soup Company", "carl"
"Best Buy", "sam"
"Deutsche Bank", "festus"
"Anthem Inc.", "mårten"
"Barclays", "boleslawa"
"Canonical Ltd.", "omri"
"General Electric", "alasdair"
"Daimler AG", "macsen"
"Morgan Stanley", "cherie"
"HCL Technologies", "paris"
"FedEx", "nadia (2)"
"Citigroup", "elkan"
"Fiat S.p.A.", "abby"
"Citigroup", "salvador"
"Fiat S.p.A.", "minty"
"ACE Limited", "evdokiya"
"Accenture", "benedito"
"Apple Inc.", "akiko"
"General Dynamics", "itziar"
"CBS Corporation", "libitina"
"Koch Industries Inc.", "alastríona"
"Hewlett Packard Enterprise", "elisabeta"
"Citigroup", "madelyn"
"Facebook", "mabella"
"HSBC", "octavio"
"Apple Inc.", "merita"
"Land Securities", "natasha"
"Dow Chemical Company", "kerensa"
"Canonical Ltd.", "spring"
"InterCall", "valary"
"BP", "gyuri"
"Electronic Arts", "anelie"
"Citigroup", "theodoric"
"Facebook", "sabas"
"Deutsche Bank", "eveliina"
"HSBC", "markéta"
"Dell", "charmaine"
"AMD", "cosimo"
"Fiat S.p.A.", "marketta"
"FedEx", "tarmo"
"Jefferies Group", "maksim"
"BHP Billiton", "earnestine"
"Crown Worldwide Group", "egbert"
"Capgemini", "scottie"
"MGA Entertainment", "posie"
"Caterpillar Inc.", "phaedrus"
"Crown Worldwide Group", "firmin"
"Land Securities", "ramon"
"eBay", "toni (1)"
"InterCall", "adolf"
"Deutsche Post", "kian"
"Capital One Financial", "modeste"
"Caterpillar Inc.", "rhodri"
"Foxconn Electronics Inc", "diamantina"
"Goldman Sachs", "esteri"
"Koch Industries Inc.", "isiah"
"FUBU", "eran"
"Intel", "dirk"
"L Brands", "ewa"
"MicroStrategy", "kole"
"Dell", "julián"
"Exxon Mobil", "braxton"
"AT&T", "shama"
"Mesa Air Group", "adamina"
"Marks and Spencer", "melania"
"ACE Limited", "ailís"
"ACE Limited", "andrija"
"Comcast", "ceren"
"Campbell Soup Company", "franci"
"Boston Consulting Group", "edgardo"
"Intel", "amira"
"HCL Technologies", "cecilija"
"Barclays", "albertine"
"Blackstone Group", "pascaline"
"Arcelor Mittal", "miroslav"
"General Dynamics", "boniface"
"GlaxoSmithKline", "jenci"
"Dell", "lala Rey"
"Ericsson", "shprintza Morel"
"IBM", "ottaviano Delaunay"
"Dr. Reddy's", "tamra Le Gall"
"Deutsche Post", "griffin Guillaume"
"Dr. Reddy's", "clarice Perrin"
"Foxconn Electronics Inc", "bertrando Clement"
"Fidelity Investments", "lacey Le"
"Cognizant", "ptolema Rey"
"McKinsey", "florry Martin"
"Dr. Reddy's", "pacey Barthelemy"
"Adobe Systems", "eckhard Vincent"
"Exxon Mobil", "zia Thomas"
"Aditya Birla Group", "lijsbeth Dupuy"
"Agenus", "taryn Hoarau"
"General Motors", "gale Blanc"
"Crown Worldwide Group", "ralphina Bertin"
"Boston Consulting Group", "euthalia Riviere"
"GVK Group", "rodolf Louis"
"Kaplan, Inc.", "sally Langlois"
"Gerdau", "jolanda Colin"
"Koch Industries Inc.", "carwyn Picard"
"Banco Bilbao Vizcaya Argentaria", "rahim Caron"
"Ericsson", "fadila Reynaud"
"eBay", "blythe Thomas"
"Berkshire Hathaway", "baqir Barre"
"eBay", "alfred Schmitt"
"Land Securities", "octavius Leclerc"
"Kaplan, Inc.", "om Grondin"
"Cognizant", "kojo Aubert"
"Berkshire Hathaway", "vangelis Guerin"
"Bank of America", "tayler Renaud"
"BMW", "halcyone Le Goff"
"Berkshire Hathaway", "earle Robert"
"HSBC", "rozanne Lefebvre"
"BMW", "elea Pierre"
"Electronic Arts", "ailill Faure"
"Intel", "orpha Cousin"
"Mesa Air Group", "paule Besson"
"Google", "donalda Boucher"
"Goldman Sachs", "roger Vincent"
"Accenture", "raschelle Chauvin"
"MicroStrategy", "lockie Aubry"
"AT&T", "phemie Dumont"
"Cisco Systems", "fermin Riviere"
"Foxconn Electronics Inc", "lyudmila Besson"
"Ericsson", "leanna Pierre"
"Jefferies Group", "zaid Lejeune"
"Citigroup", "lileas Leblanc"
"Canonical Ltd.", "raakel Vidal"
"Best Buy", "zahira"
"Barclays", "alonso"
"Jefferies Group", "franciscus"
"Kaplan, Inc.", "mabelle"
"MetLife", "disgleirio"
"Agenus", "marcos"
"Dr. Reddy's", "bertók"
"Dr. Reddy's", "deiniol"
"Comcast", "guto"
"MetLife", "zahir"
"Capital One Financial", "bibiana"
"American Express", "mercia"
"Accenture", "gabriele (2)"
"Credit Suisse", "nadia (2)"
"BAE Systems", "kylee"
"Adobe Systems", "timon"
"Las Vegas Sands", "reena"
"AMD", "maeva"
"Boston Consulting Group", "ruta"
"Banco Bilbao Vizcaya Argentaria", "hardy"
"BP", "jónatan"
"Electronic Arts", "aki"
"Anthem Inc.", "bartlomiej"
"CBS Corporation", "abbie"
"Intel", "havel"
"HCL Technologies", "kallistrate"
"Barclays", "juanito"
"Ericsson", "shannah"
"Morgan Stanley", "blazej"
"Adobe Systems", "sylvana"
"General Motors", "eveleen"
"Boston Consulting Group", "valeriu"
"Bharti Enterprises", "daedalus"
"FUBU", "charnette"
"MSC", "barbro"
"Barclays", "ollie"
"Dell", "anatole"
"Daimler AG", "dawid"
"Las Vegas Sands", "siena"
"Facebook", "noelani"
"Daimler AG", "cuthbert"
"Las Vegas Sands", "ottoline"
"L Brands", "joos"
"Jefferies Group", "kat"
"Fidelity Investments", "thutmose"
"MetLife", "earnest"
"Crown Worldwide Group", "gianfranco"
"JP Morgan Chase", "comhghall"
"McDonald's", "merfyn"
"Daimler AG", "cara"
"L Brands", "darlene"
"Gerdau", "kalyn"
"Accenture", "lawrie"
"GVK Group", "ah"
"Honeywell", "elyse"
"GlaxoSmithKline", "nessa (1)"
"BMW", "sieglinde"
"Canonical Ltd.", "rodrigo"
"Airbus", "maud"
"Bharti Enterprises", "nell"
"Banco Bilbao Vizcaya Argentaria", "venkat"
"eBay", "cokkie"
"Adobe Systems", "bryce"
"Amazon.com", "floella"
"Morgan Stanley", "gore"
"Henderson Land Development", "kwasi"
"Electronic Arts", "hades"
"Capital One Financial", "brett"
"Ford Motor Company", "evthalia"
"Canonical Ltd.", "hendrik"
"Las Vegas Sands", "avila"
"Amazon.com", "daffodil"
"Ericsson", "wasim"
"Ericsson", "bláthnaid"
"FedEx", "donaldina"
"AMD", "rama"
"Airbus", "kenji"
"Boston Consulting Group", "ashling"
"Ericsson", "lewella"
"Exxon Mobil", "tanesha"
"McKinsey", "pauliina"
"ACE Limited", "honorata"
"General Dynamics", "basilio"
"BP", "bastian"
"Banco Bilbao Vizcaya Argentaria", "eibhlín"
"Jefferies Group", "tuyet"
"JP Morgan Chase", "maitland"
"Anthem Inc.", "kassandra"
"American Airlines Group", "isolda"
"MetLife", "hayder"
"American Express", "dinah"
"Deutsche Post", "margot"
"American Express", "jørgen"
"Mesa Air Group", "riley"
"Agenus", "miroslava"
"Anthem Inc.", "manu"
"HCL Technologies", "leeann"
"BHP Billiton", "heulwen"
"Comcast", "charissa"
"Barclays", "rubye Charpentier"
"Foxconn Electronics Inc", "prosper Aubert"
"Canonical Ltd.", "azucena Marechal"
"Boeing", "glyn Pierre"
"Land Securities", "emmett Chevallier"
"Campbell Soup Company", "faizel Germain"
"Crown Worldwide Group", "zvi Fleury"
"IBM", "inka Michaud"
"Las Vegas Sands", "célestin Lucas"
"Dow Chemical Company", "zaira Garnier"
"McDonald's", "sanna Chevallier"
"American Airlines Group", "gratian Roux"
"Capital One Financial", "debbie Schneider"
"Morgan Stanley", "dido Simon"
"InterCall", "cassandra Faure"
"Henderson Land Development", "darya Dubois"
"General Motors", "zeta Noel"
"General Electric", "cerberus Michel"
"BAE Systems", "gergely Perrier"
"Bajaj Allianz General Insurance", "gwilim Richard"
"Bajaj Allianz General Insurance", "gösta Pichon"
"eBay", "luella Baron"
"Capgemini", "jacobo Aubry"
"Comcast", "dolph Lacroix"
"GlaxoSmithKline", "yale Jean"
"BHP Billiton", "hamza Sanchez"
"Cisco Systems", "lawrie Breton"
"Foxconn Electronics Inc", "viktória Fontaine"
"EY", "raheem Fernandez"
"Boeing", "lesleigh Roche"
"McDonald's", "tiara Bourgeois"
"General Electric", "orlagh Marie"
"Henderson Land Development", "jennifer Le"
"Koch Industries Inc.", "stanley Simon"
"FedEx", "redd Prevost"
"Eastman Kodak", "eren Fleury"
"MSC", "elisabeth Lacroix"
"Barclays", "tryggve Roux"
"Dow Chemical Company", "darrell Brun"
"HCL Technologies", "alaba Vidal"
"Infosys", "eallair Berger"
"Cisco Systems", "enrique Gauthier"
"Morgan Stanley", "chet Perrier"
"Arcelor Mittal", "morgane Leroux"
"BP", "lovel Guillaume"
"ACE Limited", "patience Bouvier"
"Capital One Financial", "adena Olivier"
"BHP Billiton", "arkell Grondin"
"Intel", "wasim Garcia"
"Hewlett Packard Enterprise", "avalon Caron"
"Comcast", "terah"
"Blackstone Group", "knute"
"BNY Mellon", "secundus"
"Deutsche Post", "perseus"
"Citigroup", "shulamit"
"Adobe Systems", "traherne"
"Anthem Inc.", "fionn"
"L Brands", "salamon"
"Mesa Air Group", "ambrogino"
"Fidelity Investments", "pankraz"
"General Motors", "paule"
"MGA Entertainment", "nephele"
"AMD", "onora"
"Accenture", "hiba"
"Apple Inc.", "jamsheed"
"MicroStrategy", "almudena"
"GMA Network", "miranda"
"Accenture", "pratap"
"BP", "fidelma"
"Banco Bilbao Vizcaya Argentaria", "thomasina"
"HP Hood LLC", "demon"
"Aditya Birla Group", "warren"
"Deutsche Post", "catina"
"Kaplan, Inc.", "kaylynn"
"Bharti Enterprises", "jaqueline"
"MSC", "dassah"
"Bajaj Allianz General Insurance", "arline"
"Hewlett Packard Enterprise", "kristy"
"Dr. Reddy's", "yan"
"Bajaj Allianz General Insurance", "gazbiyya"
"GVK Group", "randy"
"Banco Bilbao Vizcaya Argentaria", "savio"
"J.Crew", "ciannait"
"Goldman Sachs", "collin"
"GVK Group", "mererid"
"Marks and Spencer", "alannah"
"Daimler AG", "anwar"
"Las Vegas Sands", "liana"
"Campbell Soup Company", "lake"
"Agenus", "bolek"
"Jefferies Group", "polly"
"MetLife", "ole"
"Aditya Birla Group", "tamra"
"Cognizant", "donato"
"General Dynamics", "vashti"
"Foxconn Electronics Inc", "cande"
"AMD", "ingemar"
"MicroStrategy", "elkan"
"Agenus", "ferapont"
"EY", "guiomar"
"GMA Network", "della"
"Dow Chemical Company", "katherine"
"Mesa Air Group", "hilaire"
"Ericsson", "marinus"
"MicroStrategy", "labhrainn"
"J.Crew", "rike"
"Blackstone Group", "govad"
"Anthem Inc.", "pauleen"
"BNY Mellon", "lachtna"
"GlaxoSmithKline", "dezsõ"
"Boston Consulting Group", "antonello"
"General Electric", "ambrosine"
"Blackstone Group", "pauline"
"GMA Network", "abhay"
"BAE Systems", "sudarshana"
"Arcelor Mittal", "kari (2)"
"FedEx", "leigh"
"Barclays", "jing"
"ACE Limited", "russell"
"Honeywell", "sayyid"
"Berkshire Hathaway", "vina"
"BNY Mellon", "kendra"
"Capital One Financial", "absolon"
"Marks and Spencer", "taranis"
"Comcast", "ashleigh"
"BP", "liborio"
"Foxconn Electronics Inc", "eirwen"
"Honeywell", "keith"
"MetLife", "doretta"
"Crown Worldwide Group", "aoife"
"Citigroup", "giustino"
"Berkshire Hathaway", "antonino"
"American Airlines Group", "urbana"
"Airbus", "javaid"
"MicroStrategy", "yvonne"
"Accenture", "hilaire"
"Goldman Sachs", "kirstin"
"MicroStrategy", "sohail"
"General Dynamics", "hussain"
"Campbell Soup Company", "fredrik"
"Morgan Stanley", "noémie"
"AMD", "sherri"
"Agenus", "guy"
"Kaplan, Inc.", "orinthia"
"eBay", "iréné"
"Apple Inc.", "rebekah"
"Hewlett Packard Enterprise", "nadja"
"Intel", "hannes"
"General Electric", "chantel"
"General Motors", "guillermo Schneider"
"Dell", "hildegard Barthelemy"
"Land Securities", "beatriz Charles"
"Hewlett Packard Enterprise", "ibolya Monnier"
"Ford Motor Company", "leland Klein"
"Dr. Reddy's", "shehrevar Schneider"
"Credit Suisse", "honor Julien"
"Boeing", "jonquil Moulin"
"Microsoft", "kobina Vincent"
"Agenus", "merletta Sanchez"
"Morgan Stanley", "bidelia David"
"InterCall", "jalo Vasseur"
"ACE Limited", "haytham Laurent"
"Boeing", "krzys Pichon"
"Daimler AG", "lawrie Marchand"
"Morgan Stanley", "anto Gerard"
"Credit Suisse", "roy Duval"
"Koch Industries Inc.", "edmonda Guillaume"
"Campbell Soup Company", "maite Boyer"
"GVK Group", "hélène Charles"
"Ford Motor Company", "percival Dumont"
"Dell", "fiacre Morel"
"Daimler AG", "phaedrus Lebrun"
"Best Buy", "kaitlin Leclerc"
"Berkshire Hathaway", "katariina Charles"
"Microsoft", "uma Clement"
"HP Hood LLC", "cecilija Leroux"
"Berkshire Hathaway", "benedikte Grondin"
"Infosys", "hecate Garnier"
"Daimler AG", "merrilyn Etienne"
"Boston Consulting Group", "bruno Dupont"
"Eastman Kodak", "alphonsine Masson"
"Deutsche Bank", "pompeo Herve"
"EY", "ninian Renard"
"Microsoft", "jamie (1) Baron"
"Dow Chemical Company", "kelsi Fournier"
"J.Crew", "lorccán Arnaud"
"Lockheed Martin", "xena Laporte"
"Dr. Reddy's", "sheena Gaillard"
"Morgan Stanley", "jimi Durand"
"Daimler AG", "chelsie Herve"
"MSC", "rashne Gaillard"
"Accenture", "gennadiy Klein"
"Agenus", "taneka Richard"
"Eastman Kodak", "perele Aubry"
"Honeywell", "charmian Guyot"
"Gerdau", "ike Maillard"
"Airbus", "hjörtur Royer"
"Lockheed Martin", "lessie Grondin"
"JP Morgan Chase", "ligia Guillaume"
"Gerdau", "jedrzej"
"J.Crew", "godwin"
"MGA Entertainment", "hùong"
"GVK Group", "callie"
"Best Buy", "philip"
"Canonical Ltd.", "pheobe"
"Canonical Ltd.", "manuela"
"L Brands", "paaie"
"Coca-Cola", "guy"
"Boeing", "minnie"
"Marks and Spencer", "nan"
"Bajaj Allianz General Insurance", "secundus"
"Infosys", "innes"
"Accenture", "odetta"
"Foxconn Electronics Inc", "rabbie"
"Ford Motor Company", "taylor"
"Caterpillar Inc.", "arianna"
"eBay", "ezar"
"Caterpillar Inc.", "evie"
"Ericsson", "maybelle"
"Facebook", "manny"
"EY", "gervais"
"Deutsche Bank", "artemisia"
"Apple Inc.", "ima"
"Goldman Sachs", "hadjara"
"Agenus", "dai"
"Caterpillar Inc.", "candace"
"Caterpillar Inc.", "pauletta"
"Apple Inc.", "manfredo"
"Infosys", "sheba"
"EY", "léopold"
"Intel", "hilary"
"Fidelity Investments", "ormonde"
"Deutsche Bank", "dung"
"Mesa Air Group", "purushottam"
"Google", "baldo"
"GMA Network", "tanit"
"GMA Network", "bentley"
"Coca-Cola", "into"
"HCL Technologies", "phineas"
"Facebook", "gwyneth"
"Henderson Land Development", "vulcan"
"Capgemini", "ayishah"
"American Express", "suman"
"Foxconn Electronics Inc", "gowri"
"MetLife", "þórbjörn"
"Anthem Inc.", "adalbert"
"Comcast", "zacharias"
"General Electric", "barb"
"Bharti Enterprises", "hilary"
"Bharti Enterprises", "iser"
"Credit Suisse", "eachann"
"Coca-Cola", "esmaralda"
"Land Securities", "seòsaidh"
"Daimler AG", "nayeli"
"Intel", "nichole"
"Comcast", "róisín"
"Morgan Stanley", "pratibha"
"IBM", "ruud"
"BMW", "estevão"
"Campbell Soup Company", "jeffery"
"HP Hood LLC", "adolphus"
"Electronic Arts", "gérald"
"Berkshire Hathaway", "cerridwyn"
"Campbell Soup Company", "wotan"
"BAE Systems", "hilda"
"McKinsey", "nunzio"
"MSC", "mstislav"
"American Express", "shimshon"
"Las Vegas Sands", "philippine"
"Intel", "róbert"
"Anthem Inc.", "lope"
"Anthem Inc.", "norm"
"Blackstone Group", "evgeniya"
"General Electric", "judith"
"Lockheed Martin", "régis"
"Microsoft", "shakuntala"
"Caterpillar Inc.", "alphonsus"
"Lockheed Martin", "mithra"
"Agenus", "coleman"
"IBM", "raynard"
"Banco Bilbao Vizcaya Argentaria", "khajag"
"Exxon Mobil", "carlos"
"Banco Bilbao Vizcaya Argentaria", "flavius"
"Anthem Inc.", "yente"
"Intel", "bert"
"McKinsey", "hildegarde"
"Lockheed Martin", "tyko"
"Cognizant", "doina"
"Caterpillar Inc.", "fakhri"
"Intel", "elle"
"HP Hood LLC", "tanja"
"FUBU", "ita"
"Koch Industries Inc.", "swietoslaw"
"InterCall", "becca"
"JP Morgan Chase", "surinder"
"JP Morgan Chase", "kathy"
"BNY Mellon", "zhou"
"Anthem Inc.", "aline"
"Henderson Land Development", "selby Renault"
"BAE Systems", "tetty Dufour"
"McKinsey", "mattie Gautier"
"Eastman Kodak", "heike Lacroix"
"Arcelor Mittal", "kolya Aubert"
"CBS Corporation", "rylan Henry"
"Barclays", "dilip Gautier"
"GMA Network", "zola Da Silva"
"BNY Mellon", "shprintzel Carlier"
"Ericsson", "leo Lejeune"
"Capgemini", "teàrlach Dumont"
"Boeing", "nicolae Renault"
"Morgan Stanley", "victoria (1) Dufour"
"Henderson Land Development", "treasa Meunier"
"AT&T", "campbell Laurent"
"J.Crew", "macie Meunier"
"Ford Motor Company", "akanksha Garcia"
"Honeywell", "bridget Legrand"
"Boeing", "gwawr Louis"
"Infosys", "othniel Rousseau"
"Infosys", "kristi Charles"
"Boeing", "robina Garcia"
"HCL Technologies", "janusz Marie"
"J.Crew", "abilene Carre"
"Jefferies Group", "olujimi Berger"
"American Airlines Group", "kolby Lemaire"
"IBM", "nudd Moreau"
"eBay", "ian Lefevre"
"Honeywell", "sundar Marchand"
"Exxon Mobil", "györgyike Marchand"
"Apple Inc.", "ajeet Leger"
"Dow Chemical Company", "halstein Germain"
"Goldman Sachs", "karoliina Laurent"
"Lockheed Martin", "habacuc Poirier"
"American Express", "mave Faure"
"eBay", "phirun Schmitt"
"Aditya Birla Group", "fakhri Marchal"
"Best Buy", "elisa Lejeune"
"Banco Bilbao Vizcaya Argentaria", "elmas Perrier"
"InterCall", "nova Petit"
"Land Securities", "yeva Barthelemy"
"Anthem Inc.", "gobind Marchal"
"MGA Entertainment", "corbin Baron"
"McDonald's", "thucydides Carpentier"
"ACE Limited", "wlodzislaw Brunet"
"Eastman Kodak", "martina Mercier"
"General Electric", "benoite Louis"
"McKinsey", "sieghild Lejeune"
"Exxon Mobil", "james Meyer"
"Microsoft", "hasdrubal Garnier"
"GVK Group", "marya"
"Credit Suisse", "conway"
"Honeywell", "effie"
"Berkshire Hathaway", "gonca"
"Morgan Stanley", "rosanne"
"BNY Mellon", "melany"
"Apple Inc.", "ebrahim"
"Infosys", "radoslav"
"Land Securities", "mariella"
"Airbus", "morgane"
"Henderson Land Development", "aric"
"Foxconn Electronics Inc", "alease"
"Honeywell", "jaden"
"MicroStrategy", "gawain"
"Daimler AG", "lughaidh"
"Eastman Kodak", "ellis (1)"
"Bajaj Allianz General Insurance", "nacho"
"Lockheed Martin", "juvela"
"Henderson Land Development", "bernt"
"Infosys", "dahlia"
"Cognizant", "gebhard"
"Dow Chemical Company", "cole"
"ACE Limited", "zuberi"
"Best Buy", "giada"
"Bajaj Allianz General Insurance", "itamar"
"ACE Limited", "atiya"
"Caterpillar Inc.", "leia"
"Henderson Land Development", "leone (2)"
"GVK Group", "araceli"
"Crown Worldwide Group", "heber (1)"
"Bajaj Allianz General Insurance", "oluwafunmilayo"
"Henderson Land Development", "salena"
"MicroStrategy", "nefertari"
"Google", "lenox"
"Canonical Ltd.", "helder"
"Arcelor Mittal", "cybele"
"Marks and Spencer", "dragica"
"Ford Motor Company", "gleb"
"J.Crew", "rolando"
"Foxconn Electronics Inc", "nikita"
"General Dynamics", "tatienne"
"Campbell Soup Company", "manola"
"MSC", "muirgen"
"GMA Network", "gaetane"
"Capgemini", "caron"
"Citigroup", "jaswinder"
"Dell", "nalani"
"BP", "reina (1)"
"Daimler AG", "malik"
"Electronic Arts", "irmtrud"
"Bajaj Allianz General Insurance", "deirdre"
"BNY Mellon", "daisy"
"Bharti Enterprises", "bijay"
"GlaxoSmithKline", "estéban"
"HCL Technologies", "onisim"
"Infosys", "trista"
"Ericsson", "pegasus"
"Honeywell", "jessica"
"American Express", "glendower"
"Ericsson", "huda"
"Fidelity Investments", "dániel"
"Aditya Birla Group", "theodoric"
"Bank of America", "faraj"
"MSC", "venka"
"BHP Billiton", "nawal"
"Google", "timothea"
"BAE Systems", "christophe"
"Koch Industries Inc.", "ernesta"
"General Motors", "zephania"
"JP Morgan Chase", "kader"
"Fidelity Investments", "marisol"
"Henderson Land Development", "alfred"
"Credit Suisse", "janelle"
"FedEx", "nadja"
"Capital One Financial", "cilla"
"ACE Limited", "alvar"
"BP", "fabricio"
"Hewlett Packard Enterprise", "kaapro"
"Ericsson", "azucena"
"Microsoft", "apolonija"
"Daimler AG", "ailpein"
"Coca-Cola", "dareia"
"Hewlett Packard Enterprise", "pisti"
"Capital One Financial", "manny"
"GVK Group", "kalyani"
"Ford Motor Company", "constantijn"
"GlaxoSmithKline", "roc"
"Capgemini", "mariko"
"Facebook", "em"
"Facebook", "tanika"
"Koch Industries Inc.", "elli (2)"
"Caterpillar Inc.", "gunda"
"Mesa Air Group", "alphonsine"
"Lockheed Martin", "vico"
"Eastman Kodak", "mihhaelo"
"JP Morgan Chase", "absolon"
"Infosys", "makenna"
"Daimler AG", "kaleo"
"BMW", "lindsay"
"MGA Entertainment", "tecumseh Leroux"
"AT&T", "anastasie Bertrand"
"McKinsey", "dunya Barbier"
"Campbell Soup Company", "claudiu Maillard"
"Ford Motor Company", "benson Pichon"
"Berkshire Hathaway", "théodore Gaillard"
"Agenus", "genista Humbert"
"Morgan Stanley", "evron Guillot"
"BP", "ania Bernard"
"Canonical Ltd.", "stein Reynaud"
"Morgan Stanley", "monty Weber"
"Exxon Mobil", "tatiana Gaillard"
"HCL Technologies", "gwen Schneider"
"Boston Consulting Group", "peppi Morin"
"Exxon Mobil", "larisa Tessier"
"American Express", "maredudd Leroy"
"Accenture", "aki Schmitt"
"Exxon Mobil", "lauraine Renard"
"Electronic Arts", "mora Marchand"
"Foxconn Electronics Inc", "marjory Charles"
"Bharti Enterprises", "visitacíon Carpentier"
"HP Hood LLC", "tiras Bertin"
"Hewlett Packard Enterprise", "linwood Perrot"
"Facebook", "daniil Hoarau"
"InterCall", "brack Bertrand"
"Barclays", "vreni Noel"
"Infosys", "alaina Dufour"
"BHP Billiton", "aoibhín Moulin"
"Blackstone Group", "steffan Lefevre"
"Mesa Air Group", "margaret Picard"
"Anthem Inc.", "laird Brunet"
"AT&T", "sharron Louis"
"Amazon.com", "ustinya Lambert"
"General Motors", "juliane Michaud"
"CBS Corporation", "farouk Picard"
"GVK Group", "yngve Langlois"
"BMW", "inez Louis"
"AMD", "madisyn Barthelemy"
"Coca-Cola", "caerwyn Morel"
"Agenus", "ima Fournier"
"HP Hood LLC", "jeffery Hubert"
"Lockheed Martin", "zaramama Marchal"
"CBS Corporation", "ignatius Klein"
"MGA Entertainment", "verna Clement"
"Marks and Spencer", "elzbieta Pierre"
"Las Vegas Sands", "ursula Renaud"
"InterCall", "trina Giraud"
"ACE Limited", "józsef Noel"
"Coca-Cola", "ania Pasquier"
"Land Securities", "fatma Leger"
"BHP Billiton", "zalman"
"Morgan Stanley", "katriona"
"Marks and Spencer", "kiersten"
"Mesa Air Group", "erkki"
"Comcast", "mairead"
"Mesa Air Group", "farid"
"InterCall", "carmel"
"Facebook", "aleksandrina"
"Henderson Land Development", "katrina"
"Caterpillar Inc.", "adalberto"
"MSC", "wilfred"
"Citigroup", "acke"
"Campbell Soup Company", "etna"
"Ford Motor Company", "menelaus"
"Bharti Enterprises", "aodh"
"Jefferies Group", "dung"
"Ford Motor Company", "lamis"
"JP Morgan Chase", "bice"
"Adobe Systems", "rube"
"Eastman Kodak", "jami"
"GVK Group", "scilla"
"Kaplan, Inc.", "hedy"
"General Dynamics", "jørgen"
"BAE Systems", "ceri"
"Cisco Systems", "gamaliel"
"Daimler AG", "isidore"
"Adobe Systems", "kuro"
"Foxconn Electronics Inc", "yael"
"Cognizant", "robbie"
"HCL Technologies", "hathor"
"IBM", "philipa"
"Morgan Stanley", "guglielmo"
"Jefferies Group", "rainerio"
"Aditya Birla Group", "cahal"
"BHP Billiton", "benaiah"
"BAE Systems", "adorinda"
"Boeing", "isabelle"
"Fidelity Investments", "ruggero"
"BMW", "zaina"
"Marks and Spencer", "llora"
"McDonald's", "blanch"
"Banco Bilbao Vizcaya Argentaria", "ita"
"Comcast", "avalon"
"Gerdau", "dominick"
"Infosys", "engelbert"
"Ericsson", "lidiya"
"Amazon.com", "hephzibah"
"Blackstone Group", "anisim"
"Cisco Systems", "wolfram"
"General Electric", "borislav"
"Agenus", "lincoln"
"General Dynamics", "livio"
"EY", "petula"
"Goldman Sachs", "rhianu"
"Cognizant", "zion"
"Aditya Birla Group", "eligia"
"HP Hood LLC", "brandi"
"Capital One Financial", "carissa"
"Capgemini", "alfons"
"Dow Chemical Company", "jonette"
"Honeywell", "ksawery"
"Gerdau", "giuliano"
"Gerdau", "napier"
"HCL Technologies", "méabh"
"Las Vegas Sands", "leith"
"McDonald's", "rajendra"
"Blackstone Group", "benedikt"
"GlaxoSmithKline", "orville"
"Airbus", "helen"
"Blackstone Group", "jannah"
"IBM", "meraud"
"FedEx", "françois"
"Mesa Air Group", "laban"
"Dell", "shantelle"
"Mesa Air Group", "pauliina"
"Dow Chemical Company", "joan (2)"
"Intel", "kalyn"
"HCL Technologies", "evfemia"
"GMA Network", "mihály"
"InterCall", "hinrich"
"Dow Chemical Company", "tillie"
"MGA Entertainment", "saburo"
"McKinsey", "stig"
"Dow Chemical Company", "lúðvík"
"Honeywell", "xue"
"Dow Chemical Company", "urien"
"InterCall", "kajsa"
"Crown Worldwide Group", "lucas"
"Berkshire Hathaway", "finnbar"
"Intel", "pythagoras"
"MicroStrategy", "neilina"
"Mesa Air Group", "bjorne"
"Henderson Land Development", "macaria"
"American Express", "marganita"
"IBM", "zoey"
"MSC", "tecla"
"Microsoft", "gillis"
"McDonald's", "przemyslaw"
"eBay", "ionatán"
"Aditya Birla Group", "adora Rolland"
"FedEx", "gayelord Boyer"
"Henderson Land Development", "mathias Gerard"
"Campbell Soup Company", "ryanne Michel"
"Marks and Spencer", "nicolau Carre"
"General Motors", "elisaveta Schneider"
"Facebook", "brandie Collet"
"Airbus", "johanne Daniel"
"Coca-Cola", "jonny Perret"
"eBay", "jodene Dupont"
"Capgemini", "kizzie Marechal"
"Honeywell", "mandy Mallet"
"Crown Worldwide Group", "lev Leroy"
"Kaplan, Inc.", "genevra Girard"
"Ford Motor Company", "veva Gautier"
"ACE Limited", "rolph Leroux"
"Henderson Land Development", "ursel Arnaud"
"Ford Motor Company", "sabeen Charles"
"Cognizant", "estefanía Perret"
"Arcelor Mittal", "lucina Klein"
"Accenture", "shannah Gauthier"
"FedEx", "veli Laurent"
"Google", "ruud Lucas"
"eBay", "lazare Grondin"
"Marks and Spencer", "melba Michaud"
"Hewlett Packard Enterprise", "jolánka Guerin"
"Credit Suisse", "luella Moulin"
"Marks and Spencer", "clíodhna David"
"CBS Corporation", "midge Cordier"
"ACE Limited", "saul Benard"
"Electronic Arts", "padma Gerard"
"Bajaj Allianz General Insurance", "ninette Le Gall"
"JP Morgan Chase", "euphranor Vidal"
"GlaxoSmithKline", "elle Adam"
"eBay", "kayly Lucas"
"Deutsche Post", "céline Meyer"
"MSC", "precious Bertrand"
"IBM", "leocadia Chevalier"
"FedEx", "charity Maillard"
"Daimler AG", "rosina Gautier"
"Anthem Inc.", "benjamine Masson"
"General Motors", "lalit Deschamps"
"HCL Technologies", "kenta Leblanc"
"MSC", "iyov Muller"
"CBS Corporation", "luigi Thomas"
"Henderson Land Development", "tunç Laporte"
"Anthem Inc.", "iefan Moreau"
"McDonald's", "kyran Guillaume"
"HCL Technologies", "ianthina Hamon"
"General Dynamics", "fizza Meyer"
"Aditya Birla Group", "marzio"
"GMA Network", "sauda"
"HCL Technologies", "tresha"
"BP", "amália"
"Campbell Soup Company", "ghadir"
"Dow Chemical Company", "cormag"
"FedEx", "roly"
"Google", "zena"
"Amazon.com", "ilaria"
"Accenture", "guenevere"
"Amazon.com", "jin"
"Caterpillar Inc.", "felim"
"Eastman Kodak", "arturo"
"Ericsson", "pepe"
"Electronic Arts", "can"
"GlaxoSmithKline", "despoina"
"J.Crew", "mélissa"
"MetLife", "amedeus"
"Boeing", "ngoc"
"Comcast", "franz"
"ACE Limited", "aune"
"BP", "piera"
"Best Buy", "jockie"
"Ford Motor Company", "tristram"
"Deutsche Post", "barnabé"
"FUBU", "sven"
"Koch Industries Inc.", "arturo"
"Boeing", "hadil"
"Electronic Arts", "cornelis"
"Dell", "conrado"
"Arcelor Mittal", "josif"
"Boeing", "derrick"
"MGA Entertainment", "vjekoslava"
"Marks and Spencer", "haskel"
"AMD", "denise"
"Mesa Air Group", "marva"
"Intel", "phemie"
"AMD", "ilker"
"Mesa Air Group", "kendra"
"Fiat S.p.A.", "montserrat"
"Campbell Soup Company", "marlyn"
"Arcelor Mittal", "urbain"
"Daimler AG", "rosalba"
"Bharti Enterprises", "maxime"
"Barclays", "rhisiart"
"General Dynamics", "beatriu"
"Capital One Financial", "evan"
"Lockheed Martin", "valentino"
"GVK Group", "freddy"
"Dow Chemical Company", "amparo"
"MicroStrategy", "cullen"
"Accenture", "wanda"
"BAE Systems", "meave"
"Canonical Ltd.", "flurry"
"Ford Motor Company", "jody"
"Facebook", "adena"
"MetLife", "sonny"
"Ford Motor Company", "davena"
"Intel", "rizwan"
"Koch Industries Inc.", "eléonore"
"Land Securities", "katerina"
"FedEx", "carmo"
"Agenus", "assunta"
"Airbus", "sigurd"
"Bajaj Allianz General Insurance", "hinrich"
"Fiat S.p.A.", "muscowequan"
"HSBC", "aysun"
"American Express", "gaston"
"Crown Worldwide Group", "quintin"
"Morgan Stanley", "janis (2)"
"Ericsson", "rhetta"
"Lockheed Martin", "bulus"
"Microsoft", "rava"
"Bank of America", "mohammad"
"MicroStrategy", "sylvestre"
"Blackstone Group", "bohumir"
"Bharti Enterprises", "charita"
"L Brands", "karla"
"Deutsche Bank", "aleksander"
"Facebook", "jos"
"McKinsey", "ramachander"
"JP Morgan Chase", "iseabail"
"Land Securities", "mae"
"Boeing", "michal (1)"
"Arcelor Mittal", "sylvianne"
"Ericsson", "jarl"
"Cognizant", "sol (2)"
"Kaplan, Inc.", "octavian"
"Exxon Mobil", "gwallter"
"Boeing", "charles"
"J.Crew", "teàrlach"
"Aditya Birla Group", "brunette"
"Canonical Ltd.", "korbin"
"MicroStrategy", "jimmy"
"Arcelor Mittal", "velvela"
"Aditya Birla Group", "rayna (2)"
"Hewlett Packard Enterprise", "godiva"
"Deutsche Post", "elouise"
"Ford Motor Company", "lorin"
"HSBC", "miloslava Schneider"
"BMW", "zavier Lejeune"
"Crown Worldwide Group", "laurita Etienne"
"Accenture", "fatma Lucas"
"Caterpillar Inc.", "regena Guillot"
"Banco Bilbao Vizcaya Argentaria", "isabel Reynaud"
"Barclays", "seoc Denis"
"Kaplan, Inc.", "gowri Carre"
"Honeywell", "zev Lamy"
"Citigroup", "jacintha Langlois"
"Las Vegas Sands", "cierra Barbier"
"AMD", "hilde Berger"
"Boeing", "richmal Lefevre"
"Cisco Systems", "roni (1) Durand"
"Amazon.com", "jyotsna Barbier"
"Citigroup", "honora Richard"
"Henderson Land Development", "salud Brunet"
"Caterpillar Inc.", "saxon Schmitt"
"American Airlines Group", "sebestyen Lemoine"
"Honeywell", "polyhymnia Arnaud"
"MicroStrategy", "paola Lucas"
"Anthem Inc.", "zephania Gillet"
"Eastman Kodak", "goodwin Vasseur"
"Ericsson", "faramond Lemaitre"
"GMA Network", "sesto Giraud"
"General Electric", "rosette Barthelemy"
"Dr. Reddy's", "sandra Benoit"
"HP Hood LLC", "aphrodisia Roche"
"McKinsey", "jubal Guichard"
"McKinsey", "merritt Rousseau"
"Cisco Systems", "agrippa Lambert"
"Lockheed Martin", "iskender Gautier"
"AT&T", "dianna Bonnet"
"HP Hood LLC", "zacharjasz Fleury"
"Best Buy", "jochim Muller"
"Hewlett Packard Enterprise", "cyrus Lefevre"
"Comcast", "séarlait Lamy"
"Honeywell", "oran Rousseau"
"J.Crew", "zhenya Lefevre"
"L Brands", "isaias Daniel"
"Morgan Stanley", "brendon Jacquet"
"Accenture", "cecilio Robert"
"Best Buy", "uilleag Lejeune"
"GVK Group", "ibtisam Lemoine"
"eBay", "oedipus Martin"
"Koch Industries Inc.", "nita Dumont"
"Goldman Sachs", "tormod Thomas"
"Canonical Ltd.", "dhananjay Antoine"
"EY", "antiope Morin"
"Bharti Enterprises", "om Lemaitre"
"Exxon Mobil", "maryvonne"
"Berkshire Hathaway", "velvel"
"Intel", "venyamin"
"Marks and Spencer", "behram"
"Bajaj Allianz General Insurance", "delyth"
"Hewlett Packard Enterprise", "haydee"
"FedEx", "zita"
"Deutsche Post", "junko"
"GMA Network", "august (1)"
"MetLife", "stewart"
"GVK Group", "maarit"
"Hewlett Packard Enterprise", "hoshi"
"J.Crew", "rosalia"
"Cognizant", "theophania"
"Bharti Enterprises", "timo (2)"
"J.Crew", "reuven"
"Accenture", "madeline"
"Marks and Spencer", "phineas"
"AMD", "lili"
"McKinsey", "silas"
"IBM", "farrah"
"IBM", "mária"
"Electronic Arts", "laelia"
"Ericsson", "pranciskis"
"Crown Worldwide Group", "sergio"
"MetLife", "mairead"
"Caterpillar Inc.", "wera"
"MicroStrategy", "rees"
"InterCall", "hassan"
"Land Securities", "darleen"
"Land Securities", "federico"
"FedEx", "coretta"
"Deutsche Post", "sharise"
"Hewlett Packard Enterprise", "franca"
"BAE Systems", "petranella"
"Dell", "brigid"
"Airbus", "paddy"
"BNY Mellon", "ippolito"
"BNY Mellon", "bao (1)"
"Microsoft", "karita"
"Dr. Reddy's", "merrilyn"
"Lockheed Martin", "sandie"
"Morgan Stanley", "hikari"
"MSC", "grethe"
"Land Securities", "narinder"
"Hewlett Packard Enterprise", "boghos"
"Dr. Reddy's", "vreni"
"Deutsche Bank", "ashlee"
"General Motors", "brónach"
"BNY Mellon", "elin"
"HSBC", "malina"
"Capgemini", "marvin"
"Deutsche Bank", "libor"
"Berkshire Hathaway", "kakalina"
"Lockheed Martin", "raakel"
"Marks and Spencer", "oni"
"Google", "maxwell"
"Eastman Kodak", "novia"
"Apple Inc.", "jowita"
"Electronic Arts", "saul"
"General Dynamics", "hilaria"
"BMW", "midas"
"eBay", "shelena"
"General Electric", "vavrinec"
"Ericsson", "ulysses"
"Lockheed Martin", "móric"
"HSBC", "nicolao"
"Morgan Stanley", "jón"
"Cisco Systems", "cristen"
"Agenus", "marylyn"
"McDonald's", "branden"
"Blackstone Group", "abiel"
"Henderson Land Development", "cadfan"
"Ericsson", "cleve"
"MicroStrategy", "katida"
"BAE Systems", "alexei"
"Henderson Land Development", "jessye"
"MetLife", "terrie"
"Exxon Mobil", "zahir"
"Hewlett Packard Enterprise", "balfour"
"BP", "eugene"
"Blackstone Group", "amenhotep"
"eBay", "kevin"
"Dow Chemical Company", "brutus"
"General Electric", "goibniu"
"McDonald's", "marshall"
"HSBC", "devereux"
"Aditya Birla Group", "idwal"
"Bharti Enterprises", "desiderio"
"General Dynamics", "seumas"
"GMA Network", "coleen"
"Deutsche Post", "ataullah"
"American Airlines Group", "feodora"
"Crown Worldwide Group", "boleslawa"
"MicroStrategy", "felipa"
"BP", "ranulf"
"Adobe Systems", "andré"
"Infosys", "kathie"
"Koch Industries Inc.", "andrea (1)"
