company, employee
"Fidelity Investments", "lanny Gilbert"
"American Airlines Group", "lyyti Simon"
"MGA Entertainment", "gualtiero Menard"
"Arcelor Mittal", "neriah Guillot"
"McKinsey", "irénée Poirier"
"Fidelity Investments", "katsu Germain"
"InterCall", "filibert Charpentier"
"Barclays", "cyan Roche"
"Eastman Kodak", "cynthia Lejeune"
"MetLife", "brogan Leblanc"
"BHP Billiton", "gloria Schneider"
"Ericsson", "zeta Le Goff"
"HCL Technologies", "daryl Caron"
"Adobe Systems", "caecilia Reynaud"
"Deutsche Bank", "bébinn Tessier"
"EY", "jeunesse Adam"
"Cisco Systems", "riccarda Vincent"
"Citigroup", "karly Deschamps"
"Barclays", "jamey Leveque"
"Anthem Inc.", "terrie Denis"
"J.Crew", "reagan Poirier"
"Henderson Land Development", "martita Bertin"
"FedEx", "gundula David"
"GMA Network", "ramsey Petit"
"Credit Suisse", "bridget Marechal"
"HSBC", "lexi Gay"
"BMW", "valter Lebrun"
"HCL Technologies", "abd-al-malik Leveque"
"Koch Industries Inc.", "ninian Renaud"
"Koch Industries Inc.", "giampaolo Reynaud"
"Kaplan, Inc.", "jehiel Bouchet"
"Agenus", "aviram Gautier"
"BP", "romolo Noel"
"FedEx", "georgeta Francois"
"MetLife", "radomira Perez"
"McKinsey", "brant Bonnet"
"InterCall", "jarmila Menard"
"General Motors", "nicodème Lefevre"
"Ericsson", "ioannes Bouvier"
"Bank of America", "hyginus Bouchet"
"GVK Group", "clara Leger"
"GMA Network", "joaquin Le Gall"
"Adobe Systems", "eustace Le Goff"
"McKinsey", "rajya Breton"
"BNY Mellon", "hosanna Vasseur"
"Citigroup", "breana Langlois"
"HCL Technologies", "landon Roger"
"Boeing", "ruggero Blanchard"
"Caterpillar Inc.", "hupprecht Mathieu"
"AMD", "emánuel Mathieu"
"Gerdau", "amrita"
"Dow Chemical Company", "sjurd"
"L Brands", "trinidad"
"Mesa Air Group", "gülbahar"
"Citigroup", "mykolas"
"Airbus", "bárbara"
"Banco Bilbao Vizcaya Argentaria", "braelyn"
"Adobe Systems", "vitali"
"BMW", "colten"
"Intel", "debra"
"Cognizant", "angelica"
"Boeing", "bertha"
"Fiat S.p.A.", "yusra"
"Coca-Cola", "quintella"
"MSC", "wawrzyniec"
"Agenus", "leah"
"EY", "zev"
"Facebook", "pernel"
"GVK Group", "hedda"
"L Brands", "pearl"
"Accenture", "gawahir"
"L Brands", "feodor"
"Bharti Enterprises", "viviana"
"Land Securities", "séafra"
"AT&T", "lynnette"
"Dow Chemical Company", "sa'ida"
"Exxon Mobil", "heber (1)"
"Campbell Soup Company", "medb"
"MicroStrategy", "nikomachos"
"CBS Corporation", "tybalt"
"Morgan Stanley", "thaddeus"
"Electronic Arts", "zachariah"
"General Motors", "katinka"
"Deutsche Post", "bevis"
"Henderson Land Development", "jeannette"
"Berkshire Hathaway", "sjurd"
"McKinsey", "chara"
"Apple Inc.", "nessa (1)"
"Crown Worldwide Group", "sarra"
"Boston Consulting Group", "tadeu"
"Koch Industries Inc.", "johnathon"
"Agenus", "emilee"
"eBay", "ghaliya"
"MicroStrategy", "akoni"
"Eastman Kodak", "harinder"
"Cisco Systems", "chayim"
"Daimler AG", "zhen"
"BMW", "fionola"
"General Motors", "klára"
"McDonald's", "dunya"
"Microsoft", "joão"
"Canonical Ltd.", "maija"
"Henderson Land Development", "ava (2)"
"HP Hood LLC", "caleigh"
"Henderson Land Development", "darleen"
"Adobe Systems", "york"
"General Dynamics", "fillin"
"Capgemini", "anubis"
"Boeing", "rózsi"
"Cisco Systems", "tanzi"
"Best Buy", "polyxena"
"BHP Billiton", "shelly"
"Fiat S.p.A.", "vojtech"
"Campbell Soup Company", "becky"
"Agenus", "alton"
"Anthem Inc.", "cirino"
"Campbell Soup Company", "taryn"
"eBay", "eluned"
"eBay", "siarl"
"EY", "rune"
"InterCall", "chita"
"Microsoft", "leachlainn"
"Aditya Birla Group", "braxton"
"Barclays", "kiri"
"Infosys", "charlot"
"Citigroup", "andré"
"Marks and Spencer", "shui"
"Comcast", "alexis (1)"
"JP Morgan Chase", "erastus"
"Agenus", "elisud"
"Henderson Land Development", "cindy"
"Boeing", "naji"
"Cognizant", "farley"
"General Dynamics", "aurangzeb"
"Eastman Kodak", "viveka"
"BAE Systems", "alia"
"Infosys", "raffaello"
"Land Securities", "mahmud"
"L Brands", "stephania"
"Deutsche Bank", "callum"
"Apple Inc.", "gül"
"Koch Industries Inc.", "barra"
"Fidelity Investments", "firdos"
"Dow Chemical Company", "bastian"
"BP", "tierra"
"Intel", "into"
"Honeywell", "kalle"
"Agenus", "mariana"
"Arcelor Mittal", "elain"
"Deutsche Post", "marian (3) Nicolas"
"Kaplan, Inc.", "halldór Pelletier"
"Ford Motor Company", "idonea Weber"
"BMW", "hedvig Bertin"
"Comcast", "christabel Lefevre"
"Coca-Cola", "shawn Renard"
"MetLife", "hernán Muller"
"Arcelor Mittal", "pisti Louis"
"Morgan Stanley", "ariston Gay"
"MSC", "garbhán Martin"
"American Express", "alessandra Arnaud"
"Koch Industries Inc.", "consuela Besson"
"IBM", "dollie Besson"
"Facebook", "sylvia Thomas"
"BNY Mellon", "ai (1) Marechal"
"General Electric", "bevis Meunier"
"Boeing", "piper Bernard"
"General Dynamics", "quintin Charles"
"HCL Technologies", "wouter Germain"
"Land Securities", "melina Roche"
"Mesa Air Group", "mariana Le"
"Electronic Arts", "ladislaus Dumont"
"GlaxoSmithKline", "dick Chevalier"
"Foxconn Electronics Inc", "tye Delaunay"
"Best Buy", "jonah Rodriguez"
"Berkshire Hathaway", "corentin Maillard"
"MSC", "usko Lambert"
"Goldman Sachs", "ilbert Andre"
"Fidelity Investments", "zosimus Roy"
"American Airlines Group", "jörgen Marchal"
"Ericsson", "gruffudd Carpentier"
"InterCall", "kohar Lefevre"
"Lockheed Martin", "yseult Laporte"
"Credit Suisse", "danya Duval"
"Mesa Air Group", "barclay Grondin"
"Blackstone Group", "marlen Lopez"
"Anthem Inc.", "drusilla Hubert"
"Henderson Land Development", "milogost Mallet"
"Morgan Stanley", "cailin Carlier"
"Infosys", "baha Jacquet"
"Dell", "renate Morin"
"Fidelity Investments", "kofi Reynaud"
"Intel", "chalchiuhticue Bouchet"
"BMW", "rollo Daniel"
"McDonald's", "justus Jacquet"
"General Dynamics", "ottoline Langlois"
"Land Securities", "palmiro Nicolas"
"Exxon Mobil", "zach Giraud"
"Amazon.com", "roque Gilbert"
"Best Buy", "zion Simon"
"Capital One Financial", "ewen"
"Coca-Cola", "carson"
"Google", "rees"
"Coca-Cola", "weldon"
"Koch Industries Inc.", "jaye"
"Facebook", "stijn"
"HP Hood LLC", "sassa"
"MSC", "lana"
"JP Morgan Chase", "delora"
"General Electric", "meiriona"
"American Express", "estefanía"
"Foxconn Electronics Inc", "harald"
"Coca-Cola", "osamu"
"McKinsey", "yukiko"
"Ford Motor Company", "gertie"
"Las Vegas Sands", "manoel"
"GVK Group", "victorino"
"Dow Chemical Company", "pinchas"
"FUBU", "björn"
"Intel", "boleslawa"
"American Express", "caris"
"JP Morgan Chase", "jelka"
"Comcast", "yvain"
"Boeing", "adrianna"
"Microsoft", "sa'id"
"Exxon Mobil", "sharma"
"Ford Motor Company", "áine"
"Deutsche Post", "hermann"
"FedEx", "cletus"
"Jefferies Group", "dariea"
"Barclays", "tòmas"
"L Brands", "massimiliano"
"FUBU", "orion"
"Dow Chemical Company", "bijay"
"American Express", "lizette"
"Capital One Financial", "mårten"
"Jefferies Group", "eryn"
"Henderson Land Development", "lareyna"
"Boeing", "vittore"
"HP Hood LLC", "orel"
"Bank of America", "évariste"
"Koch Industries Inc.", "olivette"
"Goldman Sachs", "dwight"
"Citigroup", "temple"
"JP Morgan Chase", "thyrza"
"Anthem Inc.", "kelley"
"Blackstone Group", "eufemia"
"Mesa Air Group", "tobias"
"MSC", "othniel"
"HCL Technologies", "astarte"
"Honeywell", "joetta"
"Mesa Air Group", "bosmat"
"Morgan Stanley", "kwabena"
"Land Securities", "alys"
"L Brands", "dina"
"Google", "lynette"
"Fidelity Investments", "josef"
"HCL Technologies", "xenia"
"FUBU", "kort"
"Cisco Systems", "linford"
"BHP Billiton", "oleg"
"MSC", "tatum"
"Jefferies Group", "sheri"
"Facebook", "sunny"
"Deutsche Post", "jean-marie"
"Cognizant", "aubrey"
"Facebook", "orville"
"Amazon.com", "graça"
"Lockheed Martin", "windsor"
"Adobe Systems", "nandag"
"Agenus", "boutros"
"Capgemini", "siôr"
"EY", "lenora"
"Morgan Stanley", "danny"
"JP Morgan Chase", "alcippe"
"Apple Inc.", "faye"
"Agenus", "hermes"
"Eastman Kodak", "dorotéia"
"Foxconn Electronics Inc", "brónach"
"HSBC", "chandrakant"
"Boeing", "helios"
"BAE Systems", "fatin"
"CBS Corporation", "dunyasha"
"ACE Limited", "gazsi"
"Blackstone Group", "dwight"
"Foxconn Electronics Inc", "dolph"
"IBM", "natalya"
"Amazon.com", "ervins"
"American Express", "issachar"
"ACE Limited", "cherokee"
"Capital One Financial", "mairwen"
"Barclays", "dympna"
"FedEx", "panagiota"
"MicroStrategy", "deo"
"Best Buy", "daniele"
"Boston Consulting Group", "lora"
"Canonical Ltd.", "bernardo"
"Jefferies Group", "berker"
"BP", "keelin"
"GMA Network", "vilmos Laporte"
"Kaplan, Inc.", "mirjami Marty"
"ACE Limited", "pála Girard"
"AMD", "evgeni Lopez"
"Fiat S.p.A.", "sorin Besson"
"General Dynamics", "aleksandro Pasquier"
"Daimler AG", "tipene Moulin"
"Berkshire Hathaway", "catherina Guyot"
"Jefferies Group", "matej Renard"
"American Airlines Group", "vid Marechal"
"AMD", "jowan Francois"
"Kaplan, Inc.", "annie Klein"
"HSBC", "amar Benoit"
"Amazon.com", "roc Louis"
"AMD", "leachlainn Collin"
"J.Crew", "ishbel Guillaume"
"Campbell Soup Company", "eveline Weber"
"Electronic Arts", "jack Adam"
"Morgan Stanley", "vere Muller"
"Morgan Stanley", "valerian Charpentier"
"Caterpillar Inc.", "fernanda Leroy"
"Accenture", "jochim Roux"
"General Electric", "justy Dupont"
"Caterpillar Inc.", "prince Pasquier"
"Arcelor Mittal", "wiebke Duval"
"HCL Technologies", "felipe Marechal"
"Berkshire Hathaway", "juuso Roux"
"Anthem Inc.", "sylviane Gauthier"
"Dr. Reddy's", "sierra Brunet"
"McKinsey", "desya Pierre"
"Credit Suisse", "lockie Roy"
"InterCall", "sinclair Dupuy"
"GlaxoSmithKline", "devin Lemoine"
"JP Morgan Chase", "kamil (2) Humbert"
"BNY Mellon", "fajra Remy"
"Google", "ane Mallet"
"Land Securities", "odetta Le"
"Infosys", "lora Martinez"
"Intel", "haydee Philippe"
"Boston Consulting Group", "denisa Da Silva"
"HCL Technologies", "fiorella Rodriguez"
"Gerdau", "kimberlee Gerard"
"Cognizant", "oscar Chevalier"
"Goldman Sachs", "marya Guillot"
"Capgemini", "roderick Michaud"
"Best Buy", "kristal Bouvier"
"BHP Billiton", "fravardin Leger"
"Deutsche Post", "bjoern Dubois"
"American Express", "consolata Roux"
"Arcelor Mittal", "raclaw Moulin"
"Citigroup", "moses"
"Exxon Mobil", "viviana"
"EY", "ulick"
"Gerdau", "lawahiz"
"Capital One Financial", "alethea"
"Goldman Sachs", "grete"
"Berkshire Hathaway", "ernestine"
"BAE Systems", "rosine"
"Dr. Reddy's", "preben"
"eBay", "laurene"
"Bajaj Allianz General Insurance", "elvis"
"BHP Billiton", "andela"
"Amazon.com", "robert"
"Ericsson", "aapo"
"HCL Technologies", "sotiris"
"Aditya Birla Group", "toria"
"Henderson Land Development", "khalil"
"CBS Corporation", "izabella"
"Kaplan, Inc.", "osama"
"MGA Entertainment", "hani"
"Hewlett Packard Enterprise", "erich"
"Mesa Air Group", "arisha"
"Credit Suisse", "carl"
"Canonical Ltd.", "sam"
"Microsoft", "festus"
"ACE Limited", "mårten"
"AMD", "boleslawa"
"Adobe Systems", "omri"
"ACE Limited", "alasdair"
"Campbell Soup Company", "macsen"
"Crown Worldwide Group", "cherie"
"BAE Systems", "paris"
"InterCall", "nadia (2)"
"MetLife", "elkan"
"JP Morgan Chase", "abby"
"Lockheed Martin", "salvador"
"Apple Inc.", "minty"
"Citigroup", "evdokiya"
"Capital One Financial", "benedito"
"Ford Motor Company", "akiko"
"AMD", "itziar"
"MicroStrategy", "libitina"
"AT&T", "alastríona"
"EY", "elisabeta"
"Campbell Soup Company", "madelyn"
"Caterpillar Inc.", "mabella"
"CBS Corporation", "octavio"
"Morgan Stanley", "merita"
"HP Hood LLC", "natasha"
"HSBC", "kerensa"
"Mesa Air Group", "spring"
"Las Vegas Sands", "valary"
"MetLife", "gyuri"
"BAE Systems", "anelie"
"Bank of America", "theodoric"
"GMA Network", "sabas"
"Bajaj Allianz General Insurance", "eveliina"
"Dr. Reddy's", "markéta"
"Dow Chemical Company", "charmaine"
"CBS Corporation", "cosimo"
"Dow Chemical Company", "marketta"
"Amazon.com", "tarmo"
"American Express", "maksim"
"Ericsson", "earnestine"
"Coca-Cola", "egbert"
"Dow Chemical Company", "scottie"
"Cisco Systems", "posie"
"MSC", "phaedrus"
"Bank of America", "firmin"
"General Dynamics", "ramon"
"Daimler AG", "toni (1)"
"BP", "adolf"
"Boeing", "kian"
"American Airlines Group", "modeste"
"EY", "rhodri"
"Deutsche Bank", "diamantina"
"Google", "esteri"
"Kaplan, Inc.", "isiah"
"American Airlines Group", "eran"
"Best Buy", "dirk"
"Blackstone Group", "ewa"
"J.Crew", "kole"
"Intel", "julián"
"Campbell Soup Company", "braxton"
"GVK Group", "shama"
"Apple Inc.", "adamina"
"Citigroup", "melania"
"Marks and Spencer", "ailís"
"General Motors", "andrija"
"MicroStrategy", "ceren"
"Eastman Kodak", "franci"
"AMD", "edgardo"
"InterCall", "amira"
"Deutsche Post", "cecilija"
"Boston Consulting Group", "albertine"
"Ford Motor Company", "pascaline"
"HP Hood LLC", "miroslav"
"Henderson Land Development", "boniface"
"BNY Mellon", "jenci"
"Ford Motor Company", "lala Rey"
"General Motors", "shprintza Morel"
"AT&T", "ottaviano Delaunay"
"FedEx", "tamra Le Gall"
"BNY Mellon", "griffin Guillaume"
"Deutsche Bank", "clarice Perrin"
"IBM", "bertrando Clement"
"Credit Suisse", "lacey Le"
"Dell", "ptolema Rey"
"McDonald's", "florry Martin"
"Lockheed Martin", "pacey Barthelemy"
"IBM", "eckhard Vincent"
"Intel", "zia Thomas"
"Aditya Birla Group", "lijsbeth Dupuy"
"EY", "taryn Hoarau"
"Microsoft", "gale Blanc"
"Jefferies Group", "ralphina Bertin"
"Mesa Air Group", "euthalia Riviere"
"AT&T", "rodolf Louis"
"Credit Suisse", "sally Langlois"
"Airbus", "jolanda Colin"
"EY", "carwyn Picard"
"Dr. Reddy's", "rahim Caron"
"Canonical Ltd.", "fadila Reynaud"
"Banco Bilbao Vizcaya Argentaria", "blythe Thomas"
"Dr. Reddy's", "baqir Barre"
"Eastman Kodak", "alfred Schmitt"
"Airbus", "octavius Leclerc"
"Marks and Spencer", "om Grondin"
"HCL Technologies", "kojo Aubert"
"Citigroup", "vangelis Guerin"
"Marks and Spencer", "tayler Renaud"
"L Brands", "halcyone Le Goff"
"Koch Industries Inc.", "earle Robert"
"BMW", "rozanne Lefebvre"
"Boeing", "elea Pierre"
"American Express", "ailill Faure"
"Eastman Kodak", "orpha Cousin"
"Boeing", "paule Besson"
"BHP Billiton", "donalda Boucher"
"BMW", "roger Vincent"
"Amazon.com", "raschelle Chauvin"
"Dell", "lockie Aubry"
"Eastman Kodak", "phemie Dumont"
"JP Morgan Chase", "fermin Riviere"
"American Express", "lyudmila Besson"
"AT&T", "leanna Pierre"
"IBM", "zaid Lejeune"
"GVK Group", "lileas Leblanc"
"Intel", "raakel Vidal"
"Agenus", "zahira"
"Dow Chemical Company", "alonso"
"Berkshire Hathaway", "franciscus"
"Bharti Enterprises", "mabelle"
"Deutsche Post", "disgleirio"
"Ford Motor Company", "marcos"
"Exxon Mobil", "bertók"
"Dell", "deiniol"
"Cognizant", "guto"
"Morgan Stanley", "zahir"
"Coca-Cola", "bibiana"
"Crown Worldwide Group", "mercia"
"EY", "gabriele (2)"
"MetLife", "nadia (2)"
"Bharti Enterprises", "kylee"
"Fiat S.p.A.", "timon"
"Land Securities", "reena"
"Bank of America", "maeva"
"Kaplan, Inc.", "ruta"
"Ford Motor Company", "hardy"
"Bank of America", "jónatan"
"Ericsson", "aki"
"GMA Network", "bartlomiej"
"InterCall", "abbie"
"Deutsche Post", "havel"
"Credit Suisse", "kallistrate"
"Bajaj Allianz General Insurance", "juanito"
"Aditya Birla Group", "shannah"
"Marks and Spencer", "blazej"
"Barclays", "sylvana"
"Lockheed Martin", "eveleen"
"Deutsche Post", "valeriu"
"Crown Worldwide Group", "daedalus"
"Koch Industries Inc.", "charnette"
"Boeing", "barbro"
"Bajaj Allianz General Insurance", "ollie"
"McDonald's", "anatole"
"Coca-Cola", "dawid"
"Dow Chemical Company", "siena"
"Infosys", "noelani"
"Amazon.com", "cuthbert"
"Arcelor Mittal", "ottoline"
"Lockheed Martin", "joos"
"FedEx", "kat"
"J.Crew", "thutmose"
"GVK Group", "earnest"
"J.Crew", "gianfranco"
"Infosys", "comhghall"
"Campbell Soup Company", "merfyn"
"ACE Limited", "cara"
"Fidelity Investments", "darlene"
"Foxconn Electronics Inc", "kalyn"
"American Express", "lawrie"
"Canonical Ltd.", "ah"
"American Airlines Group", "elyse"
"Boeing", "nessa (1)"
"Boeing", "sieglinde"
"Jefferies Group", "rodrigo"
"HSBC", "maud"
"BNY Mellon", "nell"
"Deutsche Post", "venkat"
"Dr. Reddy's", "cokkie"
"MSC", "bryce"
"Cognizant", "floella"
"L Brands", "gore"
"Cisco Systems", "kwasi"
"Land Securities", "hades"
"Accenture", "brett"
"Dell", "evthalia"
"Intel", "hendrik"
"AMD", "avila"
"Deutsche Bank", "daffodil"
"Bharti Enterprises", "wasim"
"Ericsson", "bláthnaid"
"Anthem Inc.", "donaldina"
"Mesa Air Group", "rama"
"Koch Industries Inc.", "kenji"
"Facebook", "ashling"
"GVK Group", "lewella"
"L Brands", "tanesha"
"Barclays", "pauliina"
"Kaplan, Inc.", "honorata"
"Fidelity Investments", "basilio"
"Foxconn Electronics Inc", "bastian"
"Google", "eibhlín"
"Koch Industries Inc.", "tuyet"
"Jefferies Group", "maitland"
"Credit Suisse", "kassandra"
"Accenture", "isolda"
"Dr. Reddy's", "hayder"
"ACE Limited", "dinah"
"Anthem Inc.", "margot"
"Ford Motor Company", "jørgen"
"General Dynamics", "riley"
"Marks and Spencer", "miroslava"
"MSC", "manu"
"Capgemini", "leeann"
"Goldman Sachs", "heulwen"
"AMD", "charissa"
"Land Securities", "rubye Charpentier"
"AT&T", "prosper Aubert"
"Eastman Kodak", "azucena Marechal"
"Arcelor Mittal", "glyn Pierre"
"Ericsson", "emmett Chevallier"
"Banco Bilbao Vizcaya Argentaria", "faizel Germain"
"FUBU", "zvi Fleury"
"Hewlett Packard Enterprise", "inka Michaud"
"Henderson Land Development", "célestin Lucas"
"Cognizant", "zaira Garnier"
"Hewlett Packard Enterprise", "sanna Chevallier"
"Airbus", "gratian Roux"
"MSC", "debbie Schneider"
"Google", "dido Simon"
"Adobe Systems", "cassandra Faure"
"Hewlett Packard Enterprise", "darya Dubois"
"Boston Consulting Group", "zeta Noel"
"Bharti Enterprises", "cerberus Michel"
"HSBC", "gergely Perrier"
"Blackstone Group", "gwilim Richard"
"Ford Motor Company", "gösta Pichon"
"Blackstone Group", "luella Baron"
"Fiat S.p.A.", "jacobo Aubry"
"BMW", "dolph Lacroix"
"Accenture", "yale Jean"
"General Motors", "hamza Sanchez"
"Morgan Stanley", "lawrie Breton"
"Agenus", "viktória Fontaine"
"Gerdau", "raheem Fernandez"
"Foxconn Electronics Inc", "lesleigh Roche"
"General Dynamics", "tiara Bourgeois"
"Airbus", "orlagh Marie"
"CBS Corporation", "jennifer Le"
"JP Morgan Chase", "stanley Simon"
"Microsoft", "redd Prevost"
"Fidelity Investments", "eren Fleury"
"Dell", "elisabeth Lacroix"
"Infosys", "tryggve Roux"
"Infosys", "darrell Brun"
"GMA Network", "alaba Vidal"
"JP Morgan Chase", "eallair Berger"
"J.Crew", "enrique Gauthier"
"Arcelor Mittal", "chet Perrier"
"MicroStrategy", "morgane Leroux"
"Bharti Enterprises", "lovel Guillaume"
"Hewlett Packard Enterprise", "patience Bouvier"
"Land Securities", "adena Olivier"
"JP Morgan Chase", "arkell Grondin"
"McKinsey", "wasim Garcia"
"JP Morgan Chase", "avalon Caron"
"Agenus", "terah"
"Fiat S.p.A.", "knute"
"General Dynamics", "secundus"
"FUBU", "perseus"
"CBS Corporation", "shulamit"
"EY", "traherne"
"BP", "fionn"
"MicroStrategy", "salamon"
"Agenus", "ambrogino"
"Adobe Systems", "pankraz"
"Mesa Air Group", "paule"
"MetLife", "nephele"
"Crown Worldwide Group", "onora"
"Eastman Kodak", "hiba"
"General Dynamics", "jamsheed"
"Canonical Ltd.", "almudena"
"IBM", "miranda"
"HP Hood LLC", "pratap"
"ACE Limited", "fidelma"
"Google", "thomasina"
"InterCall", "demon"
"BNY Mellon", "warren"
"Henderson Land Development", "catina"
"Daimler AG", "kaylynn"
"BMW", "jaqueline"
"L Brands", "dassah"
"Berkshire Hathaway", "arline"
"Coca-Cola", "kristy"
"Google", "yan"
"Google", "gazbiyya"
"Lockheed Martin", "randy"
"BHP Billiton", "savio"
"Facebook", "ciannait"
"Intel", "collin"
"AT&T", "mererid"
"Lockheed Martin", "alannah"
"Capital One Financial", "anwar"
"Airbus", "liana"
"Boston Consulting Group", "lake"
"American Express", "bolek"
"Infosys", "polly"
"Dr. Reddy's", "ole"
"eBay", "tamra"
"Berkshire Hathaway", "donato"
"Morgan Stanley", "vashti"
"Land Securities", "cande"
"Ericsson", "ingemar"
"Google", "elkan"
"General Dynamics", "ferapont"
"AT&T", "guiomar"
"Caterpillar Inc.", "della"
"EY", "katherine"
"Deutsche Post", "hilaire"
"Dow Chemical Company", "marinus"
"Morgan Stanley", "labhrainn"
"Electronic Arts", "rike"
"Deutsche Post", "govad"
"MicroStrategy", "pauleen"
"Ericsson", "lachtna"
"Koch Industries Inc.", "dezsõ"
"Caterpillar Inc.", "antonello"
"MSC", "ambrosine"
"Boeing", "pauline"
"Fidelity Investments", "abhay"
"Dow Chemical Company", "sudarshana"
"Boston Consulting Group", "kari (2)"
"Apple Inc.", "leigh"
"Credit Suisse", "jing"
"Accenture", "russell"
"Eastman Kodak", "sayyid"
"Exxon Mobil", "vina"
"Boeing", "kendra"
"HP Hood LLC", "absolon"
"EY", "taranis"
"Capgemini", "ashleigh"
"JP Morgan Chase", "liborio"
"InterCall", "eirwen"
"Mesa Air Group", "keith"
"Lockheed Martin", "doretta"
"Jefferies Group", "aoife"
"Koch Industries Inc.", "giustino"
"Exxon Mobil", "antonino"
"Credit Suisse", "urbana"
"BAE Systems", "javaid"
"ACE Limited", "yvonne"
"Boeing", "hilaire"
"J.Crew", "kirstin"
"Cognizant", "sohail"
"American Airlines Group", "hussain"
"Boston Consulting Group", "fredrik"
"Cognizant", "noémie"
"Anthem Inc.", "sherri"
"Boeing", "guy"
"Best Buy", "orinthia"
"Canonical Ltd.", "iréné"
"Hewlett Packard Enterprise", "rebekah"
"Lockheed Martin", "nadja"
"Facebook", "hannes"
"J.Crew", "chantel"
"Crown Worldwide Group", "guillermo Schneider"
"Coca-Cola", "hildegard Barthelemy"
"Best Buy", "beatriz Charles"
"Canonical Ltd.", "ibolya Monnier"
"JP Morgan Chase", "leland Klein"
"GlaxoSmithKline", "shehrevar Schneider"
"General Electric", "honor Julien"
"MSC", "jonquil Moulin"
"Microsoft", "kobina Vincent"
"Banco Bilbao Vizcaya Argentaria", "merletta Sanchez"
"General Dynamics", "bidelia David"
"Jefferies Group", "jalo Vasseur"
"Intel", "haytham Laurent"
"American Express", "krzys Pichon"
"MSC", "lawrie Marchand"
"Comcast", "anto Gerard"
"FedEx", "roy Duval"
"McKinsey", "edmonda Guillaume"
"CBS Corporation", "maite Boyer"
"BNY Mellon", "hélène Charles"
"Gerdau", "percival Dumont"
"GMA Network", "fiacre Morel"
"Bank of America", "phaedrus Lebrun"
"InterCall", "kaitlin Leclerc"
"Las Vegas Sands", "katariina Charles"
"Dell", "uma Clement"
"Comcast", "cecilija Leroux"
"Bank of America", "benedikte Grondin"
"BHP Billiton", "hecate Garnier"
"Crown Worldwide Group", "merrilyn Etienne"
"Electronic Arts", "bruno Dupont"
"Marks and Spencer", "alphonsine Masson"
"Coca-Cola", "pompeo Herve"
"Deutsche Bank", "ninian Renard"
"Fiat S.p.A.", "jamie (1) Baron"
"FUBU", "kelsi Fournier"
"Exxon Mobil", "lorccán Arnaud"
"Blackstone Group", "xena Laporte"
"HSBC", "sheena Gaillard"
"Fidelity Investments", "jimi Durand"
"Boeing", "chelsie Herve"
"Caterpillar Inc.", "rashne Gaillard"
"MicroStrategy", "gennadiy Klein"
"Exxon Mobil", "taneka Richard"
"JP Morgan Chase", "perele Aubry"
"Facebook", "charmian Guyot"
"General Dynamics", "ike Maillard"
"AMD", "hjörtur Royer"
"Dell", "lessie Grondin"
"General Dynamics", "ligia Guillaume"
"Dell", "jedrzej"
"InterCall", "godwin"
"Amazon.com", "hùong"
"Crown Worldwide Group", "callie"
"General Electric", "philip"
"Dow Chemical Company", "pheobe"
"Jefferies Group", "manuela"
"InterCall", "paaie"
"FedEx", "guy"
"American Express", "minnie"
"Apple Inc.", "nan"
"MGA Entertainment", "secundus"
"Google", "innes"
"Citigroup", "odetta"
"JP Morgan Chase", "rabbie"
"Coca-Cola", "taylor"
"Intel", "arianna"
"Facebook", "ezar"
"Dell", "evie"
"JP Morgan Chase", "maybelle"
"Jefferies Group", "manny"
"Fidelity Investments", "gervais"
"BAE Systems", "artemisia"
"Deutsche Bank", "ima"
"Land Securities", "hadjara"
"Fiat S.p.A.", "dai"
"Jefferies Group", "candace"
"Ericsson", "pauletta"
"GMA Network", "manfredo"
"Adobe Systems", "sheba"
"eBay", "léopold"
"GMA Network", "hilary"
"Deutsche Bank", "ormonde"
"J.Crew", "dung"
"MSC", "purushottam"
"Deutsche Post", "baldo"
"ACE Limited", "tanit"
"HP Hood LLC", "bentley"
"Foxconn Electronics Inc", "into"
"General Motors", "phineas"
"Infosys", "gwyneth"
"EY", "vulcan"
"BP", "ayishah"
"Las Vegas Sands", "suman"
"McDonald's", "gowri"
"AMD", "þórbjörn"
"Comcast", "adalbert"
"Gerdau", "zacharias"
"Google", "barb"
"BMW", "hilary"
"IBM", "iser"
"Google", "eachann"
"Boston Consulting Group", "esmaralda"
"Las Vegas Sands", "seòsaidh"
"BAE Systems", "nayeli"
"General Motors", "nichole"
"Electronic Arts", "róisín"
"Bajaj Allianz General Insurance", "pratibha"
"GVK Group", "ruud"
"Amazon.com", "estevão"
"Caterpillar Inc.", "jeffery"
"Credit Suisse", "adolphus"
"Dell", "gérald"
"Amazon.com", "cerridwyn"
"Fiat S.p.A.", "wotan"
"Las Vegas Sands", "hilda"
"Mesa Air Group", "nunzio"
"Morgan Stanley", "mstislav"
"Berkshire Hathaway", "shimshon"
"Gerdau", "philippine"
"HP Hood LLC", "róbert"
"ACE Limited", "lope"
"HSBC", "norm"
"JP Morgan Chase", "evgeniya"
"IBM", "judith"
"Infosys", "régis"
"Ericsson", "shakuntala"
"Capital One Financial", "alphonsus"
"FUBU", "mithra"
"CBS Corporation", "coleman"
"Infosys", "raynard"
"MetLife", "khajag"
"Google", "carlos"
"Land Securities", "flavius"
"BP", "yente"
"Coca-Cola", "bert"
"Best Buy", "hildegarde"
"Capgemini", "tyko"
"BNY Mellon", "doina"
"General Dynamics", "fakhri"
"MetLife", "elle"
"Capgemini", "tanja"
"Capgemini", "ita"
"Morgan Stanley", "swietoslaw"
"CBS Corporation", "becca"
"Deutsche Bank", "surinder"
"BMW", "kathy"
"Hewlett Packard Enterprise", "zhou"
"McDonald's", "aline"
