[
    {
        "name": "MSC",
        "ceo": "terah",
        "headquarters": "Brest"
    },
    {
        "name": "Accenture",
        "ceo": "knute",
        "headquarters": "M\u00e9rignac"
    },
    {
        "name": "ACE Limited",
        "ceo": "secundus",
        "headquarters": "Champigny-sur-Marne"
    },
    {
        "name": "Aditya Birla Group",
        "ceo": "perseus",
        "headquarters": "Villeurbanne"
    },
    {
        "name": "Adobe Systems",
        "ceo": "shulamit",
        "headquarters": "Aix-en-Provence"
    },
    {
        "name": "Agenus",
        "ceo": "traherne",
        "headquarters": "Le Tampon"
    },
    {
        "name": "Amazon.com",
        "ceo": "fionn",
        "headquarters": "Aulnay-sous-Bois"
    },
    {
        "name": "AMD",
        "ceo": "salamon",
        "headquarters": "Lille"
    },
    {
        "name": "American Express",
        "ceo": "ambrogino",
        "headquarters": "Nancy"
    },
    {
        "name": "American Airlines Group",
        "ceo": "pankraz",
        "headquarters": "Rennes"
    },
    {
        "name": "Anthem Inc.",
        "ceo": "paule",
        "headquarters": "Ivry-sur-Seine"
    },
    {
        "name": "Apple Inc.",
        "ceo": "nephele",
        "headquarters": "Pau"
    },
    {
        "name": "Arcelor Mittal",
        "ceo": "onora",
        "headquarters": "Le Mans"
    },
    {
        "name": "AT&T",
        "ceo": "hiba",
        "headquarters": "B\u00e9ziers"
    },
    {
        "name": "BAE Systems",
        "ceo": "jamsheed",
        "headquarters": "Neuilly-sur-Seine"
    },
    {
        "name": "Bajaj Allianz General Insurance",
        "ceo": "almudena",
        "headquarters": "Nancy"
    },
    {
        "name": "Banco Bilbao Vizcaya Argentaria",
        "ceo": "miranda",
        "headquarters": "Marseille"
    },
    {
        "name": "Bank of America",
        "ceo": "pratap",
        "headquarters": "Rueil-Malmaison"
    },
    {
        "name": "Barclays",
        "ceo": "fidelma",
        "headquarters": "M\u00e9rignac"
    },
    {
        "name": "Berkshire Hathaway",
        "ceo": "thomasina",
        "headquarters": "Fort-de-France"
    },
    {
        "name": "Best Buy",
        "ceo": "demon",
        "headquarters": "Cergy"
    },
    {
        "name": "Bharti Enterprises",
        "ceo": "warren",
        "headquarters": "Aix-en-Provence"
    },
    {
        "name": "Blackstone Group",
        "ceo": "catina",
        "headquarters": "Grenoble"
    },
    {
        "name": "BHP Billiton",
        "ceo": "kaylynn",
        "headquarters": "Reims"
    },
    {
        "name": "BMW",
        "ceo": "jaqueline",
        "headquarters": "Cannes"
    },
    {
        "name": "BNY Mellon",
        "ceo": "dassah",
        "headquarters": "Colmar"
    },
    {
        "name": "Boeing",
        "ceo": "arline",
        "headquarters": "Neuilly-sur-Seine"
    },
    {
        "name": "Boston Consulting Group",
        "ceo": "kristy",
        "headquarters": "Fort-de-France"
    },
    {
        "name": "BP",
        "ceo": "yan",
        "headquarters": "Ajaccio"
    },
    {
        "name": "Campbell Soup Company",
        "ceo": "gazbiyya",
        "headquarters": "Paris"
    },
    {
        "name": "Canonical Ltd.",
        "ceo": "randy",
        "headquarters": "Rueil-Malmaison"
    },
    {
        "name": "Capgemini",
        "ceo": "savio",
        "headquarters": "Le Mans"
    },
    {
        "name": "Capital One Financial",
        "ceo": "ciannait",
        "headquarters": "Troyes"
    },
    {
        "name": "Caterpillar Inc.",
        "ceo": "collin",
        "headquarters": "Cr\u00e9teil"
    },
    {
        "name": "CBS Corporation",
        "ceo": "mererid",
        "headquarters": "M\u00e9rignac"
    },
    {
        "name": "Cisco Systems",
        "ceo": "alannah",
        "headquarters": "Cr\u00e9teil"
    },
    {
        "name": "Citigroup",
        "ceo": "anwar",
        "headquarters": "Angers"
    },
    {
        "name": "Coca-Cola",
        "ceo": "liana",
        "headquarters": "Chamb\u00e9ry"
    },
    {
        "name": "Cognizant",
        "ceo": "lake",
        "headquarters": "Brest"
    },
    {
        "name": "Comcast",
        "ceo": "bolek",
        "headquarters": "Besan\u00e7on"
    },
    {
        "name": "Credit Suisse",
        "ceo": "polly",
        "headquarters": "Troyes"
    },
    {
        "name": "Crown Worldwide Group",
        "ceo": "ole",
        "headquarters": "Villeurbanne"
    },
    {
        "name": "Daimler AG",
        "ceo": "tamra",
        "headquarters": "Quimper"
    },
    {
        "name": "Dell",
        "ceo": "donato",
        "headquarters": "V\u00e9nissieux"
    },
    {
        "name": "Deutsche Bank",
        "ceo": "vashti",
        "headquarters": "Caen"
    },
    {
        "name": "Deutsche Post",
        "ceo": "cande",
        "headquarters": "Dunkerque"
    },
    {
        "name": "Dow Chemical Company",
        "ceo": "ingemar",
        "headquarters": "Limoges"
    },
    {
        "name": "Dr. Reddy's",
        "ceo": "elkan",
        "headquarters": "Limoges"
    },
    {
        "name": "Eastman Kodak",
        "ceo": "ferapont",
        "headquarters": "Mamoudzou"
    },
    {
        "name": "Airbus",
        "ceo": "guiomar",
        "headquarters": "M\u00e9rignac"
    },
    {
        "name": "eBay",
        "ceo": "della",
        "headquarters": "Toulon"
    },
    {
        "name": "Electronic Arts",
        "ceo": "katherine",
        "headquarters": "Montreuil"
    },
    {
        "name": "Ericsson",
        "ceo": "hilaire",
        "headquarters": "Grenoble"
    },
    {
        "name": "Exxon Mobil",
        "ceo": "marinus",
        "headquarters": "Villejuif"
    },
    {
        "name": "EY",
        "ceo": "labhrainn",
        "headquarters": "Lyon"
    },
    {
        "name": "Facebook",
        "ceo": "rike",
        "headquarters": "Boulogne-Billancourt"
    },
    {
        "name": "FedEx",
        "ceo": "govad",
        "headquarters": "Metz"
    },
    {
        "name": "Fiat S.p.A.",
        "ceo": "pauleen",
        "headquarters": "Roubaix"
    },
    {
        "name": "Fidelity Investments",
        "ceo": "lachtna",
        "headquarters": "Antony"
    },
    {
        "name": "Ford Motor Company",
        "ceo": "dezs\u00f5",
        "headquarters": "Noum\u00e9a"
    },
    {
        "name": "Foxconn Electronics Inc",
        "ceo": "antonello",
        "headquarters": "Ajaccio"
    },
    {
        "name": "FUBU",
        "ceo": "ambrosine",
        "headquarters": "Asni\u00e8res-sur-Seine"
    },
    {
        "name": "General Dynamics",
        "ceo": "pauline",
        "headquarters": "Cannes"
    },
    {
        "name": "General Electric",
        "ceo": "abhay",
        "headquarters": "Clichy"
    },
    {
        "name": "General Motors",
        "ceo": "sudarshana",
        "headquarters": "Paris"
    },
    {
        "name": "Gerdau",
        "ceo": "kari (2)",
        "headquarters": "Saint-Maur-des-Foss\u00e9s"
    },
    {
        "name": "GlaxoSmithKline",
        "ceo": "leigh",
        "headquarters": "Poitiers"
    },
    {
        "name": "Goldman Sachs",
        "ceo": "jing",
        "headquarters": "Valence"
    },
    {
        "name": "Google",
        "ceo": "russell",
        "headquarters": "Valence"
    },
    {
        "name": "GMA Network",
        "ceo": "sayyid",
        "headquarters": "Lille"
    },
    {
        "name": "GVK Group",
        "ceo": "vina",
        "headquarters": "Le Mans"
    },
    {
        "name": "HCL Technologies",
        "ceo": "kendra",
        "headquarters": "Saint-Andr\u00e9"
    },
    {
        "name": "Henderson Land Development",
        "ceo": "absolon",
        "headquarters": "Cannes"
    },
    {
        "name": "Hewlett Packard Enterprise",
        "ceo": "taranis",
        "headquarters": "Mamoudzou"
    },
    {
        "name": "Honeywell",
        "ceo": "ashleigh",
        "headquarters": "Cergy"
    },
    {
        "name": "HP Hood LLC",
        "ceo": "liborio",
        "headquarters": "Ajaccio"
    },
    {
        "name": "HSBC",
        "ceo": "eirwen",
        "headquarters": "Chamb\u00e9ry"
    },
    {
        "name": "IBM",
        "ceo": "keith",
        "headquarters": "La Seyne-sur-Mer"
    },
    {
        "name": "Infosys",
        "ceo": "doretta",
        "headquarters": "Saint-Paul"
    },
    {
        "name": "Intel",
        "ceo": "aoife",
        "headquarters": "Colmar"
    },
    {
        "name": "InterCall",
        "ceo": "giustino",
        "headquarters": "Noisy-le-Grand"
    },
    {
        "name": "J.Crew",
        "ceo": "antonino",
        "headquarters": "Ajaccio"
    },
    {
        "name": "Jefferies Group",
        "ceo": "urbana",
        "headquarters": "Cayenne"
    },
    {
        "name": "JP Morgan Chase",
        "ceo": "javaid",
        "headquarters": "Nice"
    },
    {
        "name": "Kaplan, Inc.",
        "ceo": "yvonne",
        "headquarters": "Sarcelles"
    },
    {
        "name": "Koch Industries Inc.",
        "ceo": "hilaire",
        "headquarters": "Lille"
    },
    {
        "name": "Land Securities",
        "ceo": "kirstin",
        "headquarters": "Pessac"
    },
    {
        "name": "Las Vegas Sands",
        "ceo": "sohail",
        "headquarters": "Nanterre"
    },
    {
        "name": "L Brands",
        "ceo": "hussain",
        "headquarters": "Drancy"
    },
    {
        "name": "Lockheed Martin",
        "ceo": "fredrik",
        "headquarters": "Chamb\u00e9ry"
    },
    {
        "name": "Marks and Spencer",
        "ceo": "no\u00e9mie",
        "headquarters": "Valence"
    },
    {
        "name": "McDonald's",
        "ceo": "sherri",
        "headquarters": "Villeneuve-d'Ascq"
    },
    {
        "name": "McKinsey",
        "ceo": "guy",
        "headquarters": "Bordeaux"
    },
    {
        "name": "Mesa Air Group",
        "ceo": "orinthia",
        "headquarters": "Villeurbanne"
    },
    {
        "name": "MetLife",
        "ceo": "ir\u00e9n\u00e9",
        "headquarters": "Sarcelles"
    },
    {
        "name": "MGA Entertainment",
        "ceo": "rebekah",
        "headquarters": "Champigny-sur-Marne"
    },
    {
        "name": "Microsoft",
        "ceo": "nadja",
        "headquarters": "Nantes"
    },
    {
        "name": "MicroStrategy",
        "ceo": "hannes",
        "headquarters": "Antony"
    },
    {
        "name": "Morgan Stanley",
        "ceo": "chantel",
        "headquarters": "Clichy"
    }
]