[
    {
        "name": "MSC",
        "ceo": "moses",
        "headquarters": "V\u00e9nissieux"
    },
    {
        "name": "Accenture",
        "ceo": "viviana",
        "headquarters": "Lorient"
    },
    {
        "name": "ACE Limited",
        "ceo": "ulick",
        "headquarters": "Aix-en-Provence"
    },
    {
        "name": "Aditya Birla Group",
        "ceo": "lawahiz",
        "headquarters": "Nantes"
    },
    {
        "name": "Adobe Systems",
        "ceo": "alethea",
        "headquarters": "Clermont-Ferrand"
    },
    {
        "name": "Agenus",
        "ceo": "grete",
        "headquarters": "Amiens"
    },
    {
        "name": "Amazon.com",
        "ceo": "ernestine",
        "headquarters": "Courbevoie"
    },
    {
        "name": "AMD",
        "ceo": "rosine",
        "headquarters": "Saint-Denis"
    },
    {
        "name": "American Express",
        "ceo": "preben",
        "headquarters": "Brest"
    },
    {
        "name": "American Airlines Group",
        "ceo": "laurene",
        "headquarters": "Tours"
    },
    {
        "name": "Anthem Inc.",
        "ceo": "elvis",
        "headquarters": "Limoges"
    },
    {
        "name": "Apple Inc.",
        "ceo": "andela",
        "headquarters": "Antibes"
    },
    {
        "name": "Arcelor Mittal",
        "ceo": "robert",
        "headquarters": "Aulnay-sous-Bois"
    },
    {
        "name": "AT&T",
        "ceo": "aapo",
        "headquarters": "Vitry-sur-Seine"
    },
    {
        "name": "BAE Systems",
        "ceo": "sotiris",
        "headquarters": "Montpellier"
    },
    {
        "name": "Bajaj Allianz General Insurance",
        "ceo": "toria",
        "headquarters": "Issy-les-Moulineaux"
    },
    {
        "name": "Banco Bilbao Vizcaya Argentaria",
        "ceo": "khalil",
        "headquarters": "Noisy-le-Grand"
    },
    {
        "name": "Bank of America",
        "ceo": "izabella",
        "headquarters": "Levallois-Perret"
    },
    {
        "name": "Barclays",
        "ceo": "osama",
        "headquarters": "Villeneuve-d'Ascq"
    },
    {
        "name": "Berkshire Hathaway",
        "ceo": "hani",
        "headquarters": "Poitiers"
    },
    {
        "name": "Best Buy",
        "ceo": "erich",
        "headquarters": "Versailles"
    },
    {
        "name": "Bharti Enterprises",
        "ceo": "arisha",
        "headquarters": "Amiens"
    },
    {
        "name": "Blackstone Group",
        "ceo": "carl",
        "headquarters": "Antibes"
    },
    {
        "name": "BHP Billiton",
        "ceo": "sam",
        "headquarters": "Reims"
    },
    {
        "name": "BMW",
        "ceo": "festus",
        "headquarters": "Nancy"
    },
    {
        "name": "BNY Mellon",
        "ceo": "m\u00e5rten",
        "headquarters": "Paris"
    },
    {
        "name": "Boeing",
        "ceo": "boleslawa",
        "headquarters": "Saint-Quentin"
    },
    {
        "name": "Boston Consulting Group",
        "ceo": "omri",
        "headquarters": "Colmar"
    },
    {
        "name": "BP",
        "ceo": "alasdair",
        "headquarters": "Montreuil"
    },
    {
        "name": "Campbell Soup Company",
        "ceo": "macsen",
        "headquarters": "Versailles"
    },
    {
        "name": "Canonical Ltd.",
        "ceo": "cherie",
        "headquarters": "Le Mans"
    },
    {
        "name": "Capgemini",
        "ceo": "paris",
        "headquarters": "Colmar"
    },
    {
        "name": "Capital One Financial",
        "ceo": "nadia (2)",
        "headquarters": "Caen"
    },
    {
        "name": "Caterpillar Inc.",
        "ceo": "elkan",
        "headquarters": "Dunkerque"
    },
    {
        "name": "CBS Corporation",
        "ceo": "abby",
        "headquarters": "Saint-Maur-des-Foss\u00e9s"
    },
    {
        "name": "Cisco Systems",
        "ceo": "salvador",
        "headquarters": "Ajaccio"
    },
    {
        "name": "Citigroup",
        "ceo": "minty",
        "headquarters": "Chamb\u00e9ry"
    },
    {
        "name": "Coca-Cola",
        "ceo": "evdokiya",
        "headquarters": "Saint-Andr\u00e9"
    },
    {
        "name": "Cognizant",
        "ceo": "benedito",
        "headquarters": "Chamb\u00e9ry"
    },
    {
        "name": "Comcast",
        "ceo": "akiko",
        "headquarters": "Marseille"
    },
    {
        "name": "Credit Suisse",
        "ceo": "itziar",
        "headquarters": "Versailles"
    },
    {
        "name": "Crown Worldwide Group",
        "ceo": "libitina",
        "headquarters": "Poitiers"
    },
    {
        "name": "Daimler AG",
        "ceo": "alastr\u00edona",
        "headquarters": "Villeneuve-d'Ascq"
    },
    {
        "name": "Dell",
        "ceo": "elisabeta",
        "headquarters": "N\u00eemes"
    },
    {
        "name": "Deutsche Bank",
        "ceo": "madelyn",
        "headquarters": "Lorient"
    },
    {
        "name": "Deutsche Post",
        "ceo": "mabella",
        "headquarters": "Dijon"
    },
    {
        "name": "Dow Chemical Company",
        "ceo": "octavio",
        "headquarters": "Bordeaux"
    },
    {
        "name": "Dr. Reddy's",
        "ceo": "merita",
        "headquarters": "Orl\u00e9ans"
    },
    {
        "name": "Eastman Kodak",
        "ceo": "natasha",
        "headquarters": "Cherbourg-en-Cotentin"
    },
    {
        "name": "Airbus",
        "ceo": "kerensa",
        "headquarters": "Villeneuve-d'Ascq"
    },
    {
        "name": "eBay",
        "ceo": "spring",
        "headquarters": "Aulnay-sous-Bois"
    },
    {
        "name": "Electronic Arts",
        "ceo": "valary",
        "headquarters": "Colmar"
    },
    {
        "name": "Ericsson",
        "ceo": "gyuri",
        "headquarters": "Saint-Quentin"
    },
    {
        "name": "Exxon Mobil",
        "ceo": "anelie",
        "headquarters": "Rueil-Malmaison"
    },
    {
        "name": "EY",
        "ceo": "theodoric",
        "headquarters": "Antibes"
    },
    {
        "name": "Facebook",
        "ceo": "sabas",
        "headquarters": "Aubervilliers"
    },
    {
        "name": "FedEx",
        "ceo": "eveliina",
        "headquarters": "Caen"
    },
    {
        "name": "Fiat S.p.A.",
        "ceo": "mark\u00e9ta",
        "headquarters": "M\u00e9rignac"
    },
    {
        "name": "Fidelity Investments",
        "ceo": "charmaine",
        "headquarters": "Boulogne-Billancourt"
    },
    {
        "name": "Ford Motor Company",
        "ceo": "cosimo",
        "headquarters": "Angers"
    },
    {
        "name": "Foxconn Electronics Inc",
        "ceo": "marketta",
        "headquarters": "Versailles"
    },
    {
        "name": "FUBU",
        "ceo": "tarmo",
        "headquarters": "Perpignan"
    },
    {
        "name": "General Dynamics",
        "ceo": "maksim",
        "headquarters": "Calais"
    },
    {
        "name": "General Electric",
        "ceo": "earnestine",
        "headquarters": "Limoges"
    },
    {
        "name": "General Motors",
        "ceo": "egbert",
        "headquarters": "Hy\u00e8res"
    },
    {
        "name": "Gerdau",
        "ceo": "scottie",
        "headquarters": "Perpignan"
    },
    {
        "name": "GlaxoSmithKline",
        "ceo": "posie",
        "headquarters": "Boulogne-Billancourt"
    },
    {
        "name": "Goldman Sachs",
        "ceo": "phaedrus",
        "headquarters": "Argenteuil"
    },
    {
        "name": "Google",
        "ceo": "firmin",
        "headquarters": "Lille"
    },
    {
        "name": "GMA Network",
        "ceo": "ramon",
        "headquarters": "Marseille"
    },
    {
        "name": "GVK Group",
        "ceo": "toni (1)",
        "headquarters": "Saint-Quentin"
    },
    {
        "name": "HCL Technologies",
        "ceo": "adolf",
        "headquarters": "Versailles"
    },
    {
        "name": "Henderson Land Development",
        "ceo": "kian",
        "headquarters": "Perpignan"
    },
    {
        "name": "Hewlett Packard Enterprise",
        "ceo": "modeste",
        "headquarters": "Paris"
    },
    {
        "name": "Honeywell",
        "ceo": "rhodri",
        "headquarters": "Bordeaux"
    },
    {
        "name": "HP Hood LLC",
        "ceo": "diamantina",
        "headquarters": "Niort"
    },
    {
        "name": "HSBC",
        "ceo": "esteri",
        "headquarters": "Troyes"
    },
    {
        "name": "IBM",
        "ceo": "isiah",
        "headquarters": "Quimper"
    },
    {
        "name": "Infosys",
        "ceo": "eran",
        "headquarters": "Argenteuil"
    },
    {
        "name": "Intel",
        "ceo": "dirk",
        "headquarters": "Nice"
    },
    {
        "name": "InterCall",
        "ceo": "ewa",
        "headquarters": "Bordeaux"
    },
    {
        "name": "J.Crew",
        "ceo": "kole",
        "headquarters": "Rennes"
    },
    {
        "name": "Jefferies Group",
        "ceo": "juli\u00e1n",
        "headquarters": "Villeneuve-d'Ascq"
    },
    {
        "name": "JP Morgan Chase",
        "ceo": "braxton",
        "headquarters": "Aulnay-sous-Bois"
    },
    {
        "name": "Kaplan, Inc.",
        "ceo": "shama",
        "headquarters": "N\u00eemes"
    },
    {
        "name": "Koch Industries Inc.",
        "ceo": "adamina",
        "headquarters": "Hy\u00e8res"
    },
    {
        "name": "Land Securities",
        "ceo": "melania",
        "headquarters": "Asni\u00e8res-sur-Seine"
    },
    {
        "name": "Las Vegas Sands",
        "ceo": "ail\u00eds",
        "headquarters": "Cergy"
    },
    {
        "name": "L Brands",
        "ceo": "andrija",
        "headquarters": "La Seyne-sur-Mer"
    },
    {
        "name": "Lockheed Martin",
        "ceo": "ceren",
        "headquarters": "Roubaix"
    },
    {
        "name": "Marks and Spencer",
        "ceo": "franci",
        "headquarters": "Niort"
    },
    {
        "name": "McDonald's",
        "ceo": "edgardo",
        "headquarters": "Angers"
    },
    {
        "name": "McKinsey",
        "ceo": "amira",
        "headquarters": "Cherbourg-en-Cotentin"
    },
    {
        "name": "Mesa Air Group",
        "ceo": "cecilija",
        "headquarters": "Le Havre"
    },
    {
        "name": "MetLife",
        "ceo": "albertine",
        "headquarters": "Troyes"
    },
    {
        "name": "MGA Entertainment",
        "ceo": "pascaline",
        "headquarters": "Strasbourg"
    },
    {
        "name": "Microsoft",
        "ceo": "miroslav",
        "headquarters": "Saint-Andr\u00e9"
    },
    {
        "name": "MicroStrategy",
        "ceo": "boniface",
        "headquarters": "Antibes"
    },
    {
        "name": "Morgan Stanley",
        "ceo": "jenci",
        "headquarters": "Rouen"
    }
]