company, employee
"Las Vegas Sands", "lanny Gilbert"
"Apple Inc.", "lyyti Simon"
"BMW", "gualtiero Menard"
"Cognizant", "neriah Guillot"
"GlaxoSmithKline", "irénée Poirier"
"InterCall", "katsu Germain"
"Land Securities", "filibert Charpentier"
"Bajaj Allianz General Insurance", "cyan Roche"
"AMD", "cynthia Lejeune"
"Berkshire Hathaway", "brogan Leblanc"
"Dell", "gloria Schneider"
"Adobe Systems", "zeta Le Goff"
"Daimler AG", "daryl Caron"
"Intel", "caecilia Reynaud"
"Best Buy", "bébinn Tessier"
"Morgan Stanley", "jeunesse Adam"
"Ford Motor Company", "riccarda Vincent"
"Airbus", "karly Deschamps"
"Land Securities", "jamey Leveque"
"BMW", "terrie Denis"
"Ericsson", "reagan Poirier"
"General Electric", "martita Bertin"
"BMW", "gundula David"
"Bharti Enterprises", "ramsey Petit"
"eBay", "bridget Marechal"
"Amazon.com", "lexi Gay"
"Morgan Stanley", "valter Lebrun"
"Dell", "abd-al-malik Leveque"
"MicroStrategy", "ninian Renaud"
"Las Vegas Sands", "giampaolo Reynaud"
"GlaxoSmithKline", "jehiel Bouchet"
"BMW", "aviram Gautier"
"McKinsey", "romolo Noel"
"Crown Worldwide Group", "georgeta Francois"
"BHP Billiton", "radomira Perez"
"GlaxoSmithKline", "brant Bonnet"
"GMA Network", "jarmila Menard"
"McDonald's", "nicodème Lefevre"
"HSBC", "ioannes Bouvier"
"Honeywell", "hyginus Bouchet"
"Facebook", "clara Leger"
"Berkshire Hathaway", "joaquin Le Gall"
"J.Crew", "eustace Le Goff"
"L Brands", "rajya Breton"
"Intel", "hosanna Vasseur"
"General Electric", "breana Langlois"
"Kaplan, Inc.", "landon Roger"
"Hewlett Packard Enterprise", "ruggero Blanchard"
"Boston Consulting Group", "hupprecht Mathieu"
"HSBC", "emánuel Mathieu"
"FedEx", "amrita"
"Adobe Systems", "sjurd"
"Capgemini", "trinidad"
"General Dynamics", "gülbahar"
"IBM", "mykolas"
"Credit Suisse", "bárbara"
"HCL Technologies", "braelyn"
"Mesa Air Group", "vitali"
"BNY Mellon", "colten"
"MSC", "debra"
"Agenus", "angelica"
"AMD", "bertha"
"Bank of America", "yusra"
"Capgemini", "quintella"
"FedEx", "wawrzyniec"
"Land Securities", "leah"
"Infosys", "zev"
"BP", "pernel"
"Kaplan, Inc.", "hedda"
"Las Vegas Sands", "pearl"
"AT&T", "gawahir"
"Microsoft", "feodor"
"GlaxoSmithKline", "viviana"
"EY", "séafra"
"Jefferies Group", "lynnette"
"J.Crew", "sa'ida"
"Citigroup", "heber (1)"
"Las Vegas Sands", "medb"
"Dell", "nikomachos"
"General Electric", "tybalt"
"Las Vegas Sands", "thaddeus"
"BMW", "zachariah"
"Best Buy", "katinka"
"Dr. Reddy's", "bevis"
"HCL Technologies", "jeannette"
"Deutsche Post", "sjurd"
"McDonald's", "chara"
"FedEx", "nessa (1)"
"eBay", "sarra"
"FedEx", "tadeu"
"Kaplan, Inc.", "johnathon"
"Credit Suisse", "emilee"
"Ford Motor Company", "ghaliya"
"American Express", "akoni"
"Barclays", "harinder"
"BP", "chayim"
"Microsoft", "zhen"
"BAE Systems", "fionola"
"Microsoft", "klára"
"Berkshire Hathaway", "dunya"
"eBay", "joão"
"Ford Motor Company", "maija"
"Marks and Spencer", "ava (2)"
"GMA Network", "caleigh"
"Boeing", "darleen"
"Dr. Reddy's", "york"
"Marks and Spencer", "fillin"
"Agenus", "anubis"
"ACE Limited", "rózsi"
"Electronic Arts", "tanzi"
"Boeing", "polyxena"
"Apple Inc.", "shelly"
"Ericsson", "vojtech"
"Honeywell", "becky"
"Henderson Land Development", "alton"
"Ericsson", "cirino"
"GMA Network", "taryn"
"Boeing", "eluned"
"J.Crew", "siarl"
"MSC", "rune"
"Koch Industries Inc.", "chita"
"Bank of America", "leachlainn"
"Goldman Sachs", "braxton"
"Jefferies Group", "kiri"
"General Dynamics", "charlot"
"Comcast", "andré"
"Eastman Kodak", "shui"
"GMA Network", "alexis (1)"
"Google", "erastus"
"American Express", "elisud"
"Anthem Inc.", "cindy"
"IBM", "naji"
"Mesa Air Group", "farley"
"General Electric", "aurangzeb"
"Microsoft", "viveka"
"Accenture", "alia"
"Boeing", "raffaello"
"Exxon Mobil", "mahmud"
"Infosys", "stephania"
"Microsoft", "callum"
"Dow Chemical Company", "gül"
"Comcast", "barra"
"Anthem Inc.", "firdos"
"MGA Entertainment", "bastian"
"ACE Limited", "tierra"
"Morgan Stanley", "into"
"Canonical Ltd.", "kalle"
"Infosys", "mariana"
"Aditya Birla Group", "elain"
"HP Hood LLC", "marian (3) Nicolas"
"Gerdau", "halldór Pelletier"
"Dr. Reddy's", "idonea Weber"
"Berkshire Hathaway", "hedvig Bertin"
"Ford Motor Company", "christabel Lefevre"
"Caterpillar Inc.", "shawn Renard"
"BAE Systems", "hernán Muller"
"HP Hood LLC", "pisti Louis"
"Fiat S.p.A.", "ariston Gay"
"Cisco Systems", "garbhán Martin"
"BP", "alessandra Arnaud"
"Eastman Kodak", "consuela Besson"
"Airbus", "dollie Besson"
"MGA Entertainment", "sylvia Thomas"
"General Motors", "ai (1) Marechal"
"Dell", "bevis Meunier"
"Campbell Soup Company", "piper Bernard"
"HP Hood LLC", "quintin Charles"
"Caterpillar Inc.", "wouter Germain"
"Apple Inc.", "melina Roche"
"Agenus", "mariana Le"
"Berkshire Hathaway", "ladislaus Dumont"
"Credit Suisse", "dick Chevalier"
"InterCall", "tye Delaunay"
"Honeywell", "jonah Rodriguez"
"Henderson Land Development", "corentin Maillard"
"General Dynamics", "usko Lambert"
"American Express", "ilbert Andre"
"Goldman Sachs", "zosimus Roy"
"FUBU", "jörgen Marchal"
"Facebook", "gruffudd Carpentier"
"Credit Suisse", "kohar Lefevre"
"Airbus", "yseult Laporte"
"Mesa Air Group", "danya Duval"
"Aditya Birla Group", "barclay Grondin"
"BAE Systems", "marlen Lopez"
"Facebook", "drusilla Hubert"
"IBM", "milogost Mallet"
"Koch Industries Inc.", "cailin Carlier"
"Bank of America", "baha Jacquet"
"MicroStrategy", "renate Morin"
"Barclays", "kofi Reynaud"
"Aditya Birla Group", "chalchiuhticue Bouchet"
"Bajaj Allianz General Insurance", "rollo Daniel"
"Marks and Spencer", "justus Jacquet"
"Facebook", "ottoline Langlois"
"Capgemini", "palmiro Nicolas"
"Adobe Systems", "zach Giraud"
"InterCall", "roque Gilbert"
"CBS Corporation", "zion Simon"
"Caterpillar Inc.", "ewen"
"Airbus", "carson"
"BAE Systems", "rees"
"Deutsche Bank", "weldon"
"Coca-Cola", "jaye"
"Dr. Reddy's", "stijn"
"Infosys", "sassa"
"J.Crew", "lana"
"BMW", "delora"
"MGA Entertainment", "meiriona"
"GMA Network", "estefanía"
"GMA Network", "harald"
"AMD", "osamu"
"Dell", "yukiko"
"Gerdau", "gertie"
"GVK Group", "manoel"
"Accenture", "victorino"
"Best Buy", "pinchas"
"General Electric", "björn"
"ACE Limited", "boleslawa"
"J.Crew", "caris"
"Caterpillar Inc.", "jelka"
"Daimler AG", "yvain"
"Bank of America", "adrianna"
"Deutsche Bank", "sa'id"
"Arcelor Mittal", "sharma"
"Infosys", "áine"
"HCL Technologies", "hermann"
"Exxon Mobil", "cletus"
"MicroStrategy", "dariea"
"American Express", "tòmas"
"Capital One Financial", "massimiliano"
"Hewlett Packard Enterprise", "orion"
"AT&T", "bijay"
"GlaxoSmithKline", "lizette"
"American Airlines Group", "mårten"
"HP Hood LLC", "eryn"
"Banco Bilbao Vizcaya Argentaria", "lareyna"
"General Dynamics", "vittore"
"Adobe Systems", "orel"
"GlaxoSmithKline", "évariste"
"BP", "olivette"
"Deutsche Bank", "dwight"
"Arcelor Mittal", "temple"
"HCL Technologies", "thyrza"
"Marks and Spencer", "kelley"
"Boston Consulting Group", "eufemia"
"Blackstone Group", "tobias"
"L Brands", "othniel"
"Kaplan, Inc.", "astarte"
"Campbell Soup Company", "joetta"
"Electronic Arts", "bosmat"
"BNY Mellon", "kwabena"
"IBM", "alys"
"Lockheed Martin", "dina"
"MGA Entertainment", "lynette"
"FedEx", "josef"
"Deutsche Bank", "xenia"
"Best Buy", "kort"
"CBS Corporation", "linford"
"McKinsey", "oleg"
"Deutsche Bank", "tatum"
"GVK Group", "sheri"
"BNY Mellon", "sunny"
"Boston Consulting Group", "jean-marie"
"Ford Motor Company", "aubrey"
"Credit Suisse", "orville"
"Banco Bilbao Vizcaya Argentaria", "graça"
"Cisco Systems", "windsor"
"HCL Technologies", "nandag"
"Koch Industries Inc.", "boutros"
"Morgan Stanley", "siôr"
"MSC", "lenora"
"Anthem Inc.", "danny"
"Kaplan, Inc.", "alcippe"
"Crown Worldwide Group", "faye"
"Comcast", "hermes"
"Marks and Spencer", "dorotéia"
"Crown Worldwide Group", "brónach"
"Adobe Systems", "chandrakant"
"Anthem Inc.", "helios"
"Infosys", "fatin"
"Accenture", "dunyasha"
"Coca-Cola", "gazsi"
"BAE Systems", "dwight"
"Bharti Enterprises", "dolph"
"McDonald's", "natalya"
"Cisco Systems", "ervins"
"BNY Mellon", "issachar"
"Gerdau", "cherokee"
"GVK Group", "mairwen"
"Deutsche Bank", "dympna"
"Fiat S.p.A.", "panagiota"
"Apple Inc.", "deo"
"Exxon Mobil", "daniele"
"General Motors", "lora"
"Google", "bernardo"
"Ericsson", "berker"
"Bajaj Allianz General Insurance", "keelin"
"Anthem Inc.", "vilmos Laporte"
"HP Hood LLC", "mirjami Marty"
"Ford Motor Company", "pála Girard"
"Crown Worldwide Group", "evgeni Lopez"
"Blackstone Group", "sorin Besson"
"Coca-Cola", "aleksandro Pasquier"
"Canonical Ltd.", "tipene Moulin"
"InterCall", "catherina Guyot"
"Facebook", "matej Renard"
"Land Securities", "vid Marechal"
"Lockheed Martin", "jowan Francois"
"Citigroup", "annie Klein"
"Adobe Systems", "amar Benoit"
"ACE Limited", "roc Louis"
"Accenture", "leachlainn Collin"
"J.Crew", "ishbel Guillaume"
"CBS Corporation", "eveline Weber"
"American Airlines Group", "jack Adam"
"Kaplan, Inc.", "vere Muller"
"Credit Suisse", "valerian Charpentier"
"Credit Suisse", "fernanda Leroy"
"GVK Group", "jochim Roux"
"JP Morgan Chase", "justy Dupont"
"Citigroup", "prince Pasquier"
"Amazon.com", "wiebke Duval"
"Marks and Spencer", "felipe Marechal"
"Capgemini", "juuso Roux"
"L Brands", "sylviane Gauthier"
"GlaxoSmithKline", "sierra Brunet"
"Bank of America", "desya Pierre"
"Caterpillar Inc.", "lockie Roy"
"HSBC", "sinclair Dupuy"
"AMD", "devin Lemoine"
"Airbus", "kamil (2) Humbert"
"Exxon Mobil", "fajra Remy"
"Cisco Systems", "ane Mallet"
"Honeywell", "odetta Le"
"BP", "lora Martinez"
"Capital One Financial", "haydee Philippe"
"Credit Suisse", "denisa Da Silva"
"Google", "fiorella Rodriguez"
"General Dynamics", "kimberlee Gerard"
"Fiat S.p.A.", "oscar Chevalier"
"Marks and Spencer", "marya Guillot"
"Bajaj Allianz General Insurance", "roderick Michaud"
"EY", "kristal Bouvier"
"Dr. Reddy's", "fravardin Leger"
"Bharti Enterprises", "bjoern Dubois"
"GlaxoSmithKline", "consolata Roux"
"Amazon.com", "raclaw Moulin"
"Campbell Soup Company", "moses"
"Marks and Spencer", "viviana"
"FUBU", "ulick"
"Airbus", "lawahiz"
"Aditya Birla Group", "alethea"
"Canonical Ltd.", "grete"
"Anthem Inc.", "ernestine"
"Comcast", "rosine"
"Arcelor Mittal", "preben"
"BHP Billiton", "laurene"
"Banco Bilbao Vizcaya Argentaria", "elvis"
"FedEx", "andela"
"Accenture", "robert"
"Microsoft", "aapo"
"Dow Chemical Company", "sotiris"
"Goldman Sachs", "toria"
"Ericsson", "khalil"
"Bajaj Allianz General Insurance", "izabella"
"Goldman Sachs", "osama"
"Capgemini", "hani"
"General Electric", "erich"
"Citigroup", "arisha"
"CBS Corporation", "carl"
"Electronic Arts", "sam"
"Facebook", "festus"
"Foxconn Electronics Inc", "mårten"
"Lockheed Martin", "boleslawa"
"AMD", "omri"
"Bharti Enterprises", "alasdair"
"Marks and Spencer", "macsen"
"Goldman Sachs", "cherie"
"Deutsche Post", "paris"
"BNY Mellon", "nadia (2)"
"Capgemini", "elkan"
"Berkshire Hathaway", "abby"
"BP", "salvador"
"Cognizant", "minty"
"Barclays", "evdokiya"
"BHP Billiton", "benedito"
"GVK Group", "akiko"
"Capital One Financial", "itziar"
"GMA Network", "libitina"
"Aditya Birla Group", "alastríona"
"BHP Billiton", "elisabeta"
"Campbell Soup Company", "madelyn"
"McKinsey", "mabella"
"Exxon Mobil", "octavio"
"Marks and Spencer", "merita"
"Best Buy", "natasha"
"Capgemini", "kerensa"
"MicroStrategy", "spring"
"HCL Technologies", "valary"
"Banco Bilbao Vizcaya Argentaria", "gyuri"
"Honeywell", "anelie"
"Las Vegas Sands", "theodoric"
"Bharti Enterprises", "sabas"
"MGA Entertainment", "eveliina"
"Capgemini", "markéta"
"Goldman Sachs", "charmaine"
"Cognizant", "cosimo"
"Marks and Spencer", "marketta"
"MetLife", "tarmo"
"ACE Limited", "maksim"
"McKinsey", "earnestine"
"Fidelity Investments", "egbert"
"BNY Mellon", "scottie"
"AMD", "posie"
"Ericsson", "phaedrus"
"Bharti Enterprises", "firmin"
"Eastman Kodak", "ramon"
"General Motors", "toni (1)"
"Airbus", "adolf"
"Boston Consulting Group", "kian"
"Airbus", "modeste"
"Google", "rhodri"
"Goldman Sachs", "diamantina"
"General Electric", "esteri"
"AT&T", "isiah"
"Banco Bilbao Vizcaya Argentaria", "eran"
"Apple Inc.", "dirk"
"Google", "ewa"
"Accenture", "kole"
"Anthem Inc.", "julián"
"Accenture", "braxton"
"MGA Entertainment", "shama"
"Capgemini", "adamina"
"MGA Entertainment", "melania"
"eBay", "ailís"
"Fiat S.p.A.", "andrija"
"Land Securities", "ceren"
"Cisco Systems", "franci"
"Ericsson", "edgardo"
"Deutsche Bank", "amira"
"Kaplan, Inc.", "cecilija"
"eBay", "albertine"
"Caterpillar Inc.", "pascaline"
"McKinsey", "miroslav"
"American Airlines Group", "boniface"
"MicroStrategy", "jenci"
