company, employee
"Intel", "lanny Gilbert"
"Bharti Enterprises", "lyyti Simon"
"Electronic Arts", "gualtiero Menard"
"Aditya Birla Group", "neriah Guillot"
"Koch Industries Inc.", "irénée Poirier"
"American Airlines Group", "katsu Germain"
"BHP Billiton", "filibert Charpentier"
"Airbus", "cyan Roche"
"Ericsson", "cynthia Lejeune"
"Anthem Inc.", "brogan Leblanc"
"American Airlines Group", "gloria Schneider"
"Land Securities", "zeta Le Goff"
"Henderson Land Development", "daryl Caron"
"Capgemini", "caecilia Reynaud"
"Google", "bébinn Tessier"
"American Express", "jeunesse Adam"
"Boston Consulting Group", "riccarda Vincent"
"Crown Worldwide Group", "karly Deschamps"
"MGA Entertainment", "jamey Leveque"
"Fiat S.p.A.", "terrie Denis"
"HCL Technologies", "reagan Poirier"
"McDonald's", "martita Bertin"
"IBM", "gundula David"
"Arcelor Mittal", "ramsey Petit"
"Morgan Stanley", "bridget Marechal"
"Bharti Enterprises", "lexi Gay"
"Best Buy", "valter Lebrun"
"Morgan Stanley", "abd-al-malik Leveque"
"IBM", "ninian Renaud"
"HP Hood LLC", "giampaolo Reynaud"
"IBM", "jehiel Bouchet"
"Amazon.com", "aviram Gautier"
"FedEx", "romolo Noel"
"Caterpillar Inc.", "georgeta Francois"
"Boston Consulting Group", "radomira Perez"
"Google", "brant Bonnet"
"AMD", "jarmila Menard"
"General Electric", "nicodème Lefevre"
"American Airlines Group", "ioannes Bouvier"
"ACE Limited", "hyginus Bouchet"
"JP Morgan Chase", "clara Leger"
"Amazon.com", "joaquin Le Gall"
"HSBC", "eustace Le Goff"
"BMW", "rajya Breton"
"Bharti Enterprises", "hosanna Vasseur"
"General Electric", "breana Langlois"
"Microsoft", "landon Roger"
"Kaplan, Inc.", "ruggero Blanchard"
"BNY Mellon", "hupprecht Mathieu"
"GlaxoSmithKline", "emánuel Mathieu"
"Coca-Cola", "amrita"
"Hewlett Packard Enterprise", "sjurd"
"MetLife", "trinidad"
"Henderson Land Development", "gülbahar"
"Apple Inc.", "mykolas"
"Berkshire Hathaway", "bárbara"
"Dr. Reddy's", "braelyn"
"GMA Network", "vitali"
"MSC", "colten"
"Intel", "debra"
"Daimler AG", "angelica"
"JP Morgan Chase", "bertha"
"Comcast", "yusra"
"GMA Network", "quintella"
"BP", "wawrzyniec"
"Honeywell", "leah"
"Cognizant", "zev"
"Accenture", "pernel"
"Hewlett Packard Enterprise", "hedda"
"Ericsson", "pearl"
"Deutsche Post", "gawahir"
"American Airlines Group", "feodor"
"Daimler AG", "viviana"
"Cisco Systems", "séafra"
"Morgan Stanley", "lynnette"
"Deutsche Bank", "sa'ida"
"Arcelor Mittal", "heber (1)"
"Cognizant", "medb"
"Henderson Land Development", "nikomachos"
"Berkshire Hathaway", "tybalt"
"Deutsche Post", "thaddeus"
"Adobe Systems", "zachariah"
"McKinsey", "katinka"
"Accenture", "bevis"
"Jefferies Group", "jeannette"
"HSBC", "sjurd"
"Electronic Arts", "chara"
"Accenture", "nessa (1)"
"Facebook", "sarra"
"Campbell Soup Company", "tadeu"
"Facebook", "johnathon"
"Henderson Land Development", "emilee"
"Ford Motor Company", "ghaliya"
"Coca-Cola", "akoni"
"MSC", "harinder"
"Blackstone Group", "chayim"
"L Brands", "zhen"
"Hewlett Packard Enterprise", "fionola"
"Fidelity Investments", "klára"
"Google", "dunya"
"American Express", "joão"
"Jefferies Group", "maija"
"Accenture", "ava (2)"
"Koch Industries Inc.", "caleigh"
"Agenus", "darleen"
"Apple Inc.", "york"
"Banco Bilbao Vizcaya Argentaria", "fillin"
"eBay", "anubis"
"Airbus", "rózsi"
"HSBC", "tanzi"
"Blackstone Group", "polyxena"
"Mesa Air Group", "shelly"
"BP", "vojtech"
"JP Morgan Chase", "becky"
"GVK Group", "alton"
"AT&T", "cirino"
"Aditya Birla Group", "taryn"
"Agenus", "eluned"
"eBay", "siarl"
"Electronic Arts", "rune"
"Citigroup", "chita"
"Bharti Enterprises", "leachlainn"
"Eastman Kodak", "braxton"
"Aditya Birla Group", "kiri"
"Koch Industries Inc.", "charlot"
"Credit Suisse", "andré"
"InterCall", "shui"
"Exxon Mobil", "alexis (1)"
"GlaxoSmithKline", "erastus"
"BNY Mellon", "elisud"
"Gerdau", "cindy"
"Deutsche Post", "naji"
"HSBC", "farley"
"Capgemini", "aurangzeb"
"Land Securities", "viveka"
"Adobe Systems", "alia"
"Exxon Mobil", "raffaello"
"General Electric", "mahmud"
"Gerdau", "stephania"
"InterCall", "callum"
"Amazon.com", "gül"
"BNY Mellon", "barra"
"Dell", "firdos"
"Fidelity Investments", "bastian"
"Mesa Air Group", "tierra"
"BHP Billiton", "into"
"Henderson Land Development", "kalle"
"BNY Mellon", "mariana"
"Boston Consulting Group", "elain"
"Adobe Systems", "marian (3) Nicolas"
"BNY Mellon", "halldór Pelletier"
"Bajaj Allianz General Insurance", "idonea Weber"
"Coca-Cola", "hedvig Bertin"
"Microsoft", "christabel Lefevre"
"Crown Worldwide Group", "shawn Renard"
"Daimler AG", "hernán Muller"
"Mesa Air Group", "pisti Louis"
"Comcast", "ariston Gay"
"Barclays", "garbhán Martin"
"BHP Billiton", "alessandra Arnaud"
"Hewlett Packard Enterprise", "consuela Besson"
"McKinsey", "dollie Besson"
"Exxon Mobil", "sylvia Thomas"
"Cisco Systems", "ai (1) Marechal"
"AMD", "bevis Meunier"
"Eastman Kodak", "piper Bernard"
"BAE Systems", "quintin Charles"
"Microsoft", "wouter Germain"
"Henderson Land Development", "melina Roche"
"General Electric", "mariana Le"
"Best Buy", "ladislaus Dumont"
"Eastman Kodak", "dick Chevalier"
"BP", "tye Delaunay"
"Ericsson", "jonah Rodriguez"
"MicroStrategy", "corentin Maillard"
"Airbus", "usko Lambert"
"Banco Bilbao Vizcaya Argentaria", "ilbert Andre"
"HCL Technologies", "zosimus Roy"
"InterCall", "jörgen Marchal"
"FedEx", "gruffudd Carpentier"
"Intel", "kohar Lefevre"
"L Brands", "yseult Laporte"
"Dow Chemical Company", "danya Duval"
"Agenus", "barclay Grondin"
"Jefferies Group", "marlen Lopez"
"Infosys", "drusilla Hubert"
"Goldman Sachs", "milogost Mallet"
"Campbell Soup Company", "cailin Carlier"
"Boston Consulting Group", "baha Jacquet"
"Gerdau", "renate Morin"
"Electronic Arts", "kofi Reynaud"
"General Dynamics", "chalchiuhticue Bouchet"
"BP", "rollo Daniel"
"Hewlett Packard Enterprise", "justus Jacquet"
"Mesa Air Group", "ottoline Langlois"
"Anthem Inc.", "palmiro Nicolas"
"GMA Network", "zach Giraud"
"BAE Systems", "roque Gilbert"
"Berkshire Hathaway", "zion Simon"
"Bharti Enterprises", "ewen"
"Cognizant", "carson"
"Aditya Birla Group", "rees"
"Credit Suisse", "weldon"
"BAE Systems", "jaye"
"Banco Bilbao Vizcaya Argentaria", "stijn"
"Intel", "sassa"
"J.Crew", "lana"
"Goldman Sachs", "delora"
"Intel", "meiriona"
"BHP Billiton", "estefanía"
"GMA Network", "harald"
"Exxon Mobil", "osamu"
"Capital One Financial", "yukiko"
"Accenture", "gertie"
"MicroStrategy", "manoel"
"Dow Chemical Company", "victorino"
"Bank of America", "pinchas"
"Agenus", "björn"
"Gerdau", "boleslawa"
"Boston Consulting Group", "caris"
"McDonald's", "jelka"
"FedEx", "yvain"
"Koch Industries Inc.", "adrianna"
"Infosys", "sa'id"
"CBS Corporation", "sharma"
"Exxon Mobil", "áine"
"AMD", "hermann"
"Microsoft", "cletus"
"Capgemini", "dariea"
"HP Hood LLC", "tòmas"
"CBS Corporation", "massimiliano"
"BMW", "orion"
"Dell", "bijay"
"Koch Industries Inc.", "lizette"
"AT&T", "mårten"
"L Brands", "eryn"
"CBS Corporation", "lareyna"
"General Dynamics", "vittore"
"Dr. Reddy's", "orel"
"Coca-Cola", "évariste"
"AMD", "olivette"
"Caterpillar Inc.", "dwight"
"Lockheed Martin", "temple"
"AT&T", "thyrza"
"Deutsche Post", "kelley"
"Citigroup", "eufemia"
"BMW", "tobias"
"Dell", "othniel"
"Campbell Soup Company", "astarte"
"Canonical Ltd.", "joetta"
"BNY Mellon", "bosmat"
"BMW", "kwabena"
"Las Vegas Sands", "alys"
"Eastman Kodak", "dina"
"Bajaj Allianz General Insurance", "lynette"
"Google", "josef"
"Capital One Financial", "xenia"
"Koch Industries Inc.", "kort"
"Bharti Enterprises", "linford"
"Deutsche Bank", "oleg"
"eBay", "tatum"
"Aditya Birla Group", "sheri"
"Google", "sunny"
"Koch Industries Inc.", "jean-marie"
"Agenus", "aubrey"
"Google", "orville"
"Facebook", "graça"
"Las Vegas Sands", "windsor"
"BAE Systems", "nandag"
"Capital One Financial", "boutros"
"Marks and Spencer", "siôr"
"BNY Mellon", "lenora"
"Gerdau", "danny"
"Cognizant", "alcippe"
"MetLife", "faye"
"Anthem Inc.", "hermes"
"AT&T", "dorotéia"
"General Motors", "brónach"
"EY", "chandrakant"
"Land Securities", "helios"
"GVK Group", "fatin"
"Deutsche Post", "dunyasha"
"Blackstone Group", "gazsi"
"Barclays", "dwight"
"Bajaj Allianz General Insurance", "dolph"
"Citigroup", "natalya"
"Mesa Air Group", "ervins"
"MetLife", "issachar"
"MicroStrategy", "cherokee"
"Coca-Cola", "mairwen"
"Blackstone Group", "dympna"
"General Dynamics", "panagiota"
"Coca-Cola", "deo"
"Capgemini", "daniele"
"Google", "lora"
"Honeywell", "bernardo"
"L Brands", "berker"
"Canonical Ltd.", "keelin"
"American Airlines Group", "vilmos Laporte"
"FUBU", "mirjami Marty"
"BMW", "pála Girard"
"Deutsche Post", "evgeni Lopez"
"EY", "sorin Besson"
"CBS Corporation", "aleksandro Pasquier"
"Crown Worldwide Group", "tipene Moulin"
"AT&T", "catherina Guyot"
"Bank of America", "matej Renard"
"Ford Motor Company", "vid Marechal"
"InterCall", "jowan Francois"
"Deutsche Bank", "annie Klein"
"General Motors", "amar Benoit"
"Banco Bilbao Vizcaya Argentaria", "roc Louis"
"American Express", "leachlainn Collin"
"Morgan Stanley", "ishbel Guillaume"
"Fidelity Investments", "eveline Weber"
"Electronic Arts", "jack Adam"
"Morgan Stanley", "vere Muller"
"FUBU", "valerian Charpentier"
"Credit Suisse", "fernanda Leroy"
"Infosys", "jochim Roux"
"Comcast", "justy Dupont"
"FUBU", "prince Pasquier"
"Barclays", "wiebke Duval"
"Citigroup", "felipe Marechal"
"Agenus", "juuso Roux"
"Ericsson", "sylviane Gauthier"
"L Brands", "sierra Brunet"
"American Express", "desya Pierre"
"Ford Motor Company", "lockie Roy"
"HP Hood LLC", "sinclair Dupuy"
"Blackstone Group", "devin Lemoine"
"American Express", "kamil (2) Humbert"
"MicroStrategy", "fajra Remy"
"BAE Systems", "ane Mallet"
"eBay", "odetta Le"
"Campbell Soup Company", "lora Martinez"
"Coca-Cola", "haydee Philippe"
"InterCall", "denisa Da Silva"
"AT&T", "fiorella Rodriguez"
"EY", "kimberlee Gerard"
"InterCall", "oscar Chevalier"
"Honeywell", "marya Guillot"
"Coca-Cola", "roderick Michaud"
"GMA Network", "kristal Bouvier"
"Aditya Birla Group", "fravardin Leger"
"Henderson Land Development", "bjoern Dubois"
"Amazon.com", "consolata Roux"
"Electronic Arts", "raclaw Moulin"
"MetLife", "moses"
"Ericsson", "viviana"
"Goldman Sachs", "ulick"
"Dr. Reddy's", "lawahiz"
"Campbell Soup Company", "alethea"
"Capgemini", "grete"
"Best Buy", "ernestine"
"JP Morgan Chase", "rosine"
"JP Morgan Chase", "preben"
"AT&T", "laurene"
"BAE Systems", "elvis"
"Google", "andela"
"IBM", "robert"
"Barclays", "aapo"
"Coca-Cola", "sotiris"
"Deutsche Post", "toria"
"General Dynamics", "khalil"
"Gerdau", "izabella"
"Capgemini", "osama"
"Facebook", "hani"
"Berkshire Hathaway", "erich"
"HSBC", "arisha"
"HSBC", "carl"
"BHP Billiton", "sam"
"Dell", "festus"
"BHP Billiton", "mårten"
"MicroStrategy", "boleslawa"
"Kaplan, Inc.", "omri"
"ACE Limited", "alasdair"
"Daimler AG", "macsen"
"Berkshire Hathaway", "cherie"
"AT&T", "paris"
"Gerdau", "nadia (2)"
"Credit Suisse", "elkan"
"IBM", "abby"
"Capgemini", "salvador"
"AT&T", "minty"
"MetLife", "evdokiya"
"MGA Entertainment", "benedito"
"HCL Technologies", "akiko"
"AT&T", "itziar"
"MetLife", "libitina"
"Las Vegas Sands", "alastríona"
"FUBU", "elisabeta"
"GlaxoSmithKline", "madelyn"
"Infosys", "mabella"
"Lockheed Martin", "octavio"
"General Electric", "merita"
"Citigroup", "natasha"
"Daimler AG", "kerensa"
"Infosys", "spring"
"Apple Inc.", "valary"
"Boeing", "gyuri"
"Agenus", "anelie"
"J.Crew", "theodoric"
"Electronic Arts", "sabas"
"Caterpillar Inc.", "eveliina"
"Gerdau", "markéta"
"Marks and Spencer", "charmaine"
"Dell", "cosimo"
"BP", "marketta"
"HP Hood LLC", "tarmo"
"Dell", "maksim"
"Caterpillar Inc.", "earnestine"
"McKinsey", "egbert"
"MGA Entertainment", "scottie"
"Lockheed Martin", "posie"
"American Express", "phaedrus"
"Fiat S.p.A.", "firmin"
"Banco Bilbao Vizcaya Argentaria", "ramon"
"Adobe Systems", "toni (1)"
"Koch Industries Inc.", "adolf"
"Arcelor Mittal", "kian"
"FedEx", "modeste"
"Marks and Spencer", "rhodri"
"Cisco Systems", "diamantina"
"MicroStrategy", "esteri"
"Daimler AG", "isiah"
"Capital One Financial", "eran"
"FedEx", "dirk"
"ACE Limited", "ewa"
"Dell", "kole"
"Mesa Air Group", "julián"
"Crown Worldwide Group", "braxton"
"J.Crew", "shama"
"Capgemini", "adamina"
"Deutsche Post", "melania"
"Mesa Air Group", "ailís"
"Dow Chemical Company", "andrija"
"Deutsche Post", "ceren"
"McDonald's", "franci"
"Eastman Kodak", "edgardo"
"BNY Mellon", "amira"
"ACE Limited", "cecilija"
"eBay", "albertine"
"InterCall", "pascaline"
"Honeywell", "miroslav"
"Google", "boniface"
"Comcast", "jenci"
"Electronic Arts", "lala Rey"
"IBM", "shprintza Morel"
"ACE Limited", "ottaviano Delaunay"
"GMA Network", "tamra Le Gall"
"Bajaj Allianz General Insurance", "griffin Guillaume"
"Credit Suisse", "clarice Perrin"
"Aditya Birla Group", "bertrando Clement"
"Facebook", "lacey Le"
"Barclays", "ptolema Rey"
"Apple Inc.", "florry Martin"
"Banco Bilbao Vizcaya Argentaria", "pacey Barthelemy"
"Amazon.com", "eckhard Vincent"
"Kaplan, Inc.", "zia Thomas"
"HCL Technologies", "lijsbeth Dupuy"
"Coca-Cola", "taryn Hoarau"
"BNY Mellon", "gale Blanc"
"Microsoft", "ralphina Bertin"
"JP Morgan Chase", "euthalia Riviere"
"Dow Chemical Company", "rodolf Louis"
"Capgemini", "sally Langlois"
"Henderson Land Development", "jolanda Colin"
"Anthem Inc.", "carwyn Picard"
"MicroStrategy", "rahim Caron"
"BP", "fadila Reynaud"
"Koch Industries Inc.", "blythe Thomas"
"Facebook", "baqir Barre"
"Credit Suisse", "alfred Schmitt"
"Jefferies Group", "octavius Leclerc"
"J.Crew", "om Grondin"
"Lockheed Martin", "kojo Aubert"
"InterCall", "vangelis Guerin"
"Citigroup", "tayler Renaud"
"ACE Limited", "halcyone Le Goff"
"American Express", "earle Robert"
"Fidelity Investments", "rozanne Lefebvre"
"Cisco Systems", "elea Pierre"
"InterCall", "ailill Faure"
"Eastman Kodak", "orpha Cousin"
"Boston Consulting Group", "paule Besson"
"Best Buy", "donalda Boucher"
"McKinsey", "roger Vincent"
"Fiat S.p.A.", "raschelle Chauvin"
"Accenture", "lockie Aubry"
"Best Buy", "phemie Dumont"
"MSC", "fermin Riviere"
"Bharti Enterprises", "lyudmila Besson"
"Hewlett Packard Enterprise", "leanna Pierre"
"Las Vegas Sands", "zaid Lejeune"
"Amazon.com", "lileas Leblanc"
"Apple Inc.", "raakel Vidal"
"Dr. Reddy's", "zahira"
"Morgan Stanley", "alonso"
"Amazon.com", "franciscus"
"Koch Industries Inc.", "mabelle"
"BP", "disgleirio"
"BP", "marcos"
"General Electric", "bertók"
"Capital One Financial", "deiniol"
"Comcast", "guto"
"Henderson Land Development", "zahir"
"Dr. Reddy's", "bibiana"
"MetLife", "mercia"
"JP Morgan Chase", "gabriele (2)"
"Google", "nadia (2)"
"Credit Suisse", "kylee"
"JP Morgan Chase", "timon"
"Morgan Stanley", "reena"
"Lockheed Martin", "maeva"
"General Electric", "ruta"
"Infosys", "hardy"
"General Motors", "jónatan"
"Amazon.com", "aki"
"Capgemini", "bartlomiej"
"Banco Bilbao Vizcaya Argentaria", "abbie"
"MetLife", "havel"
"Boston Consulting Group", "kallistrate"
"Campbell Soup Company", "juanito"
"Arcelor Mittal", "shannah"
"Bank of America", "blazej"
"AT&T", "sylvana"
"Agenus", "eveleen"
"HSBC", "valeriu"
"HCL Technologies", "daedalus"
"Apple Inc.", "charnette"
"HP Hood LLC", "barbro"
"McKinsey", "ollie"
"Infosys", "anatole"
"Facebook", "dawid"
"Fidelity Investments", "siena"
"JP Morgan Chase", "noelani"
"Fiat S.p.A.", "cuthbert"
"eBay", "ottoline"
"Accenture", "joos"
"MetLife", "kat"
"Infosys", "thutmose"
"MicroStrategy", "earnest"
"J.Crew", "gianfranco"
"Goldman Sachs", "comhghall"
"InterCall", "merfyn"
"Credit Suisse", "cara"
"Marks and Spencer", "darlene"
"GlaxoSmithKline", "kalyn"
"Boeing", "lawrie"
"Banco Bilbao Vizcaya Argentaria", "ah"
"Infosys", "elyse"
"Cognizant", "nessa (1)"
"GVK Group", "sieglinde"
"Coca-Cola", "rodrigo"
"Land Securities", "maud"
"Electronic Arts", "nell"
"HSBC", "venkat"
"GlaxoSmithKline", "cokkie"
"Microsoft", "bryce"
"Amazon.com", "floella"
"Fidelity Investments", "gore"
"Hewlett Packard Enterprise", "kwasi"
"Henderson Land Development", "hades"
"Capgemini", "brett"
"eBay", "evthalia"
"Caterpillar Inc.", "hendrik"
"HCL Technologies", "avila"
"Kaplan, Inc.", "daffodil"
"Comcast", "wasim"
"MetLife", "bláthnaid"
"Bajaj Allianz General Insurance", "donaldina"
"Credit Suisse", "rama"
"Hewlett Packard Enterprise", "kenji"
"Marks and Spencer", "ashling"
"Capital One Financial", "lewella"
"Lockheed Martin", "tanesha"
"Gerdau", "pauliina"
"CBS Corporation", "honorata"
"Fiat S.p.A.", "basilio"
"Fiat S.p.A.", "bastian"
"AT&T", "eibhlín"
"HP Hood LLC", "tuyet"
"Comcast", "maitland"
"Crown Worldwide Group", "kassandra"
"L Brands", "isolda"
"American Airlines Group", "hayder"
"McDonald's", "dinah"
"Facebook", "margot"
"Dell", "jørgen"
"MGA Entertainment", "riley"
"MSC", "miroslava"
"AT&T", "manu"
"McDonald's", "leeann"
"Daimler AG", "heulwen"
"HP Hood LLC", "charissa"
"AT&T", "rubye Charpentier"
"HCL Technologies", "prosper Aubert"
"BNY Mellon", "azucena Marechal"
"Hewlett Packard Enterprise", "glyn Pierre"
"Land Securities", "emmett Chevallier"
"Koch Industries Inc.", "faizel Germain"
"MSC", "zvi Fleury"
"ACE Limited", "inka Michaud"
"ACE Limited", "célestin Lucas"
"Comcast", "zaira Garnier"
"MGA Entertainment", "sanna Chevallier"
"Ford Motor Company", "gratian Roux"
"BAE Systems", "debbie Schneider"
"GlaxoSmithKline", "dido Simon"
"Koch Industries Inc.", "cassandra Faure"
"ACE Limited", "darya Dubois"
"General Electric", "zeta Noel"
"MetLife", "cerberus Michel"
"Canonical Ltd.", "gergely Perrier"
"Cisco Systems", "gwilim Richard"
"Gerdau", "gösta Pichon"
"Cognizant", "luella Baron"
"Caterpillar Inc.", "jacobo Aubry"
"BNY Mellon", "dolph Lacroix"
"MGA Entertainment", "yale Jean"
"Electronic Arts", "hamza Sanchez"
"IBM", "lawrie Breton"
"Fiat S.p.A.", "viktória Fontaine"
"FUBU", "raheem Fernandez"
"Comcast", "lesleigh Roche"
"Daimler AG", "tiara Bourgeois"
"Accenture", "orlagh Marie"
"MicroStrategy", "jennifer Le"
"Hewlett Packard Enterprise", "stanley Simon"
"IBM", "redd Prevost"
"HSBC", "eren Fleury"
"Coca-Cola", "elisabeth Lacroix"
"AT&T", "tryggve Roux"
"Dell", "darrell Brun"
"L Brands", "alaba Vidal"
"Apple Inc.", "eallair Berger"
"Berkshire Hathaway", "enrique Gauthier"
"Airbus", "chet Perrier"
"Fidelity Investments", "morgane Leroux"
"Caterpillar Inc.", "lovel Guillaume"
"Deutsche Bank", "patience Bouvier"
"Cisco Systems", "adena Olivier"
"Intel", "arkell Grondin"
"Las Vegas Sands", "wasim Garcia"
"MGA Entertainment", "avalon Caron"
"Morgan Stanley", "terah"
"BP", "knute"
"Marks and Spencer", "secundus"
"BHP Billiton", "perseus"
"GVK Group", "shulamit"
"Fidelity Investments", "traherne"
"Ford Motor Company", "fionn"
"Caterpillar Inc.", "salamon"
"Foxconn Electronics Inc", "ambrogino"
"Arcelor Mittal", "pankraz"
"Anthem Inc.", "paule"
"Las Vegas Sands", "nephele"
"Blackstone Group", "onora"
"GVK Group", "hiba"
"Amazon.com", "jamsheed"
"Capital One Financial", "almudena"
"Dow Chemical Company", "miranda"
"Daimler AG", "pratap"
"Dow Chemical Company", "fidelma"
"AMD", "thomasina"
"Airbus", "demon"
"Koch Industries Inc.", "warren"
"Dell", "catina"
"Blackstone Group", "kaylynn"
"Citigroup", "jaqueline"
"Foxconn Electronics Inc", "dassah"
"Agenus", "arline"
"GMA Network", "kristy"
"General Motors", "yan"
"Cognizant", "gazbiyya"
"Credit Suisse", "randy"
"CBS Corporation", "savio"
"MicroStrategy", "ciannait"
"Intel", "collin"
"InterCall", "mererid"
"Credit Suisse", "alannah"
"American Airlines Group", "anwar"
"Deutsche Bank", "liana"
"ACE Limited", "lake"
"Fiat S.p.A.", "bolek"
"Intel", "polly"
"Blackstone Group", "ole"
"Deutsche Post", "tamra"
"Infosys", "donato"
"Coca-Cola", "vashti"
"L Brands", "cande"
"Caterpillar Inc.", "ingemar"
"General Dynamics", "elkan"
"MSC", "ferapont"
"Fiat S.p.A.", "guiomar"
"Best Buy", "della"
"Capgemini", "katherine"
"Deutsche Bank", "hilaire"
"Campbell Soup Company", "marinus"
"BAE Systems", "labhrainn"
"Jefferies Group", "rike"
"Amazon.com", "govad"
"Eastman Kodak", "pauleen"
"FedEx", "lachtna"
"Eastman Kodak", "dezsõ"
"Jefferies Group", "antonello"
"HSBC", "ambrosine"
"Adobe Systems", "pauline"
"Crown Worldwide Group", "abhay"
"Aditya Birla Group", "sudarshana"
"Land Securities", "kari (2)"
"Accenture", "leigh"
"Fidelity Investments", "jing"
"Capital One Financial", "russell"
"Boston Consulting Group", "sayyid"
"Lockheed Martin", "vina"
"Blackstone Group", "kendra"
"Ford Motor Company", "absolon"
"AT&T", "taranis"
"Lockheed Martin", "ashleigh"
"Morgan Stanley", "liborio"
"MetLife", "eirwen"
"Electronic Arts", "keith"
"HCL Technologies", "doretta"
"AMD", "aoife"
"Caterpillar Inc.", "giustino"
"AT&T", "antonino"
"Bank of America", "urbana"
"AMD", "javaid"
"Accenture", "yvonne"
"Capital One Financial", "hilaire"
"EY", "kirstin"
"Goldman Sachs", "sohail"
"Kaplan, Inc.", "hussain"
"Honeywell", "fredrik"
"Citigroup", "noémie"
"American Express", "sherri"
"Daimler AG", "guy"
"FUBU", "orinthia"
"Honeywell", "iréné"
"Dell", "rebekah"
"Caterpillar Inc.", "nadja"
"Daimler AG", "hannes"
"Campbell Soup Company", "chantel"
