company, employee
"EF Ltd.", "Bob Davis"
"Dell", "James E. Thompson"
"Capital One Financial", "Gilles Menard"
"HSBC", "Mark Shuttleworth"
"Koch Industries Inc.", "Éric Tessier"
"Accenture", "John Cryan"
"Las Vegas Sands", "Jean-Claude Bertin"
"Henderson Land Development", "Benjamin Germain"
"Comcast", "Christian Gautier"
"Airbus", "Steve Easterbrook"
"Berkshire Hathaway", "Mary T. Barra"
"L Brands", "Franck Vasseur"
"Fidelity Investments", "Kumar Birla"
"Daimler AG", "Hubert Joly"
"GMA Network", "Tim Cook"
"Bank of America", "C Vijayakumar"
"MicroStrategy", "Daymond John"
"Deutsche Post", "Véronique Marechal"
"Land Securities", "Meg Whitman"
"HP Hood LLC", "Steve Easterbrook"
"McDonald's", "Jim Umpleby"
"Airbus", "Brian Krzanich"
"JP Morgan Chase", "Brigitte Roche"
"MSC", "Hubert Joly"
"Lockheed Martin", "Tom Enders"
"Best Buy", "Charles G. Koch"
"BP", "Daymond John"
"Eastman Kodak", "Christiane Adam"
"Exxon Mobil", "Mélanie Roger"
"Electronic Arts", "Kenneth Chenault"
"Exxon Mobil", "Mélanie Roger"
"Bharti Enterprises", "Tim Cook"
"American Express", "Christiane Adam"
"Lockheed Martin", "Emma Walmsley"
"Fiat S.p.A.", "Tidjane Thiam"
"General Dynamics", "Gilles Menard"
"IBM", "Franck Vasseur"
"Adobe Systems", "Rafaela Aponte"
"Crown Worldwide Group", "Jean Leveque"
"Ford Motor Company", "Brian Krzanich"
"Exxon Mobil", "Lakshmi Niwas Mittal"
"GVK Group", "Jeff Clarke"
"McKinsey", "Sunil Bharti Mittal"
"Accenture", "Jim Umpleby"
"Land Securities", "Mathilde Guillot"
"Credit Suisse", "Brigitte Roche"
"Boston Consulting Group", "Rafaela Aponte"
"McDonald's", "Kumar Birla"
"Land Securities", "Rafaela Aponte"
"Infosys", "Gilles Menard"
