{
    "http://dbpedia.org/ontology/Person": "CATEGORY_PERSON",
    "schema:Person": "CATEGORY_PERSON",
    "http://dbpedia.org/ontology/Place": "CATEGORY_LOCATION",
    "schema:Place": "CATEGORY_LOCATION",
    "http://dbpedia.org/ontology/Organisation": "CATEGORY_ORGANIZATION",
    "schema:Organization": "CATEGORY_ORGANIZATION",
    "https://dbpedia.org/ontology/Product": "CATEGORY_PRODUCT",
    "schema:Product": "CATEGORY_PRODUCT",
    "https://dbpedia.org/ontology/Work": "CATEGORY_CREATIVEWORK",
    "schema:CreativeWork": "CATEGORY_CREATIVEWORK",
    "https://dbpedia.org/ontology/Event": "CATEGORY_EVENT",
    "schema:Event": "CATEGORY_EVENT",
    "http://www.w3.org/2001/XMLSchema#date": "DATE",
    "http://www.w3.org/2001/XMLSchema#gYear": "DATE",
    "schema:Date": "DATE",
    "schema:DateTime": "DATE"
}