[
{"codePostal":"01190","codeCommune":"01050","libelleAcheminement":"BOISSEY","codeVoie":"B046","nomCommune":"Boissey"},
{"codePostal":"01190","codeCommune":"01050","libelleAcheminement":"BOISSEY","codeVoie":"B047","nomCommune":"Boissey"},
{"codePostal":"01190","codeCommune":"01050","libelleAcheminement":"BOISSEY","codeVoie":"B048","nomCommune":"Boissey"},
{"codePostal":"01190","codeCommune":"01050","libelleAcheminement":"BOISSEY","codeVoie":"B049","nomCommune":"Boissey"},
{"codePostal":"01190","codeCommune":"01050","libelleAcheminement":"BOISSEY","codeVoie":"B050","nomCommune":"Boissey"},
{"codePostal":"01190","codeCommune":"01050","libelleAcheminement":"BOISSEY","codeVoie":"B051","nomCommune":"Boissey"},
{"codePostal":"01190","codeCommune":"01050","libelleAcheminement":"BOISSEY","codeVoie":"B052","nomCommune":"Boissey"},
{"codePostal":"01190","codeCommune":"01050","libelleAcheminement":"BOISSEY","codeVoie":"B053","nomCommune":"Boissey"},
{"codePostal":"01190","codeCommune":"01050","libelleAcheminement":"BOISSEY","codeVoie":"B054","nomCommune":"Boissey"}
]
