{
	"title": "En Syrie, un raid mais pas la guerre",
	"auteur": "Jean Paul Sartre",
	"chapeau": "Emmanuel Macron a justifié les frappes menées en Syrie en se félicitant de leur succès, notamment dans le rapport de forces avec la Russie. Désormais, place à la diplomatie avec Edouard Philippe..."
}