{
    "contributors": null,
    "coordinates": null,
    "created_at": "Fri May 05 13:50:40 +0000 2017",
    "entities": {
        "hashtags": [
            {
                "indices": [
                    27,
                    33
                ],
                "text": "Reims"
            }
        ],
        "media": [
            {
                "display_url": "pic.twitter.com/YlWbjBQhuA",
                "expanded_url": "https://twitter.com/f_philippot/status/860491942643290112/photo/1",
                "id": 860491935601094656,
                "id_str": "860491935601094656",
                "indices": [
                    34,
                    57
                ],
                "media_url": "http://pbs.twimg.com/media/C_EU2zmXcAAhOyX.jpg",
                "media_url_https": "https://pbs.twimg.com/media/C_EU2zmXcAAhOyX.jpg",
                "sizes": {
                    "large": {
                        "h": 1088,
                        "resize": "fit",
                        "w": 616
                    },
                    "medium": {
                        "h": 1088,
                        "resize": "fit",
                        "w": 616
                    },
                    "small": {
                        "h": 680,
                        "resize": "fit",
                        "w": 385
                    },
                    "thumb": {
                        "h": 150,
                        "resize": "crop",
                        "w": 150
                    }
                },
                "type": "photo",
                "url": "https://t.co/YlWbjBQhuA"
            }
        ],
        "symbols": [],
        "urls": [],
        "user_mentions": []
    },
    "extended_entities": {
        "media": [
            {
                "display_url": "pic.twitter.com/YlWbjBQhuA",
                "expanded_url": "https://twitter.com/f_philippot/status/860491942643290112/photo/1",
                "id": 860491935601094656,
                "id_str": "860491935601094656",
                "indices": [
                    34,
                    57
                ],
                "media_url": "http://pbs.twimg.com/media/C_EU2zmXcAAhOyX.jpg",
                "media_url_https": "https://pbs.twimg.com/media/C_EU2zmXcAAhOyX.jpg",
                "sizes": {
                    "large": {
                        "h": 1088,
                        "resize": "fit",
                        "w": 616
                    },
                    "medium": {
                        "h": 1088,
                        "resize": "fit",
                        "w": 616
                    },
                    "small": {
                        "h": 680,
                        "resize": "fit",
                        "w": 385
                    },
                    "thumb": {
                        "h": 150,
                        "resize": "crop",
                        "w": 150
                    }
                },
                "type": "photo",
                "url": "https://t.co/YlWbjBQhuA"
            }
        ]
    },
    "favorite_count": 1650,
    "favorited": false,
    "geo": null,
    "id": 860491942643290112,
    "id_str": "860491942643290112",
    "in_reply_to_screen_name": null,
    "in_reply_to_status_id": null,
    "in_reply_to_status_id_str": null,
    "in_reply_to_user_id": null,
    "in_reply_to_user_id_str": null,
    "is_quote_status": false,
    "lang": "fr",
    "place": null,
    "possibly_sensitive": false,
    "retweet_count": 2834,
    "retweeted": false,
    "source": "<a href=\"http://twitter.com/download/iphone\" rel=\"nofollow\">Twitter for iPhone</a>",
    "text": "Une explication M.Macron ? #Reims https://t.co/YlWbjBQhuA",
    "truncated": false,
    "user": {
        "contributors_enabled": false,
        "created_at": "Mon Jan 23 22:42:25 +0000 2012",
        "default_profile": true,
        "default_profile_image": false,
        "description": "Pr\u00e9sident de la formation @_LesPatriotes d\u00e9fendant #LeMeilleurPourLaFrance. Repr\u00e9sentant \ud83c\uddeb\ud83c\uddf7 au parlement europ\u00e9en. Conseiller r\u00e9gional Grand Est. #Gaulliste",
        "entities": {
            "description": {
                "urls": []
            },
            "url": {
                "urls": [
                    {
                        "display_url": "facebook.com/pages/Florian-\u2026",
                        "expanded_url": "https://www.facebook.com/pages/Florian-Philippot/185368328214055",
                        "indices": [
                            0,
                            23
                        ],
                        "url": "https://t.co/laph7X2Zuz"
                    }
                ]
            }
        },
        "favourites_count": 17358,
        "follow_request_sent": false,
        "followers_count": 176369,
        "following": false,
        "friends_count": 740,
        "geo_enabled": true,
        "has_extended_profile": true,
        "id": 472412809,
        "id_str": "472412809",
        "is_translation_enabled": false,
        "is_translator": false,
        "lang": "fr",
        "listed_count": 1212,
        "location": "",
        "name": "Florian Philippot",
        "notifications": false,
        "profile_background_color": "C0DEED",
        "profile_background_image_url": "http://abs.twimg.com/images/themes/theme1/bg.png",
        "profile_background_image_url_https": "https://abs.twimg.com/images/themes/theme1/bg.png",
        "profile_background_tile": false,
        "profile_banner_url": "https://pbs.twimg.com/profile_banners/472412809/1519062635",
        "profile_image_url": "http://pbs.twimg.com/profile_images/930164557007421441/KnHAXatp_normal.jpg",
        "profile_image_url_https": "https://pbs.twimg.com/profile_images/930164557007421441/KnHAXatp_normal.jpg",
        "profile_link_color": "1DA1F2",
        "profile_sidebar_border_color": "C0DEED",
        "profile_sidebar_fill_color": "DDEEF6",
        "profile_text_color": "333333",
        "profile_use_background_image": true,
        "protected": false,
        "screen_name": "f_philippot",
        "statuses_count": 10730,
        "time_zone": "Ljubljana",
        "translator_type": "none",
        "url": "https://t.co/laph7X2Zuz",
        "utc_offset": 3600,
        "verified": true
    }
}