{
	"quoted_status": {
		"in_reply_to_status_id_str": null,
		"in_reply_to_status_id": null,
		"possibly_sensitive": false,
		"coordinates": null,
		"created_at": "Sat Jun 30 22:42:34 +0000 2018",
		"truncated": false,
		"in_reply_to_user_id_str": null,
		"source": "<a href=\"http://www.facebook.com/twitter\" rel=\"nofollow\">Facebook<\/a>",
		"retweet_count": 0,
		"retweeted": false,
		"geo": null,
		"in_reply_to_screen_name": null,
		"is_quote_status": false,
		"entities": {
			"urls": {
				"display_url": "facebook.com/csp78955/video\u2026",
				"indices": [
					53,
					76
				],
				"expanded_url": "https://www.facebook.com/csp78955/videos/1973813845984685/",
				"url": "https://t.co/PeGOXPNIAr"
			},
			"hashtags": [],
			"user_mentions": [],
			"symbols": []
		},
		"id_str": "1013191088671285248",
		"in_reply_to_user_id": null,
		"favorite_count": 1,
		"id": 1013191088671285248,
		"text": "[La Fête du Parc du Peuple de l'Herbe se poursuit !] https://t.co/PeGOXPNIAr",
		"place": null,
		"contributors": null,
		"lang": "fr",
		"user": {
			"utc_offset": null,
			"friends_count": 417,
			"profile_image_url_https": "https://pbs.twimg.com/profile_images/514714473290924032/dKrrCjhe_normal.jpeg",
			"listed_count": 38,
			"profile_background_image_url": "http://abs.twimg.com/images/themes/theme1/bg.png",
			"default_profile_image": false,
			"favourites_count": 35,
			"description": "Compte officiel de la Ville de Carrières-sous-Poissy\r\n.",
			"created_at": "Fri Sep 21 10:20:20 +0000 2012",
			"is_translator": false,
			"profile_background_image_url_https": "https://abs.twimg.com/images/themes/theme1/bg.png",
			"protected": false,
			"screen_name": "ville_carrieres",
			"id_str": "837477625",
			"profile_link_color": "1DA1F2",
			"is_translation_enabled": false,
			"translator_type": "none",
			"id": 837477625,
			"geo_enabled": false,
			"profile_background_color": "C0DEED",
			"lang": "fr",
			"has_extended_profile": false,
			"profile_sidebar_border_color": "C0DEED",
			"profile_text_color": "333333",
			"verified": false,
			"profile_image_url": "http://pbs.twimg.com/profile_images/514714473290924032/dKrrCjhe_normal.jpeg",
			"time_zone": null,
			"url": "http://t.co/GT9delKtSp",
			"contributors_enabled": false,
			"profile_background_tile": false,
			"profile_banner_url": "https://pbs.twimg.com/profile_banners/837477625/1489069779",
			"entities": {
				"description": {
					"urls": []
				},
				"url": {
					"urls": {
						"display_url": "carrieres-sous-poissy.fr",
						"indices": [
							0,
							22
						],
						"expanded_url": "http://www.carrieres-sous-poissy.fr",
						"url": "http://t.co/GT9delKtSp"
					}
				}
			},
			"statuses_count": 2076,
			"follow_request_sent": false,
			"followers_count": 1338,
			"profile_use_background_image": true,
			"default_profile": true,
			"following": false,
			"name": "Ville de Carrières",
			"location": "Carrières-sous-Poissy",
			"profile_sidebar_fill_color": "DDEEF6",
			"notifications": false
		},
		"favorited": false
	},
	"in_reply_to_status_id_str": null,
	"in_reply_to_status_id": null,
	"created_at": "Sun Jul 01 05:15:29 +0000 2018",
	"in_reply_to_user_id_str": null,
	"source": "<a href=\"http://twitter.com/download/iphone\" rel=\"nofollow\">Twitter for iPhone<\/a>",
	"quoted_status_id": 1013191088671285248,
	"retweet_count": 0,
	"retweeted": false,
	"geo": null,
	"in_reply_to_screen_name": null,
	"is_quote_status": true,
	"id_str": "1013289969300004864",
	"in_reply_to_user_id": null,
	"favorite_count": 1,
	"id": 1013289969300004864,
	"text": "Un très beau feu d'artifice hier soir sur le @ParcPeupleHerbe et une fête musicale extraordinaire ! 👏\n👍 Merci à la\u2026 https://t.co/QaltBNHQEw",
	"place": null,
	"lang": "fr",
	"favorited": false,
	"possibly_sensitive": false,
	"coordinates": null,
	"truncated": true,
	"entities": {
		"urls": {
			"display_url": "twitter.com/i/web/status/1\u2026",
			"indices": [
				116,
				139
			],
			"expanded_url": "https://twitter.com/i/web/status/1013289969300004864",
			"url": "https://t.co/QaltBNHQEw"
		},
		"hashtags": [],
		"user_mentions": {
			"indices": [
				45,
				61
			],
			"screen_name": "ParcPeupleHerbe",
			"id_str": "857318710637363200",
			"name": "ParcPeupleDeL'Herbe",
			"id": 857318710637363200
		},
		"symbols": []
	},
	"quoted_status_id_str": "1013191088671285248",
	"contributors": null,
	"user": {
		"utc_offset": null,
		"friends_count": 4493,
		"profile_image_url_https": "https://pbs.twimg.com/profile_images/991707304058867712/zFmlyyCe_normal.jpg",
		"listed_count": 158,
		"profile_background_image_url": "http://abs.twimg.com/images/themes/theme17/bg.gif",
		"default_profile_image": false,
		"favourites_count": 9624,
		"description": "Président du @RCDEC_IDF et des @EluspourFranco \u2022 #Japonophile \u2022 Maire @ville_carrieres 2008-2014 \u2022 Conseiller spécial et #DirCab adj d'@AnnickGirardin 2016-2017",
		"created_at": "Sun Apr 18 12:22:22 +0000 2010",
		"is_translator": false,
		"profile_background_image_url_https": "https://abs.twimg.com/images/themes/theme17/bg.gif",
		"protected": false,
		"screen_name": "eddieait_of",
		"id_str": "134439661",
		"profile_link_color": "338FCC",
		"is_translation_enabled": false,
		"translator_type": "none",
		"id": 134439661,
		"geo_enabled": true,
		"profile_background_color": "DBE9ED",
		"lang": "fr",
		"has_extended_profile": true,
		"profile_sidebar_border_color": "DBE9ED",
		"profile_text_color": "333333",
		"verified": false,
		"profile_image_url": "http://pbs.twimg.com/profile_images/991707304058867712/zFmlyyCe_normal.jpg",
		"time_zone": null,
		"url": "https://t.co/TmMj5ETCYn",
		"contributors_enabled": false,
		"profile_background_tile": false,
		"profile_banner_url": "https://pbs.twimg.com/profile_banners/134439661/1522606913",
		"entities": {
			"description": {
				"urls": []
			},
			"url": {
				"urls": {
					"display_url": "eddieait.net",
					"indices": [
						0,
						23
					],
					"expanded_url": "http://www.eddieait.net",
					"url": "https://t.co/TmMj5ETCYn"
				}
			}
		},
		"statuses_count": 11725,
		"follow_request_sent": false,
		"followers_count": 3408,
		"profile_use_background_image": true,
		"default_profile": false,
		"following": false,
		"name": "Eddie Aït",
		"location": "Carrières-sous-Poissy - Paris",
		"profile_sidebar_fill_color": "E6F6F9",
		"notifications": false
	}
}