Total time: 330 ms.
Experiment could not complete.
Cause: java.io.FileNotFoundException: /Users/jleblay/Workspace/tmp/kwd_search_het_code/data/generated-deputes_politicians-query.txt (No such file or directory)
