id;nom;nom_de_famille;prenom;sexe;date_naissance;lieu_naissance;num_deptmt;nom_circo;num_circo;mandat_debut;mandat_fin;ancien_depute;groupe_sigle;parti_ratt_financier;sites_web;emails;adresses;collaborateurs;autres_mandats;anciens_autres_mandats;anciens_mandats;profession;place_en_hemicycle;url_an;id_an;slug;url_nosdeputes;url_nosdeputes_api;nb_mandats;twitter
255;François Ruffin;Ruffin;François;H;1975-10-18;Calais (Pas-de-Calais);80;Somme;1;2017-06-21;;0;LFI;La France Insoumise;https://twitter.com/Francois_Ruffin|http://www.francoisruffin.fr|https://fr-fr.facebook.com/FrancoisRuffin80/;francois.ruffin@assemblee-nationale.fr|contact@picardiedebout.fr;Assemblée nationale, 126 Rue de l'Université, 75355 Paris 07 SP;M. Joseph D'Halluin|Mme Brigitte Venet|M. Angelo Tonolli|Mme Julie Briand|M. Sylvain Laporte;;;21/06/2017 /  / ;Reporter;627;http://www2.assemblee-nationale.fr/deputes/fiche/OMC_PA722142;722142;francois-ruffin;https://www.nosdeputes.fr/francois-ruffin;https://www.nosdeputes.fr/francois-ruffin/csv;1;Francois_Ruffin
576;Richard Ferrand;Ferrand;Richard;H;1962-07-01;Rodez (Aveyron);29;Finistère;6;2017-06-21;;0;LREM;La République en Marche;http://www.richardferrand.fr|https://twitter.com/RichardFerrand;infos@richardferrand.fr|richard.ferrand@assemblee-nationale.fr;Assemblée nationale 126 Rue de l'Université 75355 Paris 07 SP|Permanence parlementaire 2 Rue Baltzer 29150 Châteaulin;Mme Soizic Kerbrat|Mme Leïla Delefortrie|Mme Laëtitia Dolliou;Bretagne / Conseil régional / membre;;20/06/2012 / 17/06/2017 / nomination comme membre du gouvernement|21/06/2017 /  / ;Cadre du secteur privé;494;http://www2.assemblee-nationale.fr/deputes/fiche/OMC_PA606171;606171;richard-ferrand;https://www.nosdeputes.fr/richard-ferrand;https://www.nosdeputes.fr/richard-ferrand/csv;1;RichardFerrand
271;Amélie de Montchalin;Montchalin (de);Amélie;F;1985-06-19;Lyon 08 (Rhône);91;Essonne;6;2017-06-21;;0;LREM;La République en Marche;https://twitter.com/ademontchalin|http://www.ademontchalin.fr|http://ameliedemontchalin.en-marche.fr;amelie.demontchalin@assemblee-nationale.fr;36 Avenue Gabriel Péri 91300 Massy|Assemblée nationale, 126 Rue de l'Université, 75355 Paris 07 SP;M. Louis Marty|Mme Laurence Marty|Mme Laëtitia Brossard;;;21/06/2017 /  / ;Cadre supérieur (secteur privé);427;http://www2.assemblee-nationale.fr/deputes/fiche/OMC_PA721670;721670;amelie-de-montchalin;https://www.nosdeputes.fr/amelie-de-montchalin;https://www.nosdeputes.fr/amelie-de-montchalin/csv;1;ademontchalin

